,Month_1,Month_2,Month_3,Month_4,Vegetation_1,Vegetation_2,Vegetation_3,WS,WS-1,WS-2,WS-3,WS-4,WS-5,RH,RH-1,RH-2,RH-3,RH-4,RH-5,TA,TA-1,TA-2,TA-3,TA-4,TA-5,Eeflux_LST,Eeflux_LST-1,Eeflux_LST-2,Eeflux_LST-3,Eeflux_LST-4,Eeflux_LST-5,Eeflux_NDVI,Eeflux_NDVI-1,Eeflux_NDVI-2,Eeflux_NDVI-3,Eeflux_NDVI-4,Eeflux_NDVI-5,Eeflux_Albedo,Eeflux_Albedo_1,Eeflux_Albedo-2,Eeflux_Albedo-3,Eeflux_Albedo-4,Eeflux_Albedo-5,Eeflux_Albedo-1,LE_bowen_corr_mm
0,1,1,0,0,1,0,1,1.87975,2.117729167,2.474354167,1.8384583330000002,2.6900227269999997,3.228333333,76.931,83.75225,91.39464583,65.77508333,70.04372727,73.33239583,17.21820833,15.75610417,19.089625,10.26841667,9.641636364,13.45070833,292.96,289.16,291.16,288.3,287.62,287.6,0.847,0.835,0.8140000000000001,0.9109999999999999,0.861,0.8690000000000001,0.109,0.11,0.11,0.109,0.10800000000000001,0.109,0.11,1.704274944
1,1,1,0,0,1,0,1,1.719145833,1.87975,2.117729167,2.474354167,1.8384583330000002,2.6900227269999997,81.2356875,76.931,83.75225,91.39464583,65.77508333,70.04372727,17.61633333,17.21820833,15.75610417,19.089625,10.26841667,9.641636364,293.98,292.96,289.16,291.16,288.3,287.62,0.853,0.847,0.835,0.8140000000000001,0.9109999999999999,0.861,0.109,0.109,0.11,0.11,0.109,0.10800000000000001,0.109,1.4173611000000002
2,1,1,0,0,1,0,1,2.358083333,1.719145833,1.87975,2.117729167,2.474354167,1.8384583330000002,89.4091875,81.2356875,76.931,83.75225,91.39464583,65.77508333,18.73910417,17.61633333,17.21820833,15.75610417,19.089625,10.26841667,291.72,293.98,292.96,289.16,291.16,288.3,0.7709999999999999,0.853,0.847,0.835,0.8140000000000001,0.9109999999999999,0.109,0.109,0.109,0.11,0.11,0.109,0.109,1.506856551
3,1,1,0,0,1,0,1,2.366729167,2.358083333,1.719145833,1.87975,2.117729167,2.474354167,78.69954167,89.4091875,81.2356875,76.931,83.75225,91.39464583,16.754,18.73910417,17.61633333,17.21820833,15.75610417,19.089625,292.42,291.72,293.98,292.96,289.16,291.16,0.866,0.7709999999999999,0.853,0.847,0.835,0.8140000000000001,0.109,0.109,0.109,0.109,0.11,0.11,0.109,2.036966264
4,1,1,0,0,1,0,1,1.9090416669999999,2.366729167,2.358083333,1.719145833,1.87975,2.117729167,78.94470833,78.69954167,89.4091875,81.2356875,76.931,83.75225,19.26597917,16.754,18.73910417,17.61633333,17.21820833,15.75610417,292.76,292.42,291.72,293.98,292.96,289.16,0.8190000000000001,0.866,0.7709999999999999,0.853,0.847,0.835,0.11,0.109,0.109,0.109,0.109,0.11,0.109,1.69069303
5,1,1,0,0,1,0,1,4.21025,1.9090416669999999,2.366729167,2.358083333,1.719145833,1.87975,80.5255,78.94470833,78.69954167,89.4091875,81.2356875,76.931,17.48689583,19.26597917,16.754,18.73910417,17.61633333,17.21820833,288.48,292.76,292.42,291.72,293.98,292.96,0.7120000000000001,0.8190000000000001,0.866,0.7709999999999999,0.853,0.847,0.11,0.11,0.109,0.109,0.109,0.109,0.11,2.627794147
6,1,1,0,0,1,0,1,3.4055199999999997,4.21025,1.9090416669999999,2.366729167,2.358083333,1.719145833,54.13992,80.5255,78.94470833,78.69954167,89.4091875,81.2356875,11.6102,17.48689583,19.26597917,16.754,18.73910417,17.61633333,286.64,288.48,292.76,292.42,291.72,293.98,0.845,0.7120000000000001,0.8190000000000001,0.866,0.7709999999999999,0.853,0.11,0.11,0.11,0.109,0.109,0.109,0.11,2.259036889
7,1,1,0,0,1,0,1,3.569162162,3.4055199999999997,4.21025,1.9090416669999999,2.366729167,2.358083333,62.83951351,54.13992,80.5255,78.94470833,78.69954167,89.4091875,10.84940541,11.6102,17.48689583,19.26597917,16.754,18.73910417,286.02,286.64,288.48,292.76,292.42,291.72,0.877,0.845,0.7120000000000001,0.8190000000000001,0.866,0.7709999999999999,0.109,0.11,0.11,0.11,0.109,0.109,0.11,1.412918972
8,1,1,0,0,1,0,1,1.983125,3.569162162,3.4055199999999997,4.21025,1.9090416669999999,2.366729167,60.68645833,62.83951351,54.13992,80.5255,78.94470833,78.69954167,14.18695833,10.84940541,11.6102,17.48689583,19.26597917,16.754,290.94,286.02,286.64,288.48,292.76,292.42,0.8190000000000001,0.877,0.845,0.7120000000000001,0.8190000000000001,0.866,0.11,0.109,0.11,0.11,0.11,0.109,0.109,1.426177745
9,1,1,0,0,1,0,1,2.704729167,1.983125,3.569162162,3.4055199999999997,4.21025,1.9090416669999999,80.57433333,60.68645833,62.83951351,54.13992,80.5255,78.94470833,21.4844375,14.18695833,10.84940541,11.6102,17.48689583,19.26597917,292.28,290.94,286.02,286.64,288.48,292.76,0.5329999999999999,0.8190000000000001,0.877,0.845,0.7120000000000001,0.8190000000000001,0.11,0.11,0.109,0.11,0.11,0.11,0.11,1.829914777
10,0,0,0,1,1,0,1,2.3607083330000003,2.704729167,1.983125,3.569162162,3.4055199999999997,4.21025,82.43835417,80.57433333,60.68645833,62.83951351,54.13992,80.5255,21.1150625,21.4844375,14.18695833,10.84940541,11.6102,17.48689583,291.22,292.28,290.94,286.02,286.64,288.48,0.77,0.5329999999999999,0.8190000000000001,0.877,0.845,0.7120000000000001,0.10800000000000001,0.11,0.11,0.109,0.11,0.11,0.11,1.591256765
11,0,0,0,1,1,0,1,1.714354167,2.3607083330000003,2.704729167,1.983125,3.569162162,3.4055199999999997,85.174125,82.43835417,80.57433333,60.68645833,62.83951351,54.13992,21.82025,21.1150625,21.4844375,14.18695833,10.84940541,11.6102,295.14,291.22,292.28,290.94,286.02,286.64,0.92,0.77,0.5329999999999999,0.8190000000000001,0.877,0.845,0.109,0.10800000000000001,0.11,0.11,0.109,0.11,0.10800000000000001,1.8034764090000002
12,0,0,0,1,1,0,1,2.2336041669999998,1.714354167,2.3607083330000003,2.704729167,1.983125,3.569162162,75.38722917,85.174125,82.43835417,80.57433333,60.68645833,62.83951351,16.62002083,21.82025,21.1150625,21.4844375,14.18695833,10.84940541,291.12,295.14,291.22,292.28,290.94,286.02,0.847,0.92,0.77,0.5329999999999999,0.8190000000000001,0.877,0.111,0.109,0.10800000000000001,0.11,0.11,0.109,0.109,2.30871162
13,0,0,0,1,1,0,1,1.8416041669999998,2.2336041669999998,1.714354167,2.3607083330000003,2.704729167,1.983125,77.37879167,75.38722917,85.174125,82.43835417,80.57433333,60.68645833,17.20677083,16.62002083,21.82025,21.1150625,21.4844375,14.18695833,291.32,291.12,295.14,291.22,292.28,290.94,0.8440000000000001,0.847,0.92,0.77,0.5329999999999999,0.8190000000000001,0.113,0.111,0.109,0.10800000000000001,0.11,0.11,0.111,2.3040482140000003
14,0,0,0,1,1,0,1,1.230916667,1.8416041669999998,2.2336041669999998,1.714354167,2.3607083330000003,2.704729167,95.07516667,77.37879167,75.38722917,85.174125,82.43835417,80.57433333,21.8673125,17.20677083,16.62002083,21.82025,21.1150625,21.4844375,294.62,291.32,291.12,295.14,291.22,292.28,0.535,0.8440000000000001,0.847,0.92,0.77,0.5329999999999999,0.11599999999999999,0.113,0.111,0.109,0.10800000000000001,0.11,0.113,1.77200307
15,0,0,0,1,1,0,1,3.207270833,1.230916667,1.8416041669999998,2.2336041669999998,1.714354167,2.3607083330000003,62.2264375,95.07516667,77.37879167,75.38722917,85.174125,82.43835417,11.0648125,21.8673125,17.20677083,16.62002083,21.82025,21.1150625,287.38,294.62,291.32,291.12,295.14,291.22,0.848,0.535,0.8440000000000001,0.847,0.92,0.77,0.11599999999999999,0.11599999999999999,0.113,0.111,0.109,0.10800000000000001,0.11599999999999999,1.876756885
16,0,0,0,1,1,0,1,2.174416667,3.207270833,1.230916667,1.8416041669999998,2.2336041669999998,1.714354167,70.08435417,62.2264375,95.07516667,77.37879167,75.38722917,85.174125,16.5125625,11.0648125,21.8673125,17.20677083,16.62002083,21.82025,292.36,287.38,294.62,291.32,291.12,295.14,0.826,0.848,0.535,0.8440000000000001,0.847,0.92,0.11599999999999999,0.11599999999999999,0.11599999999999999,0.113,0.111,0.109,0.11599999999999999,2.672359746
17,0,0,0,1,1,0,1,2.073375,2.174416667,3.207270833,1.230916667,1.8416041669999998,2.2336041669999998,75.0810625,70.08435417,62.2264375,95.07516667,77.37879167,75.38722917,17.6573125,16.5125625,11.0648125,21.8673125,17.20677083,16.62002083,294.22,292.36,287.38,294.62,291.32,291.12,0.825,0.826,0.848,0.535,0.8440000000000001,0.847,0.115,0.11599999999999999,0.11599999999999999,0.11599999999999999,0.113,0.111,0.11599999999999999,1.995148985
18,0,0,0,1,1,0,1,1.897979167,2.073375,2.174416667,3.207270833,1.230916667,1.8416041669999998,92.572625,75.0810625,70.08435417,62.2264375,95.07516667,77.37879167,21.07358333,17.6573125,16.5125625,11.0648125,21.8673125,17.20677083,295.84,294.22,292.36,287.38,294.62,291.32,0.8540000000000001,0.825,0.826,0.848,0.535,0.8440000000000001,0.115,0.115,0.11599999999999999,0.11599999999999999,0.11599999999999999,0.113,0.115,1.507531289
19,0,0,0,1,1,0,1,1.074895833,1.897979167,2.073375,2.174416667,3.207270833,1.230916667,91.34689583,92.572625,75.0810625,70.08435417,62.2264375,95.07516667,20.96035417,21.07358333,17.6573125,16.5125625,11.0648125,21.8673125,295.84,295.84,294.22,292.36,287.38,294.62,0.8640000000000001,0.8540000000000001,0.825,0.826,0.848,0.535,0.114,0.115,0.115,0.11599999999999999,0.11599999999999999,0.11599999999999999,0.115,2.052098846
20,0,0,0,1,1,0,1,2.213808511,1.074895833,1.897979167,2.073375,2.174416667,3.207270833,90.37163829999999,91.34689583,92.572625,75.0810625,70.08435417,62.2264375,21.23993617,20.96035417,21.07358333,17.6573125,16.5125625,11.0648125,295.5,295.84,295.84,294.22,292.36,287.38,0.856,0.8640000000000001,0.8540000000000001,0.825,0.826,0.848,0.114,0.114,0.115,0.115,0.11599999999999999,0.11599999999999999,0.114,2.112372867
21,0,0,0,1,1,0,1,1.987416667,2.213808511,1.074895833,1.897979167,2.073375,2.174416667,68.63008333,90.37163829999999,91.34689583,92.572625,75.0810625,70.08435417,11.92845833,21.23993617,20.96035417,21.07358333,17.6573125,16.5125625,290.42,295.5,295.84,295.84,294.22,292.36,0.872,0.856,0.8640000000000001,0.8540000000000001,0.825,0.826,0.113,0.114,0.114,0.115,0.115,0.11599999999999999,0.114,2.359227583
22,0,0,0,1,1,0,1,3.434125,1.987416667,2.213808511,1.074895833,1.897979167,2.073375,86.83291667,68.63008333,90.37163829999999,91.34689583,92.572625,75.0810625,21.6361875,11.92845833,21.23993617,20.96035417,21.07358333,17.6573125,294.76,290.42,295.5,295.84,295.84,294.22,0.46,0.872,0.856,0.8640000000000001,0.8540000000000001,0.825,0.10800000000000001,0.113,0.114,0.114,0.115,0.115,0.113,1.551473342
23,0,0,0,1,1,0,1,2.373375,3.434125,1.987416667,2.213808511,1.074895833,1.897979167,74.17302083,86.83291667,68.63008333,90.37163829999999,91.34689583,92.572625,14.2905625,21.6361875,11.92845833,21.23993617,20.96035417,21.07358333,291.04,294.76,290.42,295.5,295.84,295.84,0.855,0.46,0.872,0.856,0.8640000000000001,0.8540000000000001,0.107,0.10800000000000001,0.113,0.114,0.114,0.115,0.10800000000000001,2.6253013590000003
24,0,0,0,1,1,0,1,1.6289375,2.373375,3.434125,1.987416667,2.213808511,1.074895833,74.75754167,74.17302083,86.83291667,68.63008333,90.37163829999999,91.34689583,14.036125,14.2905625,21.6361875,11.92845833,21.23993617,20.96035417,292.0,291.04,294.76,290.42,295.5,295.84,0.8490000000000001,0.855,0.46,0.872,0.856,0.8640000000000001,0.109,0.107,0.10800000000000001,0.113,0.114,0.114,0.107,1.5470369
25,0,0,0,1,1,0,1,1.726875,1.6289375,2.373375,3.434125,1.987416667,2.213808511,75.39170833,74.75754167,74.17302083,86.83291667,68.63008333,90.37163829999999,16.28220833,14.036125,14.2905625,21.6361875,11.92845833,21.23993617,292.58,292.0,291.04,294.76,290.42,295.5,0.691,0.8490000000000001,0.855,0.46,0.872,0.856,0.10800000000000001,0.109,0.107,0.10800000000000001,0.113,0.114,0.109,2.223590647
26,0,0,0,1,1,0,1,1.8302708330000002,1.726875,1.6289375,2.373375,3.434125,1.987416667,82.52827083,75.39170833,74.75754167,74.17302083,86.83291667,68.63008333,18.31695833,16.28220833,14.036125,14.2905625,21.6361875,11.92845833,293.8,292.58,292.0,291.04,294.76,290.42,0.802,0.691,0.8490000000000001,0.855,0.46,0.872,0.107,0.10800000000000001,0.109,0.107,0.10800000000000001,0.113,0.10800000000000001,1.9993828319999998
27,0,0,1,0,1,0,1,1.7777708330000002,1.8302708330000002,1.726875,1.6289375,2.373375,3.434125,90.32464583,82.52827083,75.39170833,74.75754167,74.17302083,86.83291667,21.56929167,18.31695833,16.28220833,14.036125,14.2905625,21.6361875,293.38,293.8,292.58,292.0,291.04,294.76,0.754,0.802,0.691,0.8490000000000001,0.855,0.46,0.113,0.107,0.10800000000000001,0.109,0.107,0.10800000000000001,0.107,2.3264056159999997
28,0,0,1,0,1,0,1,2.072541667,1.7777708330000002,1.8302708330000002,1.726875,1.6289375,2.373375,87.94129167,90.32464583,82.52827083,75.39170833,74.75754167,74.17302083,22.06633333,21.56929167,18.31695833,16.28220833,14.036125,14.2905625,293.92,293.38,293.8,292.58,292.0,291.04,0.695,0.754,0.802,0.691,0.8490000000000001,0.855,0.113,0.113,0.107,0.10800000000000001,0.109,0.107,0.113,2.622664593
29,0,0,1,0,1,0,1,2.491083333,2.072541667,1.7777708330000002,1.8302708330000002,1.726875,1.6289375,86.76166667,87.94129167,90.32464583,82.52827083,75.39170833,74.75754167,22.52204167,22.06633333,21.56929167,18.31695833,16.28220833,14.036125,297.52,293.92,293.38,293.8,292.58,292.0,0.8909999999999999,0.695,0.754,0.802,0.691,0.8490000000000001,0.115,0.113,0.113,0.107,0.10800000000000001,0.109,0.113,2.2695943
30,0,0,1,0,1,0,1,2.2140625,2.491083333,2.072541667,1.7777708330000002,1.8302708330000002,1.726875,75.59610417,86.76166667,87.94129167,90.32464583,82.52827083,75.39170833,19.00147917,22.52204167,22.06633333,21.56929167,18.31695833,16.28220833,293.94,297.52,293.92,293.38,293.8,292.58,0.825,0.8909999999999999,0.695,0.754,0.802,0.691,0.11699999999999999,0.115,0.113,0.113,0.107,0.10800000000000001,0.115,2.971270947
31,0,0,1,0,1,0,1,2.646041667,2.2140625,2.491083333,2.072541667,1.7777708330000002,1.8302708330000002,60.8055,75.59610417,86.76166667,87.94129167,90.32464583,82.52827083,14.28454167,19.00147917,22.52204167,22.06633333,21.56929167,18.31695833,292.1,293.94,297.52,293.92,293.38,293.8,0.868,0.825,0.8909999999999999,0.695,0.754,0.802,0.11900000000000001,0.11699999999999999,0.115,0.113,0.113,0.107,0.11699999999999999,3.210089543
32,0,0,1,0,1,0,1,1.9897708330000001,2.646041667,2.2140625,2.491083333,2.072541667,1.7777708330000002,72.34408333,60.8055,75.59610417,86.76166667,87.94129167,90.32464583,15.92752083,14.28454167,19.00147917,22.52204167,22.06633333,21.56929167,294.36,292.1,293.94,297.52,293.92,293.38,0.865,0.868,0.825,0.8909999999999999,0.695,0.754,0.11900000000000001,0.11900000000000001,0.11699999999999999,0.115,0.113,0.113,0.11900000000000001,2.8646782789999996
33,0,0,1,0,1,0,1,1.8471458330000001,1.9897708330000001,2.646041667,2.2140625,2.491083333,2.072541667,65.51722917,72.34408333,60.8055,75.59610417,86.76166667,87.94129167,15.29658333,15.92752083,14.28454167,19.00147917,22.52204167,22.06633333,293.3,294.36,292.1,293.94,297.52,293.92,0.8690000000000001,0.865,0.868,0.825,0.8909999999999999,0.695,0.11800000000000001,0.11900000000000001,0.11900000000000001,0.11699999999999999,0.115,0.113,0.11900000000000001,2.7884298430000003
34,0,0,1,0,1,0,1,1.6060625,1.8471458330000001,1.9897708330000001,2.646041667,2.2140625,2.491083333,72.430875,65.51722917,72.34408333,60.8055,75.59610417,86.76166667,17.50445833,15.29658333,15.92752083,14.28454167,19.00147917,22.52204167,294.76,293.3,294.36,292.1,293.94,297.52,0.86,0.8690000000000001,0.865,0.868,0.825,0.8909999999999999,0.11900000000000001,0.11800000000000001,0.11900000000000001,0.11900000000000001,0.11699999999999999,0.115,0.11800000000000001,2.373941282
35,0,0,1,0,1,0,1,1.612145833,1.6060625,1.8471458330000001,1.9897708330000001,2.646041667,2.2140625,78.74845833,72.430875,65.51722917,72.34408333,60.8055,75.59610417,19.26972917,17.50445833,15.29658333,15.92752083,14.28454167,19.00147917,293.02,294.76,293.3,294.36,292.1,293.94,0.602,0.86,0.8690000000000001,0.865,0.868,0.825,0.11800000000000001,0.11900000000000001,0.11800000000000001,0.11900000000000001,0.11900000000000001,0.11699999999999999,0.11900000000000001,3.5164100819999997
36,0,0,1,0,1,0,1,1.540479167,1.612145833,1.6060625,1.8471458330000001,1.9897708330000001,2.646041667,80.57804167,78.74845833,72.430875,65.51722917,72.34408333,60.8055,19.115375,19.26972917,17.50445833,15.29658333,15.92752083,14.28454167,296.22,293.02,294.76,293.3,294.36,292.1,0.8390000000000001,0.602,0.86,0.8690000000000001,0.865,0.868,0.11800000000000001,0.11800000000000001,0.11900000000000001,0.11800000000000001,0.11900000000000001,0.11900000000000001,0.11800000000000001,3.172317405
37,0,0,1,0,1,0,1,1.8482708330000002,1.540479167,1.612145833,1.6060625,1.8471458330000001,1.9897708330000001,77.51295833,80.57804167,78.74845833,72.430875,65.51722917,72.34408333,20.0325625,19.115375,19.26972917,17.50445833,15.29658333,15.92752083,292.92,296.22,293.02,294.76,293.3,294.36,0.322,0.8390000000000001,0.602,0.86,0.8690000000000001,0.865,0.12,0.11800000000000001,0.11800000000000001,0.11900000000000001,0.11800000000000001,0.11900000000000001,0.11800000000000001,3.200638128
38,0,0,1,0,1,0,1,1.9663125,1.8482708330000002,1.540479167,1.612145833,1.6060625,1.8471458330000001,82.59754167,77.51295833,80.57804167,78.74845833,72.430875,65.51722917,21.1035,20.0325625,19.115375,19.26972917,17.50445833,15.29658333,297.04,292.92,296.22,293.02,294.76,293.3,0.8340000000000001,0.322,0.8390000000000001,0.602,0.86,0.8690000000000001,0.12,0.12,0.11800000000000001,0.11800000000000001,0.11900000000000001,0.11800000000000001,0.12,2.884551291
39,0,0,1,0,1,0,1,1.5209166669999998,1.9663125,1.8482708330000002,1.540479167,1.612145833,1.6060625,87.77529167,82.59754167,77.51295833,80.57804167,78.74845833,72.430875,22.48414583,21.1035,20.0325625,19.115375,19.26972917,17.50445833,295.9,297.04,292.92,296.22,293.02,294.76,0.629,0.8340000000000001,0.322,0.8390000000000001,0.602,0.86,0.11699999999999999,0.12,0.12,0.11800000000000001,0.11800000000000001,0.11900000000000001,0.12,2.789906481
40,0,0,1,0,1,0,1,1.546395833,1.5209166669999998,1.9663125,1.8482708330000002,1.540479167,1.612145833,76.9559375,87.77529167,82.59754167,77.51295833,80.57804167,78.74845833,21.56047917,22.48414583,21.1035,20.0325625,19.115375,19.26972917,298.4,295.9,297.04,292.92,296.22,293.02,0.878,0.629,0.8340000000000001,0.322,0.8390000000000001,0.602,0.121,0.11699999999999999,0.12,0.12,0.11800000000000001,0.11800000000000001,0.11699999999999999,3.6104461660000005
41,0,0,1,0,1,0,1,2.2333958330000003,1.546395833,1.5209166669999998,1.9663125,1.8482708330000002,1.540479167,81.96291667,76.9559375,87.77529167,82.59754167,77.51295833,80.57804167,22.327375,21.56047917,22.48414583,21.1035,20.0325625,19.115375,295.78,298.4,295.9,297.04,292.92,296.22,0.131,0.878,0.629,0.8340000000000001,0.322,0.8390000000000001,0.11199999999999999,0.121,0.11699999999999999,0.12,0.12,0.11800000000000001,0.121,3.286626205
42,0,0,1,1,1,0,1,2.087521739,2.2333958330000003,1.546395833,1.5209166669999998,1.9663125,1.8482708330000002,87.94552174,81.96291667,76.9559375,87.77529167,82.59754167,77.51295833,23.4445,22.327375,21.56047917,22.48414583,21.1035,20.0325625,295.92,295.78,298.4,295.9,297.04,292.92,0.28800000000000003,0.131,0.878,0.629,0.8340000000000001,0.322,0.113,0.11199999999999999,0.121,0.11699999999999999,0.12,0.12,0.11199999999999999,3.350641108
43,0,0,1,1,1,0,1,2.612333333,2.087521739,2.2333958330000003,1.546395833,1.5209166669999998,1.9663125,79.78310417,87.94552174,81.96291667,76.9559375,87.77529167,82.59754167,21.56697917,23.4445,22.327375,21.56047917,22.48414583,21.1035,295.94,295.92,295.78,298.4,295.9,297.04,0.639,0.28800000000000003,0.131,0.878,0.629,0.8340000000000001,0.11,0.113,0.11199999999999999,0.121,0.11699999999999999,0.12,0.113,5.279278472
44,0,0,1,1,1,0,1,3.0299166669999997,2.612333333,2.087521739,2.2333958330000003,1.546395833,1.5209166669999998,69.86316667,79.78310417,87.94552174,81.96291667,76.9559375,87.77529167,19.484375,21.56697917,23.4445,22.327375,21.56047917,22.48414583,291.16,295.94,295.92,295.78,298.4,295.9,0.499,0.639,0.28800000000000003,0.131,0.878,0.629,0.114,0.11,0.113,0.11199999999999999,0.121,0.11699999999999999,0.11,4.910802732
45,0,0,1,1,1,0,1,2.0958125,3.0299166669999997,2.612333333,2.087521739,2.2333958330000003,1.546395833,79.84891667,69.86316667,79.78310417,87.94552174,81.96291667,76.9559375,20.594875,19.484375,21.56697917,23.4445,22.327375,21.56047917,295.5,291.16,295.94,295.92,295.78,298.4,0.8390000000000001,0.499,0.639,0.28800000000000003,0.131,0.878,0.11199999999999999,0.114,0.11,0.113,0.11199999999999999,0.121,0.114,3.4806931160000003
46,0,0,1,1,1,0,1,2.2694166669999998,2.0958125,3.0299166669999997,2.612333333,2.087521739,2.2333958330000003,84.6455,79.84891667,69.86316667,79.78310417,87.94552174,81.96291667,20.76633333,20.594875,19.484375,21.56697917,23.4445,22.327375,295.36,295.5,291.16,295.94,295.92,295.78,0.605,0.8390000000000001,0.499,0.639,0.28800000000000003,0.131,0.11199999999999999,0.11199999999999999,0.114,0.11,0.113,0.11199999999999999,0.11199999999999999,3.8463864080000003
47,0,0,1,1,1,0,1,2.935458333,2.2694166669999998,2.0958125,3.0299166669999997,2.612333333,2.087521739,81.69385417,84.6455,79.84891667,69.86316667,79.78310417,87.94552174,22.34889583,20.76633333,20.594875,19.484375,21.56697917,23.4445,297.28,295.36,295.5,291.16,295.94,295.92,0.765,0.605,0.8390000000000001,0.499,0.639,0.28800000000000003,0.11199999999999999,0.11199999999999999,0.11199999999999999,0.114,0.11,0.113,0.11199999999999999,3.488374725
48,0,0,1,1,1,0,1,2.878291667,2.935458333,2.2694166669999998,2.0958125,3.0299166669999997,2.612333333,68.8263125,81.69385417,84.6455,79.84891667,69.86316667,79.78310417,14.66991667,22.34889583,20.76633333,20.594875,19.484375,21.56697917,292.0,297.28,295.36,295.5,291.16,295.94,0.823,0.765,0.605,0.8390000000000001,0.499,0.639,0.113,0.11199999999999999,0.11199999999999999,0.11199999999999999,0.114,0.11,0.11199999999999999,3.6975233139999997
49,0,0,1,1,1,0,1,2.1192916669999997,2.878291667,2.935458333,2.2694166669999998,2.0958125,3.0299166669999997,67.71714583,68.8263125,81.69385417,84.6455,79.84891667,69.86316667,15.42795833,14.66991667,22.34889583,20.76633333,20.594875,19.484375,294.82,292.0,297.28,295.36,295.5,291.16,0.847,0.823,0.765,0.605,0.8390000000000001,0.499,0.113,0.113,0.11199999999999999,0.11199999999999999,0.11199999999999999,0.114,0.113,3.275608348
50,0,0,1,1,1,0,1,1.72626087,2.1192916669999997,2.878291667,2.935458333,2.2694166669999998,2.0958125,69.65213043,67.71714583,68.8263125,81.69385417,84.6455,79.84891667,18.08058696,15.42795833,14.66991667,22.34889583,20.76633333,20.594875,293.78,294.82,292.0,297.28,295.36,295.5,0.65,0.847,0.823,0.765,0.605,0.8390000000000001,0.115,0.113,0.113,0.11199999999999999,0.11199999999999999,0.11199999999999999,0.113,3.8532378260000004
51,0,0,1,1,1,0,1,2.0604166669999997,1.72626087,2.1192916669999997,2.878291667,2.935458333,2.2694166669999998,71.87939583,69.65213043,67.71714583,68.8263125,81.69385417,84.6455,18.31304167,18.08058696,15.42795833,14.66991667,22.34889583,20.76633333,296.28,293.78,294.82,292.0,297.28,295.36,0.498,0.65,0.847,0.823,0.765,0.605,0.115,0.115,0.113,0.113,0.11199999999999999,0.11199999999999999,0.115,3.40024514
52,0,0,1,1,1,0,1,1.8249166669999999,2.0604166669999997,1.72626087,2.1192916669999997,2.878291667,2.935458333,71.09022917,71.87939583,69.65213043,67.71714583,68.8263125,81.69385417,19.15072917,18.31304167,18.08058696,15.42795833,14.66991667,22.34889583,292.06,296.28,293.78,294.82,292.0,297.28,0.69,0.498,0.65,0.847,0.823,0.765,0.115,0.115,0.115,0.113,0.113,0.11199999999999999,0.115,3.6982703530000003
53,0,0,1,1,1,0,1,1.5881875,1.8249166669999999,2.0604166669999997,1.72626087,2.1192916669999997,2.878291667,70.49908333,71.09022917,71.87939583,69.65213043,67.71714583,68.8263125,20.23275,19.15072917,18.31304167,18.08058696,15.42795833,14.66991667,294.9,292.06,296.28,293.78,294.82,292.0,0.135,0.69,0.498,0.65,0.847,0.823,0.11599999999999999,0.115,0.115,0.115,0.113,0.113,0.115,3.6311034839999996
54,0,0,1,1,1,0,1,1.9533333330000002,1.5881875,1.8249166669999999,2.0604166669999997,1.72626087,2.1192916669999997,64.57129167,70.49908333,71.09022917,71.87939583,69.65213043,67.71714583,20.977375,20.23275,19.15072917,18.31304167,18.08058696,15.42795833,298.88,294.9,292.06,296.28,293.78,294.82,0.823,0.135,0.69,0.498,0.65,0.847,0.115,0.11599999999999999,0.115,0.115,0.115,0.113,0.11599999999999999,5.296032835
55,0,0,1,1,1,0,1,1.810787879,1.9533333330000002,1.5881875,1.8249166669999999,2.0604166669999997,1.72626087,71.06539394,64.57129167,70.49908333,71.09022917,71.87939583,69.65213043,18.90836364,20.977375,20.23275,19.15072917,18.31304167,18.08058696,297.74,298.88,294.9,292.06,296.28,293.78,0.8140000000000001,0.823,0.135,0.69,0.498,0.65,0.115,0.115,0.11599999999999999,0.115,0.115,0.115,0.115,4.9225522989999995
56,0,0,1,1,1,0,1,2.292681818,1.810787879,1.9533333330000002,1.5881875,1.8249166669999999,2.0604166669999997,73.24934091,71.06539394,64.57129167,70.49908333,71.09022917,71.87939583,21.06543182,18.90836364,20.977375,20.23275,19.15072917,18.31304167,297.68,297.74,298.88,294.9,292.06,296.28,0.845,0.8140000000000001,0.823,0.135,0.69,0.498,0.114,0.115,0.115,0.11599999999999999,0.115,0.115,0.115,4.995098071
57,0,0,1,1,1,0,1,2.052729167,2.292681818,1.810787879,1.9533333330000002,1.5881875,1.8249166669999999,73.51804167,73.24934091,71.06539394,64.57129167,70.49908333,71.09022917,19.92429167,21.06543182,18.90836364,20.977375,20.23275,19.15072917,296.3,297.68,297.74,298.88,294.9,292.06,0.8759999999999999,0.845,0.8140000000000001,0.823,0.135,0.69,0.11699999999999999,0.114,0.115,0.115,0.11599999999999999,0.115,0.114,3.9186080000000003
58,0,0,1,1,1,0,1,1.669791667,2.052729167,2.292681818,1.810787879,1.9533333330000002,1.5881875,78.44025,73.51804167,73.24934091,71.06539394,64.57129167,70.49908333,20.79114583,19.92429167,21.06543182,18.90836364,20.977375,20.23275,298.1,296.3,297.68,297.74,298.88,294.9,0.82,0.8759999999999999,0.845,0.8140000000000001,0.823,0.135,0.11800000000000001,0.11699999999999999,0.114,0.115,0.115,0.11599999999999999,0.11699999999999999,3.390880178
59,0,0,1,1,1,0,1,1.9865,1.669791667,2.052729167,2.292681818,1.810787879,1.9533333330000002,78.54710417,78.44025,73.51804167,73.24934091,71.06539394,64.57129167,23.890375,20.79114583,19.92429167,21.06543182,18.90836364,20.977375,297.6,298.1,296.3,297.68,297.74,298.88,0.872,0.82,0.8759999999999999,0.845,0.8140000000000001,0.823,0.11800000000000001,0.11800000000000001,0.11699999999999999,0.114,0.115,0.115,0.11800000000000001,3.4713684739999997
60,0,0,1,1,1,0,1,1.905416667,1.9865,1.669791667,2.052729167,2.292681818,1.810787879,85.26754167,78.54710417,78.44025,73.51804167,73.24934091,71.06539394,23.64420833,23.890375,20.79114583,19.92429167,21.06543182,18.90836364,299.1,297.6,298.1,296.3,297.68,297.74,0.8370000000000001,0.872,0.82,0.8759999999999999,0.845,0.8140000000000001,0.11800000000000001,0.11800000000000001,0.11800000000000001,0.11699999999999999,0.114,0.115,0.11800000000000001,3.447319022
61,0,0,1,1,1,0,1,1.6613720930000002,1.905416667,1.9865,1.669791667,2.052729167,2.292681818,74.25653488,85.26754167,78.54710417,78.44025,73.51804167,73.24934091,24.250209299999998,23.64420833,23.890375,20.79114583,19.92429167,21.06543182,299.3,299.1,297.6,298.1,296.3,297.68,0.877,0.8370000000000001,0.872,0.82,0.8759999999999999,0.845,0.11800000000000001,0.11800000000000001,0.11800000000000001,0.11800000000000001,0.11699999999999999,0.114,0.11800000000000001,4.880953728
62,0,0,1,1,1,0,1,2.217645833,1.6613720930000002,1.905416667,1.9865,1.669791667,2.052729167,72.2283125,74.25653488,85.26754167,78.54710417,78.44025,73.51804167,25.1319375,24.250209299999998,23.64420833,23.890375,20.79114583,19.92429167,300.36,299.3,299.1,297.6,298.1,296.3,0.847,0.877,0.8370000000000001,0.872,0.82,0.8759999999999999,0.11800000000000001,0.11800000000000001,0.11800000000000001,0.11800000000000001,0.11800000000000001,0.11699999999999999,0.11800000000000001,4.1068568910000005
63,0,0,1,1,1,0,1,2.7747708330000003,2.217645833,1.6613720930000002,1.905416667,1.9865,1.669791667,84.3074375,72.2283125,74.25653488,85.26754167,78.54710417,78.44025,23.23989583,25.1319375,24.250209299999998,23.64420833,23.890375,20.79114583,297.4,300.36,299.3,299.1,297.6,298.1,0.802,0.847,0.877,0.8370000000000001,0.872,0.82,0.11699999999999999,0.11800000000000001,0.11800000000000001,0.11800000000000001,0.11800000000000001,0.11800000000000001,0.11800000000000001,5.109765445
64,0,0,1,1,1,0,1,2.5638541669999997,2.7747708330000003,2.217645833,1.6613720930000002,1.905416667,1.9865,83.6843125,84.3074375,72.2283125,74.25653488,85.26754167,78.54710417,25.1039375,23.23989583,25.1319375,24.250209299999998,23.64420833,23.890375,300.66,297.4,300.36,299.3,299.1,297.6,0.762,0.802,0.847,0.877,0.8370000000000001,0.872,0.11599999999999999,0.11699999999999999,0.11800000000000001,0.11800000000000001,0.11800000000000001,0.11800000000000001,0.11699999999999999,3.769944384
65,0,0,1,1,1,0,1,2.491104167,2.5638541669999997,2.7747708330000003,2.217645833,1.6613720930000002,1.905416667,85.81429167,83.6843125,84.3074375,72.2283125,74.25653488,85.26754167,25.24995833,25.1039375,23.23989583,25.1319375,24.250209299999998,23.64420833,296.64,300.66,297.4,300.36,299.3,299.1,0.49,0.762,0.802,0.847,0.877,0.8370000000000001,0.11599999999999999,0.11599999999999999,0.11699999999999999,0.11800000000000001,0.11800000000000001,0.11800000000000001,0.11599999999999999,3.373635733
66,0,1,0,0,1,0,1,2.006208333,2.491104167,2.5638541669999997,2.7747708330000003,2.217645833,1.6613720930000002,68.98485417,85.81429167,83.6843125,84.3074375,72.2283125,74.25653488,23.47479167,25.24995833,25.1039375,23.23989583,25.1319375,24.250209299999998,299.84,296.64,300.66,297.4,300.36,299.3,0.8440000000000001,0.49,0.762,0.802,0.847,0.877,0.11699999999999999,0.11599999999999999,0.11599999999999999,0.11699999999999999,0.11800000000000001,0.11800000000000001,0.11599999999999999,5.076894895
67,0,1,0,0,1,0,1,1.814375,2.006208333,2.491104167,2.5638541669999997,2.7747708330000003,2.217645833,78.41247917,68.98485417,85.81429167,83.6843125,84.3074375,72.2283125,24.32239583,23.47479167,25.24995833,25.1039375,23.23989583,25.1319375,298.38,299.84,296.64,300.66,297.4,300.36,0.542,0.8440000000000001,0.49,0.762,0.802,0.847,0.11599999999999999,0.11699999999999999,0.11599999999999999,0.11599999999999999,0.11699999999999999,0.11800000000000001,0.11699999999999999,4.180783945
68,0,1,0,0,1,0,1,2.8740625,1.814375,2.006208333,2.491104167,2.5638541669999997,2.7747708330000003,80.1068125,78.41247917,68.98485417,85.81429167,83.6843125,84.3074375,24.43091667,24.32239583,23.47479167,25.24995833,25.1039375,23.23989583,299.94,298.38,299.84,296.64,300.66,297.4,0.82,0.542,0.8440000000000001,0.49,0.762,0.802,0.11900000000000001,0.11599999999999999,0.11699999999999999,0.11599999999999999,0.11599999999999999,0.11699999999999999,0.11599999999999999,4.320931713999999
69,0,1,0,0,1,0,1,2.8616875,2.8740625,1.814375,2.006208333,2.491104167,2.5638541669999997,79.24510417,80.1068125,78.41247917,68.98485417,85.81429167,83.6843125,25.0144375,24.43091667,24.32239583,23.47479167,25.24995833,25.1039375,299.52,299.94,298.38,299.84,296.64,300.66,0.629,0.82,0.542,0.8440000000000001,0.49,0.762,0.11900000000000001,0.11900000000000001,0.11599999999999999,0.11699999999999999,0.11599999999999999,0.11599999999999999,0.11900000000000001,3.84493385
70,0,1,0,0,1,0,1,1.826375,2.8616875,2.8740625,1.814375,2.006208333,2.491104167,78.9655625,79.24510417,80.1068125,78.41247917,68.98485417,85.81429167,22.14479167,25.0144375,24.43091667,24.32239583,23.47479167,25.24995833,298.62,299.52,299.94,298.38,299.84,296.64,0.799,0.629,0.82,0.542,0.8440000000000001,0.49,0.114,0.11900000000000001,0.11900000000000001,0.11599999999999999,0.11699999999999999,0.11599999999999999,0.11900000000000001,4.562704223
71,0,1,0,0,1,0,1,2.0952708330000003,1.826375,2.8616875,2.8740625,1.814375,2.006208333,81.92320833,78.9655625,79.24510417,80.1068125,78.41247917,68.98485417,23.58160417,22.14479167,25.0144375,24.43091667,24.32239583,23.47479167,297.18,298.62,299.52,299.94,298.38,299.84,0.467,0.799,0.629,0.82,0.542,0.8440000000000001,0.114,0.114,0.11900000000000001,0.11900000000000001,0.11599999999999999,0.11699999999999999,0.114,4.176941879
72,0,1,0,0,1,0,1,1.963625,2.0952708330000003,1.826375,2.8616875,2.8740625,1.814375,77.707,81.92320833,78.9655625,79.24510417,80.1068125,78.41247917,24.45197917,23.58160417,22.14479167,25.0144375,24.43091667,24.32239583,298.02,297.18,298.62,299.52,299.94,298.38,0.75,0.467,0.799,0.629,0.82,0.542,0.12,0.114,0.114,0.11900000000000001,0.11900000000000001,0.11599999999999999,0.114,4.16299648
73,0,1,0,0,1,0,1,1.589125,1.963625,2.0952708330000003,1.826375,2.8616875,2.8740625,76.55283333,77.707,81.92320833,78.9655625,79.24510417,80.1068125,24.45916667,24.45197917,23.58160417,22.14479167,25.0144375,24.43091667,300.92,298.02,297.18,298.62,299.52,299.94,0.769,0.75,0.467,0.799,0.629,0.82,0.122,0.12,0.114,0.114,0.11900000000000001,0.11900000000000001,0.12,4.62182567
74,0,1,0,0,1,0,1,1.9465,1.589125,1.963625,2.0952708330000003,1.826375,2.8616875,77.9383125,76.55283333,77.707,81.92320833,78.9655625,79.24510417,24.41635417,24.45916667,24.45197917,23.58160417,22.14479167,25.0144375,299.98,300.92,298.02,297.18,298.62,299.52,0.742,0.769,0.75,0.467,0.799,0.629,0.124,0.122,0.12,0.114,0.114,0.11900000000000001,0.122,4.5687460280000005
75,0,1,0,0,1,0,1,1.826375,1.9465,1.589125,1.963625,2.0952708330000003,1.826375,80.09641667,77.9383125,76.55283333,77.707,81.92320833,78.9655625,24.57197917,24.41635417,24.45916667,24.45197917,23.58160417,22.14479167,299.86,299.98,300.92,298.02,297.18,298.62,0.807,0.742,0.769,0.75,0.467,0.799,0.124,0.124,0.122,0.12,0.114,0.114,0.124,4.446488268
76,0,1,0,0,1,0,1,1.71475,1.826375,1.9465,1.589125,1.963625,2.0952708330000003,76.470375,80.09641667,77.9383125,76.55283333,77.707,81.92320833,24.39016667,24.57197917,24.41635417,24.45916667,24.45197917,23.58160417,299.14,299.86,299.98,300.92,298.02,297.18,0.823,0.807,0.742,0.769,0.75,0.467,0.124,0.124,0.124,0.122,0.12,0.114,0.124,4.2737463380000005
77,0,1,0,0,1,0,1,1.923291667,1.71475,1.826375,1.9465,1.589125,1.963625,60.8546875,76.470375,80.09641667,77.9383125,76.55283333,77.707,24.14152083,24.39016667,24.57197917,24.41635417,24.45916667,24.45197917,300.96,299.14,299.86,299.98,300.92,298.02,0.8440000000000001,0.823,0.807,0.742,0.769,0.75,0.122,0.124,0.124,0.124,0.122,0.12,0.124,5.733189076
78,0,1,0,0,1,0,1,1.568875,1.923291667,1.71475,1.826375,1.9465,1.589125,77.57827083,60.8546875,76.470375,80.09641667,77.9383125,76.55283333,24.2174375,24.14152083,24.39016667,24.57197917,24.41635417,24.45916667,299.32,300.96,299.14,299.86,299.98,300.92,0.677,0.8440000000000001,0.823,0.807,0.742,0.769,0.11900000000000001,0.122,0.124,0.124,0.124,0.122,0.122,4.41866432
79,0,1,0,0,1,0,1,1.5056666669999998,1.568875,1.923291667,1.71475,1.826375,1.9465,82.46704167,77.57827083,60.8546875,76.470375,80.09641667,77.9383125,25.63533333,24.2174375,24.14152083,24.39016667,24.57197917,24.41635417,301.02,299.32,300.96,299.14,299.86,299.98,0.813,0.677,0.8440000000000001,0.823,0.807,0.742,0.11900000000000001,0.11900000000000001,0.122,0.124,0.124,0.124,0.11900000000000001,4.247849708
80,0,1,0,0,1,0,1,2.3408125,1.5056666669999998,1.568875,1.923291667,1.71475,1.826375,76.183,82.46704167,77.57827083,60.8546875,76.470375,80.09641667,24.4694375,25.63533333,24.2174375,24.14152083,24.39016667,24.57197917,299.48,301.02,299.32,300.96,299.14,299.86,0.6509999999999999,0.813,0.677,0.8440000000000001,0.823,0.807,0.11800000000000001,0.11900000000000001,0.11900000000000001,0.122,0.124,0.124,0.11900000000000001,5.255055198
81,0,1,0,0,1,0,1,2.5274888890000002,2.3408125,1.5056666669999998,1.568875,1.923291667,1.71475,74.3042,76.183,82.46704167,77.57827083,60.8546875,76.470375,24.6594,24.4694375,25.63533333,24.2174375,24.14152083,24.39016667,298.1,299.48,301.02,299.32,300.96,299.14,0.076,0.6509999999999999,0.813,0.677,0.8440000000000001,0.823,0.11699999999999999,0.11800000000000001,0.11900000000000001,0.11900000000000001,0.122,0.124,0.11800000000000001,4.005962976
82,0,1,0,0,1,0,1,2.1945416669999998,2.5274888890000002,2.3408125,1.5056666669999998,1.568875,1.923291667,67.76777083,74.3042,76.183,82.46704167,77.57827083,60.8546875,24.5025625,24.6594,24.4694375,25.63533333,24.2174375,24.14152083,300.2,298.1,299.48,301.02,299.32,300.96,0.8340000000000001,0.076,0.6509999999999999,0.813,0.677,0.8440000000000001,0.11599999999999999,0.11699999999999999,0.11800000000000001,0.11900000000000001,0.11900000000000001,0.122,0.11699999999999999,6.336940889
83,0,1,0,0,1,0,1,2.462125,2.1945416669999998,2.5274888890000002,2.3408125,1.5056666669999998,1.568875,71.28875,67.76777083,74.3042,76.183,82.46704167,77.57827083,23.68629167,24.5025625,24.6594,24.4694375,25.63533333,24.2174375,301.38,300.2,298.1,299.48,301.02,299.32,0.792,0.8340000000000001,0.076,0.6509999999999999,0.813,0.677,0.114,0.11599999999999999,0.11699999999999999,0.11800000000000001,0.11900000000000001,0.11900000000000001,0.11599999999999999,5.644438145
84,0,1,0,0,1,0,1,2.438541667,2.462125,2.1945416669999998,2.5274888890000002,2.3408125,1.5056666669999998,72.67689583,71.28875,67.76777083,74.3042,76.183,82.46704167,23.65897917,23.68629167,24.5025625,24.6594,24.4694375,25.63533333,297.74,301.38,300.2,298.1,299.48,301.02,0.75,0.792,0.8340000000000001,0.076,0.6509999999999999,0.813,0.113,0.114,0.11599999999999999,0.11699999999999999,0.11800000000000001,0.11900000000000001,0.114,4.907054379
85,0,1,0,0,1,0,1,2.4231875,2.438541667,2.462125,2.1945416669999998,2.5274888890000002,2.3408125,72.41797917,72.67689583,71.28875,67.76777083,74.3042,76.183,24.50404167,23.65897917,23.68629167,24.5025625,24.6594,24.4694375,298.06,297.74,301.38,300.2,298.1,299.48,0.068,0.75,0.792,0.8340000000000001,0.076,0.6509999999999999,0.11199999999999999,0.113,0.114,0.11599999999999999,0.11699999999999999,0.11800000000000001,0.113,4.882385983
86,0,1,0,0,1,0,1,1.8334166669999998,2.4231875,2.438541667,2.462125,2.1945416669999998,2.5274888890000002,82.24575,72.41797917,72.67689583,71.28875,67.76777083,74.3042,25.17904167,24.50404167,23.65897917,23.68629167,24.5025625,24.6594,297.54,298.06,297.74,301.38,300.2,298.1,0.423,0.068,0.75,0.792,0.8340000000000001,0.076,0.11199999999999999,0.11199999999999999,0.113,0.114,0.11599999999999999,0.11699999999999999,0.11199999999999999,4.499830102
87,0,1,0,0,1,0,1,2.987375,1.8334166669999998,2.4231875,2.438541667,2.462125,2.1945416669999998,77.01727083,82.24575,72.41797917,72.67689583,71.28875,67.76777083,27.16704167,25.17904167,24.50404167,23.65897917,23.68629167,24.5025625,300.52,297.54,298.06,297.74,301.38,300.2,0.836,0.423,0.068,0.75,0.792,0.8340000000000001,0.111,0.11199999999999999,0.11199999999999999,0.113,0.114,0.11599999999999999,0.11199999999999999,4.996262754
88,0,1,0,0,1,0,1,2.660208333,2.987375,1.8334166669999998,2.4231875,2.438541667,2.462125,75.9120625,77.01727083,82.24575,72.41797917,72.67689583,71.28875,27.27225,27.16704167,25.17904167,24.50404167,23.65897917,23.68629167,301.8,300.52,297.54,298.06,297.74,301.38,0.8320000000000001,0.836,0.423,0.068,0.75,0.792,0.111,0.111,0.11199999999999999,0.11199999999999999,0.113,0.114,0.111,4.904392037
89,0,1,0,0,1,0,1,2.127875,2.660208333,2.987375,1.8334166669999998,2.4231875,2.438541667,80.93452083,75.9120625,77.01727083,82.24575,72.41797917,72.67689583,26.53235417,27.27225,27.16704167,25.17904167,24.50404167,23.65897917,301.7,301.8,300.52,297.54,298.06,297.74,0.792,0.8320000000000001,0.836,0.423,0.068,0.75,0.111,0.111,0.111,0.11199999999999999,0.11199999999999999,0.113,0.111,4.586270782
90,0,1,0,0,1,0,1,1.650145833,2.127875,2.660208333,2.987375,1.8334166669999998,2.4231875,89.923375,80.93452083,75.9120625,77.01727083,82.24575,72.41797917,22.88802083,26.53235417,27.27225,27.16704167,25.17904167,24.50404167,299.14,301.7,301.8,300.52,297.54,298.06,0.5760000000000001,0.792,0.8320000000000001,0.836,0.423,0.068,0.11199999999999999,0.111,0.111,0.111,0.11199999999999999,0.11199999999999999,0.111,3.7800636610000002
91,0,1,0,1,1,0,1,2.4368125,1.650145833,2.127875,2.660208333,2.987375,1.8334166669999998,77.30758333,89.923375,80.93452083,75.9120625,77.01727083,82.24575,25.11072917,22.88802083,26.53235417,27.27225,27.16704167,25.17904167,299.24,299.14,301.7,301.8,300.52,297.54,0.6920000000000001,0.5760000000000001,0.792,0.8320000000000001,0.836,0.423,0.11699999999999999,0.11199999999999999,0.111,0.111,0.111,0.11199999999999999,0.11199999999999999,5.848798562000001
92,0,1,0,1,1,0,1,3.0350416669999998,2.4368125,1.650145833,2.127875,2.660208333,2.987375,74.36189583,77.30758333,89.923375,80.93452083,75.9120625,77.01727083,25.35660417,25.11072917,22.88802083,26.53235417,27.27225,27.16704167,298.3,299.24,299.14,301.7,301.8,300.52,0.5920000000000001,0.6920000000000001,0.5760000000000001,0.792,0.8320000000000001,0.836,0.109,0.11699999999999999,0.11199999999999999,0.111,0.111,0.111,0.11699999999999999,5.489829866
93,0,1,0,1,1,0,1,2.437479167,3.0350416669999998,2.4368125,1.650145833,2.127875,2.660208333,75.25716667,74.36189583,77.30758333,89.923375,80.93452083,75.9120625,25.16677083,25.35660417,25.11072917,22.88802083,26.53235417,27.27225,302.38,298.3,299.24,299.14,301.7,301.8,0.778,0.5920000000000001,0.6920000000000001,0.5760000000000001,0.792,0.8320000000000001,0.11,0.109,0.11699999999999999,0.11199999999999999,0.111,0.111,0.109,5.39963933
94,0,1,0,1,1,0,1,1.555,2.437479167,3.0350416669999998,2.4368125,1.650145833,2.127875,74.35860417,75.25716667,74.36189583,77.30758333,89.923375,80.93452083,24.79235417,25.16677083,25.35660417,25.11072917,22.88802083,26.53235417,295.92,302.38,298.3,299.24,299.14,301.7,0.29,0.778,0.5920000000000001,0.6920000000000001,0.5760000000000001,0.792,0.109,0.11,0.109,0.11699999999999999,0.11199999999999999,0.111,0.11,5.11682098
95,0,1,0,1,1,0,1,1.7521666669999998,1.555,2.437479167,3.0350416669999998,2.4368125,1.650145833,73.13522917,74.35860417,75.25716667,74.36189583,77.30758333,89.923375,25.78564583,24.79235417,25.16677083,25.35660417,25.11072917,22.88802083,300.88,295.92,302.38,298.3,299.24,299.14,0.586,0.29,0.778,0.5920000000000001,0.6920000000000001,0.5760000000000001,0.109,0.109,0.11,0.109,0.11699999999999999,0.11199999999999999,0.109,4.868328009
96,0,1,0,1,1,0,1,2.0141875,1.7521666669999998,1.555,2.437479167,3.0350416669999998,2.4368125,69.25229167,73.13522917,74.35860417,75.25716667,74.36189583,77.30758333,26.72504167,25.78564583,24.79235417,25.16677083,25.35660417,25.11072917,299.12,300.88,295.92,302.38,298.3,299.24,0.867,0.586,0.29,0.778,0.5920000000000001,0.6920000000000001,0.10800000000000001,0.109,0.109,0.11,0.109,0.11699999999999999,0.109,5.304447142
97,0,1,0,1,1,0,1,1.644833333,2.0141875,1.7521666669999998,1.555,2.437479167,3.0350416669999998,75.441625,69.25229167,73.13522917,74.35860417,75.25716667,74.36189583,26.29347917,26.72504167,25.78564583,24.79235417,25.16677083,25.35660417,302.22,299.12,300.88,295.92,302.38,298.3,0.7290000000000001,0.867,0.586,0.29,0.778,0.5920000000000001,0.106,0.10800000000000001,0.109,0.109,0.11,0.109,0.10800000000000001,4.745159587
98,0,1,0,1,1,0,1,1.867891304,1.644833333,2.0141875,1.7521666669999998,1.555,2.437479167,75.89669565,75.441625,69.25229167,73.13522917,74.35860417,75.25716667,25.73034783,26.29347917,26.72504167,25.78564583,24.79235417,25.16677083,300.36,302.22,299.12,300.88,295.92,302.38,0.877,0.7290000000000001,0.867,0.586,0.29,0.778,0.105,0.106,0.10800000000000001,0.109,0.109,0.11,0.106,3.784164376
99,0,1,0,1,1,0,1,1.8940208330000001,1.867891304,1.644833333,2.0141875,1.7521666669999998,1.555,82.07114583,75.89669565,75.441625,69.25229167,73.13522917,74.35860417,25.17304167,25.73034783,26.29347917,26.72504167,25.78564583,24.79235417,302.8,300.36,302.22,299.12,300.88,295.92,0.6459999999999999,0.877,0.7290000000000001,0.867,0.586,0.29,0.09699999999999999,0.105,0.106,0.10800000000000001,0.109,0.109,0.105,5.0529405469999995
100,0,1,0,1,1,0,1,1.659208333,1.8940208330000001,1.867891304,1.644833333,2.0141875,1.7521666669999998,79.69585417,82.07114583,75.89669565,75.441625,69.25229167,73.13522917,24.41066667,25.17304167,25.73034783,26.29347917,26.72504167,25.78564583,296.68,302.8,300.36,302.22,299.12,300.88,1.0,0.6459999999999999,0.877,0.7290000000000001,0.867,0.586,0.099,0.09699999999999999,0.105,0.106,0.10800000000000001,0.109,0.09699999999999999,5.006179811
101,0,1,0,1,1,0,1,2.0015625,1.659208333,1.8940208330000001,1.867891304,1.644833333,2.0141875,75.27283333,79.69585417,82.07114583,75.89669565,75.441625,69.25229167,25.641125,24.41066667,25.17304167,25.73034783,26.29347917,26.72504167,298.16,296.68,302.8,300.36,302.22,299.12,0.425,1.0,0.6459999999999999,0.877,0.7290000000000001,0.867,0.096,0.099,0.09699999999999999,0.105,0.106,0.10800000000000001,0.099,5.109143898
102,0,1,0,1,1,0,1,2.3386041669999997,2.0015625,1.659208333,1.8940208330000001,1.867891304,1.644833333,70.1694375,75.27283333,79.69585417,82.07114583,75.89669565,75.441625,24.42422917,25.641125,24.41066667,25.17304167,25.73034783,26.29347917,296.26,298.16,296.68,302.8,300.36,302.22,0.341,0.425,1.0,0.6459999999999999,0.877,0.7290000000000001,0.09300000000000001,0.096,0.099,0.09699999999999999,0.105,0.106,0.096,5.136610701
103,0,1,0,1,1,0,1,2.3811041669999997,2.3386041669999997,2.0015625,1.659208333,1.8940208330000001,1.867891304,68.67241667,70.1694375,75.27283333,79.69585417,82.07114583,75.89669565,24.91033333,24.42422917,25.641125,24.41066667,25.17304167,25.73034783,299.78,296.26,298.16,296.68,302.8,300.36,0.679,0.341,0.425,1.0,0.6459999999999999,0.877,0.095,0.09300000000000001,0.096,0.099,0.09699999999999999,0.105,0.09300000000000001,4.853543737
104,0,1,0,1,1,0,1,1.6521702130000002,2.3811041669999997,2.3386041669999997,2.0015625,1.659208333,1.8940208330000001,75.38421277,68.67241667,70.1694375,75.27283333,79.69585417,82.07114583,25.22751064,24.91033333,24.42422917,25.641125,24.41066667,25.17304167,302.98,299.78,296.26,298.16,296.68,302.8,0.82,0.679,0.341,0.425,1.0,0.6459999999999999,0.083,0.095,0.09300000000000001,0.096,0.099,0.09699999999999999,0.095,5.477919342000001
105,0,1,0,1,1,0,1,1.4930434780000001,1.6521702130000002,2.3811041669999997,2.3386041669999997,2.0015625,1.659208333,81.93660870000001,75.38421277,68.67241667,70.1694375,75.27283333,79.69585417,26.14252174,25.22751064,24.91033333,24.42422917,25.641125,24.41066667,299.94,302.98,299.78,296.26,298.16,296.68,0.903,0.82,0.679,0.341,0.425,1.0,0.08199999999999999,0.083,0.095,0.09300000000000001,0.096,0.099,0.083,3.653766977
106,0,1,0,1,1,0,1,1.5305625,1.4930434780000001,1.6521702130000002,2.3811041669999997,2.3386041669999997,2.0015625,82.4864375,81.93660870000001,75.38421277,68.67241667,70.1694375,75.27283333,25.75270833,26.14252174,25.22751064,24.91033333,24.42422917,25.641125,302.52,299.94,302.98,299.78,296.26,298.16,0.784,0.903,0.82,0.679,0.341,0.425,0.084,0.08199999999999999,0.083,0.095,0.09300000000000001,0.096,0.08199999999999999,5.037639755
107,0,1,0,1,1,0,1,1.8165416669999999,1.5305625,1.4930434780000001,1.6521702130000002,2.3811041669999997,2.3386041669999997,74.06570833,82.4864375,81.93660870000001,75.38421277,68.67241667,70.1694375,26.78708333,25.75270833,26.14252174,25.22751064,24.91033333,24.42422917,301.6,302.52,299.94,302.98,299.78,296.26,0.6970000000000001,0.784,0.903,0.82,0.679,0.341,0.083,0.084,0.08199999999999999,0.083,0.095,0.09300000000000001,0.084,5.986658877000001
108,0,1,0,1,1,0,1,1.8243333330000002,1.8165416669999999,1.5305625,1.4930434780000001,1.6521702130000002,2.3811041669999997,81.18414583,74.06570833,82.4864375,81.93660870000001,75.38421277,68.67241667,25.216125,26.78708333,25.75270833,26.14252174,25.22751064,24.91033333,295.02,301.6,302.52,299.94,302.98,299.78,0.65,0.6970000000000001,0.784,0.903,0.82,0.679,0.087,0.083,0.084,0.08199999999999999,0.083,0.095,0.083,3.9865015980000003
109,0,1,0,1,1,0,1,1.6406875,1.8243333330000002,1.8165416669999999,1.5305625,1.4930434780000001,1.6521702130000002,77.6079375,81.18414583,74.06570833,82.4864375,81.93660870000001,75.38421277,26.15795833,25.216125,26.78708333,25.75270833,26.14252174,25.22751064,297.94,295.02,301.6,302.52,299.94,302.98,0.502,0.65,0.6970000000000001,0.784,0.903,0.82,0.086,0.087,0.083,0.084,0.08199999999999999,0.083,0.087,4.616843084
110,0,1,0,1,1,0,1,2.606234043,1.6406875,1.8243333330000002,1.8165416669999999,1.5305625,1.4930434780000001,71.77761702,77.6079375,81.18414583,74.06570833,82.4864375,81.93660870000001,26.10897872,26.15795833,25.216125,26.78708333,25.75270833,26.14252174,298.36,297.94,295.02,301.6,302.52,299.94,0.7070000000000001,0.502,0.65,0.6970000000000001,0.784,0.903,0.08900000000000001,0.086,0.087,0.083,0.084,0.08199999999999999,0.086,5.261260878
111,0,1,1,0,1,0,1,2.274166667,2.606234043,1.6406875,1.8243333330000002,1.8165416669999999,1.5305625,70.70479167,71.77761702,77.6079375,81.18414583,74.06570833,82.4864375,25.76760417,26.10897872,26.15795833,25.216125,26.78708333,25.75270833,302.72,298.36,297.94,295.02,301.6,302.52,0.638,0.7070000000000001,0.502,0.65,0.6970000000000001,0.784,0.08900000000000001,0.08900000000000001,0.086,0.087,0.083,0.084,0.08900000000000001,6.766230727999999
112,0,1,1,0,1,0,1,2.6010000000000004,2.274166667,2.606234043,1.6406875,1.8243333330000002,1.8165416669999999,69.50399999999999,70.70479167,71.77761702,77.6079375,81.18414583,74.06570833,25.88840426,25.76760417,26.10897872,26.15795833,25.216125,26.78708333,295.9,302.72,298.36,297.94,295.02,301.6,0.34,0.638,0.7070000000000001,0.502,0.65,0.6970000000000001,0.08900000000000001,0.08900000000000001,0.08900000000000001,0.086,0.087,0.083,0.08900000000000001,6.829325473
113,0,1,1,0,1,0,1,2.273625,2.6010000000000004,2.274166667,2.606234043,1.6406875,1.8243333330000002,72.37408333,69.50399999999999,70.70479167,71.77761702,77.6079375,81.18414583,25.9199375,25.88840426,25.76760417,26.10897872,26.15795833,25.216125,299.42,295.9,302.72,298.36,297.94,295.02,0.374,0.34,0.638,0.7070000000000001,0.502,0.65,0.08199999999999999,0.08900000000000001,0.08900000000000001,0.08900000000000001,0.086,0.087,0.08900000000000001,5.9657414929999995
114,0,1,1,0,1,0,1,1.5183541669999998,2.273625,2.6010000000000004,2.274166667,2.606234043,1.6406875,78.69216667,72.37408333,69.50399999999999,70.70479167,71.77761702,77.6079375,25.18502083,25.9199375,25.88840426,25.76760417,26.10897872,26.15795833,299.2,299.42,295.9,302.72,298.36,297.94,0.5820000000000001,0.374,0.34,0.638,0.7070000000000001,0.502,0.077,0.08199999999999999,0.08900000000000001,0.08900000000000001,0.08900000000000001,0.086,0.08199999999999999,4.534246081
115,0,1,1,0,1,0,1,1.311041667,1.5183541669999998,2.273625,2.6010000000000004,2.274166667,2.606234043,82.57641667,78.69216667,72.37408333,69.50399999999999,70.70479167,71.77761702,26.83172917,25.18502083,25.9199375,25.88840426,25.76760417,26.10897872,297.24,299.2,299.42,295.9,302.72,298.36,0.514,0.5820000000000001,0.374,0.34,0.638,0.7070000000000001,0.106,0.077,0.08199999999999999,0.08900000000000001,0.08900000000000001,0.08900000000000001,0.077,5.340143733000001
116,0,1,1,0,1,0,1,1.665625,1.311041667,1.5183541669999998,2.273625,2.6010000000000004,2.274166667,82.70575,82.57641667,78.69216667,72.37408333,69.50399999999999,70.70479167,26.79366667,26.83172917,25.18502083,25.9199375,25.88840426,25.76760417,302.44,297.24,299.2,299.42,295.9,302.72,0.792,0.514,0.5820000000000001,0.374,0.34,0.638,0.106,0.106,0.077,0.08199999999999999,0.08900000000000001,0.08900000000000001,0.106,4.543393085
117,0,1,1,0,1,0,1,1.78725,1.665625,1.311041667,1.5183541669999998,2.273625,2.6010000000000004,81.26466667,82.70575,82.57641667,78.69216667,72.37408333,69.50399999999999,27.71191667,26.79366667,26.83172917,25.18502083,25.9199375,25.88840426,300.66,302.44,297.24,299.2,299.42,295.9,0.847,0.792,0.514,0.5820000000000001,0.374,0.34,0.107,0.106,0.106,0.077,0.08199999999999999,0.08900000000000001,0.106,5.199686198
118,0,1,1,0,1,0,1,1.686875,1.78725,1.665625,1.311041667,1.5183541669999998,2.273625,68.41645833,81.26466667,82.70575,82.57641667,78.69216667,72.37408333,27.67452083,27.71191667,26.79366667,26.83172917,25.18502083,25.9199375,303.12,300.66,302.44,297.24,299.2,299.42,0.747,0.847,0.792,0.514,0.5820000000000001,0.374,0.107,0.107,0.106,0.106,0.077,0.08199999999999999,0.107,6.081573763
119,0,1,1,0,1,0,1,1.63575,1.686875,1.78725,1.665625,1.311041667,1.5183541669999998,77.5386875,68.41645833,81.26466667,82.70575,82.57641667,78.69216667,28.23904167,27.67452083,27.71191667,26.79366667,26.83172917,25.18502083,300.1,303.12,300.66,302.44,297.24,299.2,0.8059999999999999,0.747,0.847,0.792,0.514,0.5820000000000001,0.10800000000000001,0.107,0.107,0.106,0.106,0.077,0.107,5.567301385
120,0,1,1,0,1,0,1,1.538020833,1.63575,1.686875,1.78725,1.665625,1.311041667,81.46575,77.5386875,68.41645833,81.26466667,82.70575,82.57641667,27.10372917,28.23904167,27.67452083,27.71191667,26.79366667,26.83172917,298.12,300.1,303.12,300.66,302.44,297.24,0.605,0.8059999999999999,0.747,0.847,0.792,0.514,0.10800000000000001,0.10800000000000001,0.107,0.107,0.106,0.106,0.10800000000000001,4.913398387
121,0,1,1,1,1,0,1,0.609117647,1.538020833,1.63575,1.686875,1.78725,1.665625,86.681,81.46575,77.5386875,68.41645833,81.26466667,82.70575,27.16835294,27.10372917,28.23904167,27.67452083,27.71191667,26.79366667,297.56,298.12,300.1,303.12,300.66,302.44,0.602,0.605,0.8059999999999999,0.747,0.847,0.792,0.12,0.10800000000000001,0.10800000000000001,0.107,0.107,0.106,0.10800000000000001,1.3258798859999998
122,0,1,1,1,1,0,1,1.4633125,0.609117647,1.538020833,1.63575,1.686875,1.78725,79.37060417,86.681,81.46575,77.5386875,68.41645833,81.26466667,28.0130625,27.16835294,27.10372917,28.23904167,27.67452083,27.71191667,303.34,297.56,298.12,300.1,303.12,300.66,0.8390000000000001,0.602,0.605,0.8059999999999999,0.747,0.847,0.121,0.12,0.10800000000000001,0.10800000000000001,0.107,0.107,0.12,5.200556547
123,0,1,1,1,1,0,1,1.31075,1.4633125,0.609117647,1.538020833,1.63575,1.686875,81.22560417,79.37060417,86.681,81.46575,77.5386875,68.41645833,27.83439583,28.0130625,27.16835294,27.10372917,28.23904167,27.67452083,296.82,303.34,297.56,298.12,300.1,303.12,0.612,0.8390000000000001,0.602,0.605,0.8059999999999999,0.747,0.121,0.121,0.12,0.10800000000000001,0.10800000000000001,0.107,0.121,5.43982261
124,0,1,1,1,1,0,1,1.168958333,1.31075,1.4633125,0.609117647,1.538020833,1.63575,80.55133333,81.22560417,79.37060417,86.681,81.46575,77.5386875,28.11829167,27.83439583,28.0130625,27.16835294,27.10372917,28.23904167,302.58,296.82,303.34,297.56,298.12,300.1,0.134,0.612,0.8390000000000001,0.602,0.605,0.8059999999999999,0.121,0.121,0.121,0.12,0.10800000000000001,0.10800000000000001,0.121,4.8140658169999995
125,0,1,1,1,1,0,1,1.4118333330000001,1.168958333,1.31075,1.4633125,0.609117647,1.538020833,82.544875,80.55133333,81.22560417,79.37060417,86.681,81.46575,27.30160417,28.11829167,27.83439583,28.0130625,27.16835294,27.10372917,302.32,302.58,296.82,303.34,297.56,298.12,0.888,0.134,0.612,0.8390000000000001,0.602,0.605,0.121,0.121,0.121,0.121,0.12,0.10800000000000001,0.121,8.24904299
126,0,1,1,1,1,0,1,2.7525,1.4118333330000001,1.168958333,1.31075,1.4633125,0.609117647,66.72418182,82.544875,80.55133333,81.22560417,79.37060417,86.681,30.42768182,27.30160417,28.11829167,27.83439583,28.0130625,27.16835294,301.04,302.32,302.58,296.82,303.34,297.56,0.201,0.888,0.134,0.612,0.8390000000000001,0.602,0.11900000000000001,0.121,0.121,0.121,0.121,0.12,0.121,6.297632188
127,0,1,1,1,1,0,1,2.173270833,2.7525,1.4118333330000001,1.168958333,1.31075,1.4633125,74.65145833,66.72418182,82.544875,80.55133333,81.22560417,79.37060417,29.00685417,30.42768182,27.30160417,28.11829167,27.83439583,28.0130625,296.48,301.04,302.32,302.58,296.82,303.34,0.607,0.201,0.888,0.134,0.612,0.8390000000000001,0.11900000000000001,0.11900000000000001,0.121,0.121,0.121,0.121,0.11900000000000001,6.830706497
128,0,1,1,1,1,0,1,1.4042340430000002,2.173270833,2.7525,1.4118333330000001,1.168958333,1.31075,83.71582979,74.65145833,66.72418182,82.544875,80.55133333,81.22560417,28.0846383,29.00685417,30.42768182,27.30160417,28.11829167,27.83439583,302.86,296.48,301.04,302.32,302.58,296.82,0.501,0.607,0.201,0.888,0.134,0.612,0.12300000000000001,0.11900000000000001,0.11900000000000001,0.121,0.121,0.121,0.11900000000000001,5.950119583999999
129,1,0,0,0,1,0,1,1.546229167,1.4042340430000002,2.173270833,2.7525,1.4118333330000001,1.168958333,88.55866667,83.71582979,74.65145833,66.72418182,82.544875,80.55133333,27.61952083,28.0846383,29.00685417,30.42768182,27.30160417,28.11829167,298.08,302.86,296.48,301.04,302.32,302.58,0.792,0.501,0.607,0.201,0.888,0.134,0.124,0.12300000000000001,0.11900000000000001,0.11900000000000001,0.121,0.121,0.12300000000000001,4.656028508
130,1,0,0,0,1,0,1,1.26425,1.546229167,1.4042340430000002,2.173270833,2.7525,1.4118333330000001,83.70360417,88.55866667,83.71582979,74.65145833,66.72418182,82.544875,28.05597917,27.61952083,28.0846383,29.00685417,30.42768182,27.30160417,298.08,298.08,302.86,296.48,301.04,302.32,0.397,0.792,0.501,0.607,0.201,0.888,0.129,0.124,0.12300000000000001,0.11900000000000001,0.11900000000000001,0.121,0.124,4.6127614999999995
131,1,0,0,0,1,0,1,1.510270833,1.26425,1.546229167,1.4042340430000002,2.173270833,2.7525,81.02366667,83.70360417,88.55866667,83.71582979,74.65145833,66.72418182,27.3536875,28.05597917,27.61952083,28.0846383,29.00685417,30.42768182,299.94,298.08,298.08,302.86,296.48,301.04,0.713,0.397,0.792,0.501,0.607,0.201,0.122,0.129,0.124,0.12300000000000001,0.11900000000000001,0.11900000000000001,0.129,5.275324607
132,1,0,0,0,1,0,1,1.48875,1.510270833,1.26425,1.546229167,1.4042340430000002,2.173270833,81.3115,81.02366667,83.70360417,88.55866667,83.71582979,74.65145833,28.1418125,27.3536875,28.05597917,27.61952083,28.0846383,29.00685417,303.46,299.94,298.08,298.08,302.86,296.48,0.8420000000000001,0.713,0.397,0.792,0.501,0.607,0.10800000000000001,0.122,0.129,0.124,0.12300000000000001,0.11900000000000001,0.122,5.097941004
133,1,0,0,0,1,0,1,1.4128125,1.48875,1.510270833,1.26425,1.546229167,1.4042340430000002,80.74164583,81.3115,81.02366667,83.70360417,88.55866667,83.71582979,28.3354375,28.1418125,27.3536875,28.05597917,27.61952083,28.0846383,298.9,303.46,299.94,298.08,298.08,302.86,0.401,0.8420000000000001,0.713,0.397,0.792,0.501,0.10800000000000001,0.10800000000000001,0.122,0.129,0.124,0.12300000000000001,0.10800000000000001,5.058825294
