Error Metrics,Testing Scores
mean target,4.979813702750406
F1,1e-05
F2,1e-05
F05,1e-05
Precision,1e-05
Recall,1e-05
R2,0.3811511140679419
Adjusted R2,0.29137982505927906
RMSE,1.979596268731568
MSE,3.9188013871759466
MAE,1.5397944705727227
MAPE,37.15734552234245
Accuracy,62.84265447765755
Pearson C.C.,0.634915990310546
Spearman C.C.,0.6287125438397854
Spatial Distance,0.3650840096894542
NMI,0.9879962865860978
AIC,508.0723319101197
BIC,508.0723319101197
Data Size train,1475.0
Data Size test,372.0
Training Time (seconds),12.279867172241211
Testing Time (seconds),0.5779919624328613
