Total Number of rare cases: 479 out of 3808
Percentage of Rare Cases: 12.58%

number of rare in train: 382/3035
==> 12.58649093904448%%
number of rare in test: 97/773
==> 12.548512289780078%%
Total Number of rare cases: 479 out of 3808
Percentage of Rare Cases: 12.58%

number of rare in train: 382/3035
==> 12.58649093904448%%
number of rare in test: 97/773
==> 12.548512289780078%%
The size of the original data is (3035, 49)
The size of the oversampled data is (3116, 49)
Total Number of rare cases: 489 out of 3116
Percentage of Rare Cases: 15.69%

The percentage of rare values in dataset after smogn are 15.693196405648266
