Error Metrics,Testing Scores
mean target,4.498419624222721
F1,1e-05
F2,1e-05
F05,1e-05
Precision,1e-05
Recall,1e-05
R2,0.5990452193919882
Adjusted R2,0.3870461399900509
RMSE,0.9136442801864135
MSE,0.8347458707173497
MAE,0.7755720282471377
MAPE,24.434281412191343
Accuracy,75.56571858780866
Pearson C.C.,0.869098293999512
Spearman C.C.,0.8509058716442849
Spatial Distance,0.13090170600048812
NMI,1.0
AIC,-24.20414488464663
BIC,-24.20414488464663
Data Size train,535.0
Data Size test,134.0
Training Time (seconds),7.948934316635132
Testing Time (seconds),0.5427234172821045
