
Total Number of rare cases: 16 out of 1092
Percentage of Rare Cases: 1.47%

number of rare in train: 13/871
==> 1.4925373134328357%%
number of rare in test: 3/221
==> 1.3574660633484164%%


The size of the original data is (871, 37)
The size of the oversampled data is (873, 37)

We dont have both We have only high rare
Total Number of rare cases: 16 out of 873
Percentage of Rare Cases: 1.83%
