Error Metrics,Validation Scores standard deviation,Validation Scores,Testing Scores
mean target,3.7450975657657564,3.7450975657657564,3.7450975657657564
F1,0.23599413516881598,0.6635151674120718,0.5728617075650607
F2,0.22955391329951894,0.653715940300821,0.6193797565296167
F05,0.24391587383629287,0.6744683137075688,0.5328429408075182
Precision,0.25006276675769257,0.6824526895028212,0.5091317779430311
Recall,0.06703310311469082,0.719346424394397,0.6548291184411049
R2,0.026056049336170273,0.48717091040632265,0.18189261505360343
Adjusted R2,0.040993632288764854,0.19107991873024804,0.04644437251280942
RMSE,0.14349887752430707,1.5541039327248631,2.0820946426525335
MSE,0.44632521485234317,2.4358309615616216,4.335118100962382
MAE,0.08355962084078894,1.105505369858676,1.4454711299740874
MAPE,3.060007625237347,38.96845194273237,44.37030617222846
Accuracy,3.060007625237346,61.03154805726764,55.62969382777154
Pearson C.C.,0.017826336994285735,0.7104379030125618,0.4549527907450271
Spearman C.C.,0.03190252312263953,0.666314922879977,0.547729342837356
Spatial Distance,0.01782633699428585,0.2895620969874382,0.545047209254973
NMI,0.0007180604189487053,0.9990775990611158,0.9866347090739173
AIC,25.360758333476724,120.11420203582043,517.7623452683242
BIC,25.360758333476724,120.11420203582043,517.7623452683242
Data Size train,-,-,1376.0
Data Size test,-,-,353.0
Training Time (seconds),-,-,0.13035130500793457
Testing Time (seconds),-,-,0.0021085739135742188
