Error Metrics,Testing
Average,3.7471547625276496
Average Testing,3.573871584393934
R2,0.36
Adjusted R2,0.34
RMSE,1.52
MSE,2.32
MAE,1.14
MAPE,40.37
Accuracy,59.63
Pearson C.C.,0.6218498958478811
Spearman C.C.,0.66
Spatial Distance,0.3781501041521189
NMI,1.0
Data Size,10911
AIC,1
BIC,1
Relative Error,62.18
Uncertainty,None
