Total Number of rare cases: 479 out of 3808
Percentage of Rare Cases: 12.58%

number of rare in train: 382/3035
==> 12.58649093904448%%
number of rare in test: 97/773
==> 12.548512289780078%%
Total Number of rare cases: 479 out of 3808
Percentage of Rare Cases: 12.58%

number of rare in train: 382/3035
==> 12.58649093904448%%
number of rare in test: 97/773
==> 12.548512289780078%%
