Error Metrics,Testing
Average,3.7471547625276496
Average Testing,3.573871584393934
R2,0.5
Adjusted R2,0.49
RMSE,1.35
MSE,1.81
MAE,0.99
MAPE,34.64
Accuracy,65.36
Pearson C.C.,0.7171718770897638
Spearman C.C.,0.75
Spatial Distance,0.2828281229102363
NMI,1.0
Data Size,10911
AIC,1
BIC,1
Relative Error,48.63
Uncertainty,None
