Error Metrics,Testing
Average,3.7471547625276496
Average Testing,3.573871584393934
R2,0.52
Adjusted R2,0.51
RMSE,1.32
MSE,1.73
MAE,0.97
MAPE,33.16
Accuracy,66.84
Pearson C.C.,0.7317758449497612
Spearman C.C.,0.76
Spatial Distance,0.268224155050239
NMI,1.0
Data Size,10911
AIC,1
BIC,1
Relative Error,46.74
Uncertainty,None
