,WS,RH,TA,Eeflux_LST,Eeflux_NDVI,Eeflux_Albedo,Site_1,Site_2,Site_3,Site_4,Site_5,Month_1,Month_2,Month_3,Month_4,Vegetation_1,Vegetation_2,Vegetation_3,WS-1,WS-2,WS-3,WS-4,WS-5,RH-1,RH-2,RH-3,RH-4,RH-5,TA-1,TA-2,TA-3,TA-4,TA-5,Eeflux_LST-1,Eeflux_LST-2,Eeflux_LST-3,Eeflux_LST-4,Eeflux_LST-5,Eeflux_Albedo-1,Eeflux_Albedo-2,Eeflux_Albedo-3,Eeflux_Albedo-4,Eeflux_Albedo-5,Eeflux_NDVI-1,Eeflux_NDVI-2,Eeflux_NDVI-3,Eeflux_NDVI-4,Eeflux_NDVI-5,Eeflux_ET
0,1.6169,58.4348,20.96236667,295.78,0.9079999999999999,0.149,0,0,0,1,0,0,1,1,1,0,0,1,0.9827083329999999,3.414583333,4.157083333,3.574791667,1.6780434780000002,77.0375,69.39583333,67.11041667,71.65,75.64565217,27.65,26.11666667,25.18125,25.64583333,25.59782609,308.1,309.68,307.22,301.2,304.16,0.163,0.18,0.174,0.174,0.16399999999999998,0.747,0.6659999999999999,0.6920000000000001,0.733,0.48200000000000004,4.282314301
1,2.312916667,80.86975,15.73033333,294.54,0.684,0.162,0,0,0,1,0,0,0,1,0,0,0,1,1.143541667,3.516458333,1.281875,1.776888889,1.052708333,79.36666667,62.52916667,84.125,73.35555556,83.56458333,25.1,26.02708333,23.9,24.06666667,25.7979375,299.98,309.72,304.26,303.94,300.06,0.165,0.18600000000000003,0.157,0.19,0.14800000000000002,0.78,0.5770000000000001,0.772,0.413,0.8079999999999999,1.938271761
2,2.946326087,77.26926087,5.7790869570000005,283.4,0.638,0.17,0,0,0,1,0,0,0,1,0,0,0,1,2.32,4.145833333,2.312916667,1.143541667,3.516458333,79.20416667,66.84791667,80.86975,79.36666667,62.52916667,22.33958333,22.83541667,15.73033333,25.1,26.02708333,298.02,304.66,294.54,299.98,309.72,0.14,0.17,0.162,0.165,0.18600000000000003,0.541,0.521,0.684,0.78,0.5770000000000001,0.3
3,3.0422307689999997,51.961999999999996,-7.818769231,266.52,0.015,0.361,0,0,0,1,0,0,0,0,1,0,0,1,2.6923809519999997,2.225,2.4597916669999997,2.1697916669999997,3.1475,74.88809524,77.82916667,49.58541667,61.07708333,43.75833333,-3.65952381,1.720833333,1.7541666669999998,6.533333333,12.29166667,272.76,281.7,281.7,284.14,290.88,0.185,0.19399999999999998,0.159,0.151,0.17300000000000001,0.091,0.306,0.28800000000000003,0.446,0.353,0.3
4,1.064871795,65.53153846,21.42946154,303.92,0.82,0.152,0,0,0,1,0,0,1,1,1,0,0,1,1.481041667,1.38106383,1.5925,1.795531915,4.581956522,83.889625,80.81914894,67.51875,65.25746809,69.86304348,27.1875,26.65744681,21.92291667,20.42340426,21.49130435,297.98,304.86,301.56,303.76,302.08,0.174,0.16899999999999998,0.161,0.17,0.152,0.785,0.78,0.737,0.755,0.501,2.783199787
5,1.241444444,62.45664444,21.98711111,302.42,0.831,0.153,0,0,0,1,0,0,1,1,1,0,0,1,1.064871795,1.481041667,1.38106383,1.5925,1.795531915,65.53153846,83.889625,80.81914894,67.51875,65.25746809,21.42946154,27.1875,26.65744681,21.92291667,20.42340426,303.92,297.98,304.86,301.56,303.76,0.152,0.174,0.16899999999999998,0.161,0.17,0.82,0.785,0.78,0.737,0.755,3.098575354
6,3.8287179489999996,54.5,7.784615385,288.32,0.257,0.166,0,0,0,1,1,0,0,0,1,0,1,0,4.925625,6.385526316,4.311489362,4.344651163,2.726969697,48.975,66.54473684,70.55744681,70.62093023,81.13939394,7.45625,6.739473684,-8.334042553,-0.223255814,-3.215151515,285.0,284.86,272.2,279.14,267.24,0.185,0.18100000000000002,0.179,0.179,0.517,0.203,0.265,0.243,0.255,0.001,0.3
7,2.650869565,55.56956522,8.541304347999999,292.86,0.275,0.168,0,0,0,1,1,0,0,0,1,0,1,0,1.585106383,3.8287179489999996,4.925625,6.385526316,4.311489362,71.99787234,54.5,48.975,66.54473684,70.55744681,7.974468085,7.784615385,7.45625,6.739473684,-8.334042553,295.5,288.32,285.0,284.86,272.2,0.15,0.166,0.185,0.18100000000000002,0.179,0.434,0.257,0.203,0.265,0.243,0.3
8,7.149375,50.40833333,15.73333333,298.02,0.267,0.174,0,0,0,1,1,0,0,0,1,0,1,0,2.650869565,1.585106383,3.8287179489999996,4.925625,6.385526316,55.56956522,71.99787234,54.5,48.975,66.54473684,8.541304347999999,7.974468085,7.784615385,7.45625,6.739473684,292.86,295.5,288.32,285.0,284.86,0.168,0.15,0.166,0.185,0.18100000000000002,0.275,0.434,0.257,0.203,0.265,0.3
9,3.4330232560000002,63.66511628,8.106976743999999,293.2,0.342,0.162,0,0,0,1,1,0,0,0,1,0,1,0,2.271458333,7.149375,2.650869565,1.585106383,3.8287179489999996,65.2604375,50.40833333,55.56956522,71.99787234,54.5,19.88958333,15.73333333,8.541304347999999,7.974468085,7.784615385,296.26,298.02,292.86,295.5,288.32,0.15,0.174,0.168,0.15,0.166,0.45799999999999996,0.267,0.275,0.434,0.257,0.3
10,3.5212765960000003,49.75106383,12.3787234,300.24,0.33799999999999997,0.162,0,0,0,1,1,0,1,0,0,0,1,0,3.4330232560000002,2.271458333,7.149375,2.650869565,1.585106383,63.66511628,65.2604375,50.40833333,55.56956522,71.99787234,8.106976743999999,19.88958333,15.73333333,8.541304347999999,7.974468085,293.2,296.26,298.02,292.86,295.5,0.162,0.15,0.174,0.168,0.15,0.342,0.45799999999999996,0.267,0.275,0.434,0.3
11,6.248723404,53.08936170000001,18.50851064,300.0,0.39,0.171,0,0,0,1,1,0,1,0,0,0,1,0,3.5212765960000003,3.4330232560000002,2.271458333,7.149375,2.650869565,49.75106383,63.66511628,65.2604375,50.40833333,55.56956522,12.3787234,8.106976743999999,19.88958333,15.73333333,8.541304347999999,300.24,293.2,296.26,298.02,292.86,0.162,0.162,0.15,0.174,0.168,0.33799999999999997,0.342,0.45799999999999996,0.267,0.275,0.3
12,4.911351351,58.1972973,12.46486486,287.54,0.527,0.16,0,0,0,1,1,0,1,0,1,0,1,0,1.8791666669999998,6.248723404,3.5212765960000003,3.4330232560000002,2.271458333,61.36875,53.08936170000001,49.75106383,63.66511628,65.2604375,17.29583333,18.50851064,12.3787234,8.106976743999999,19.88958333,300.92,300.0,300.24,293.2,296.26,0.163,0.171,0.162,0.162,0.15,0.7020000000000001,0.39,0.33799999999999997,0.342,0.45799999999999996,3.1798722739999996
13,5.5072916670000005,73.5875,21.54583333,302.42,0.64,0.18100000000000002,0,0,0,1,1,0,1,0,1,0,1,0,4.911351351,1.8791666669999998,6.248723404,3.5212765960000003,3.4330232560000002,58.1972973,61.36875,53.08936170000001,49.75106383,63.66511628,12.46486486,17.29583333,18.50851064,12.3787234,8.106976743999999,287.54,300.92,300.0,300.24,293.2,0.16,0.163,0.171,0.162,0.162,0.527,0.7020000000000001,0.39,0.33799999999999997,0.342,0.3
14,2.1211363640000003,67.35,18.9,300.5,0.7709999999999999,0.179,0,0,0,1,1,0,1,1,0,0,1,0,5.5072916670000005,4.911351351,1.8791666669999998,6.248723404,3.5212765960000003,73.5875,58.1972973,61.36875,53.08936170000001,49.75106383,21.54583333,12.46486486,17.29583333,18.50851064,12.3787234,302.42,287.54,300.92,300.0,300.24,0.18100000000000002,0.16,0.163,0.171,0.162,0.64,0.527,0.7020000000000001,0.39,0.33799999999999997,2.974057198
15,2.066595745,70.11914894,27.87659574,310.2,0.6609999999999999,0.17600000000000002,0,0,0,1,1,0,1,1,1,0,1,0,1.065208333,2.1211363640000003,5.5072916670000005,4.911351351,1.8791666669999998,85.81458333,67.35,73.5875,58.1972973,61.36875,25.53958333,18.9,21.54583333,12.46486486,17.29583333,301.48,300.5,302.42,287.54,300.92,0.192,0.179,0.18100000000000002,0.16,0.163,0.7659999999999999,0.7709999999999999,0.64,0.527,0.7020000000000001,0.3
16,3.191458333,62.10625,28.43125,311.8,0.667,0.182,0,0,0,1,1,0,1,1,1,0,1,0,2.066595745,1.065208333,2.1211363640000003,5.5072916670000005,4.911351351,70.11914894,85.81458333,67.35,73.5875,58.1972973,27.87659574,25.53958333,18.9,21.54583333,12.46486486,310.2,301.48,300.5,302.42,287.54,0.17600000000000002,0.192,0.179,0.18100000000000002,0.16,0.6609999999999999,0.7659999999999999,0.7709999999999999,0.64,0.527,4.579813957
17,1.7058333330000002,67.22291667,18.4375,303.98,0.69,0.184,0,0,0,1,1,1,0,0,0,0,1,0,1.058974359,0.9351063829999999,3.191458333,2.066595745,1.065208333,92.61538462,84.34893617,62.10625,70.11914894,85.81458333,23.06666667,24.47659574,28.43125,27.87659574,25.53958333,302.8,303.2,311.8,310.2,301.48,0.159,0.159,0.182,0.17600000000000002,0.192,0.736,0.83,0.667,0.6609999999999999,0.7659999999999999,2.492971659
18,1.617631579,71.07631579,19.95789474,301.66,0.7090000000000001,0.184,0,0,0,1,1,1,0,0,0,0,1,0,0.993541667,1.7058333330000002,1.058974359,0.9351063829999999,3.191458333,80.03958333,67.22291667,92.61538462,84.34893617,62.10625,24.15208333,18.4375,23.06666667,24.47659574,28.43125,304.44,303.98,302.8,303.2,311.8,0.166,0.184,0.159,0.159,0.182,0.7959999999999999,0.69,0.736,0.83,0.667,3.095430851
19,2.410869565,62.66521739,19.91086957,302.4,0.672,0.17600000000000002,0,0,0,1,1,0,0,1,0,0,1,0,1.617631579,0.993541667,1.7058333330000002,1.058974359,0.9351063829999999,71.07631579,80.03958333,67.22291667,92.61538462,84.34893617,19.95789474,24.15208333,18.4375,23.06666667,24.47659574,301.66,304.44,303.98,302.8,303.2,0.184,0.166,0.184,0.159,0.159,0.7090000000000001,0.7959999999999999,0.69,0.736,0.83,5.101579666
20,0.9564583329999999,77.26458333,21.60625,304.44,0.111,0.17600000000000002,0,0,1,0,0,0,1,1,0,0,1,0,3.953375,1.763921053,3.7478,2.71774359,2.9254482760000005,60.54729167,62.465,41.00643333,49.17146154,36.32151724,7.4995833329999995,20.87342105,23.97553333,20.79723077,20.42341379,300.14,296.9,309.24,306.0,300.82,0.107,0.127,0.128,0.135,0.13,0.5870000000000001,0.39899999999999997,0.501,0.532,0.48200000000000004,0.3
21,1.3433333330000001,78.30416667,26.41254167,306.62,0.7070000000000001,0.14300000000000002,0,0,1,0,0,0,0,1,0,0,1,0,1.932466667,2.176448276,2.302833333,2.738826087,1.4855714290000002,70.01666667,64.13093103,46.77666667,20.51434783,49.97548571,21.50466667,28.90617241,16.990625,22.27695652,29.43757143,299.98,310.6,305.72,311.94,307.16,0.11599999999999999,0.14400000000000002,0.11199999999999999,0.109,0.12300000000000001,0.835,0.508,0.633,0.635,0.11,0.3
22,2.031304348,73.8173913,14.00217391,295.02,0.693,0.149,0,0,1,0,0,1,0,0,1,0,1,0,2.0893617019999997,1.3433333330000001,1.932466667,2.176448276,2.302833333,33.49276596,78.30416667,70.01666667,64.13093103,46.77666667,9.817659574,26.41254167,21.50466667,28.90617241,16.990625,289.46,306.62,299.98,310.6,305.72,0.114,0.14300000000000002,0.11599999999999999,0.14400000000000002,0.11199999999999999,0.742,0.7070000000000001,0.835,0.508,0.633,1.200462937
23,0.602340426,70.55744681,15.0212766,300.6,0.687,0.152,0,0,1,0,0,1,0,0,1,0,1,0,2.031304348,2.0893617019999997,1.3433333330000001,1.932466667,2.176448276,73.8173913,33.49276596,78.30416667,70.01666667,64.13093103,14.00217391,9.817659574,26.41254167,21.50466667,28.90617241,295.02,289.46,306.62,299.98,310.6,0.149,0.114,0.14300000000000002,0.11599999999999999,0.14400000000000002,0.693,0.742,0.7070000000000001,0.835,0.508,2.073215961
24,0.424680851,75.23829787,9.644680851,295.74,0.634,0.16399999999999998,0,0,1,0,0,1,0,1,0,0,1,0,2.209285714,0.602340426,2.031304348,2.0893617019999997,1.3433333330000001,63.60417143,70.55744681,73.8173913,33.49276596,78.30416667,25.16902857,15.0212766,14.00217391,9.817659574,26.41254167,306.8,300.6,295.02,289.46,306.62,0.134,0.152,0.149,0.114,0.14300000000000002,0.573,0.687,0.693,0.742,0.7070000000000001,1.308443546
25,1.78625,39.98333333,5.545833332999999,285.7,0.5479999999999999,0.154,0,0,1,0,0,1,0,1,0,0,1,0,1.5507894740000001,1.291911111,3.119574468,0.424680851,2.209285714,24.95589474,65.40133333,57.94129787,75.23829787,63.60417143,18.14973684,5.953111111,11.35619149,9.644680851,25.16902857,296.4,282.16,290.64,295.74,306.8,0.138,0.10400000000000001,0.115,0.16399999999999998,0.134,0.498,0.7390000000000001,0.606,0.634,0.573,0.503912568
26,0.8291666670000001,68.73333333,-1.76875,278.36,0.45299999999999996,0.141,0,0,1,0,0,1,0,1,1,0,1,0,1.78625,1.5507894740000001,1.291911111,3.119574468,0.424680851,39.98333333,24.95589474,65.40133333,57.94129787,75.23829787,5.545833332999999,18.14973684,5.953111111,11.35619149,9.644680851,285.7,296.4,282.16,290.64,295.74,0.154,0.138,0.10400000000000001,0.115,0.16399999999999998,0.5479999999999999,0.498,0.7390000000000001,0.606,0.634,0.3
27,2.13625,72.93125,6.9375,286.96,0.469,0.16,0,0,1,0,0,1,1,0,0,0,1,0,1.930957447,0.8291666670000001,1.78625,1.5507894740000001,1.291911111,57.04382979,68.73333333,39.98333333,24.95589474,65.40133333,-3.343340426,-1.76875,5.545833332999999,18.14973684,5.953111111,273.5,278.36,285.7,296.4,282.16,0.11199999999999999,0.141,0.154,0.138,0.10400000000000001,0.575,0.45299999999999996,0.5479999999999999,0.498,0.7390000000000001,0.3
28,1.503414634,69.69514634,1.053658537,282.5,0.46,0.135,0,0,1,0,0,0,0,1,1,0,1,0,2.296361702,1.749021739,1.730680851,2.13625,1.930957447,50.18065957,36.13545652,82.88617021,72.93125,57.04382979,0.295489362,13.9326087,10.66168085,6.9375,-3.343340426,278.56,288.46,288.86,286.96,273.5,0.11199999999999999,0.153,0.11199999999999999,0.16,0.11199999999999999,0.596,0.307,0.648,0.469,0.575,0.3
29,2.7176,60.8192,15.6692,303.4,0.503,0.18,0,0,1,0,1,0,1,0,1,0,0,1,2.45,1.506057405,3.647538708,3.556555172,2.7408510639999997,65.52035714,71.51222113,59.125,59.2637931,59.84510638,15.135,15.77057149,13.465375,21.57793103,6.75787234,293.08,298.8,301.64,300.14,281.16,0.18,0.18,0.171,0.16,0.19,0.61,0.634,0.721,0.73,0.304,1.847263932
30,1.632285714,55.35428571,15.53285714,300.96,0.75,0.174,0,0,1,0,1,0,1,1,0,0,0,1,5.65258713,1.55875,1.5169163780000001,1.799206479,2.0172950000000003,68.26391304,40.79208333,66.99810879,55.06708333,57.3545,17.35369565,18.51625,17.23113014,22.7475,18.512,301.5,314.76,290.56,313.96,300.98,0.17600000000000002,0.10800000000000001,0.188,0.17600000000000002,0.16699999999999998,0.6679999999999999,0.37200000000000005,0.7440000000000001,0.7909999999999999,0.632,2.647957444
31,2.94025,60.3635,19.644000000000002,297.06,0.667,0.174,0,0,1,0,1,0,1,1,0,0,0,1,1.632285714,5.65258713,1.55875,1.5169163780000001,1.799206479,55.35428571,68.26391304,40.79208333,66.99810879,55.06708333,15.53285714,17.35369565,18.51625,17.23113014,22.7475,300.96,301.5,314.76,290.56,313.96,0.174,0.17600000000000002,0.10800000000000001,0.188,0.17600000000000002,0.75,0.6679999999999999,0.37200000000000005,0.7440000000000001,0.7909999999999999,3.2063477039999997
32,2.333076923,61.68807692,16.455,292.82,1.0,0.171,0,0,1,0,1,0,1,1,0,0,0,1,3.0089892860000003,2.94025,1.632285714,5.65258713,1.55875,47.83714286,60.3635,55.35428571,68.26391304,40.79208333,29.67357143,19.644000000000002,15.53285714,17.35369565,18.51625,308.36,297.06,300.96,301.5,314.76,0.179,0.174,0.174,0.17600000000000002,0.10800000000000001,0.43200000000000005,0.667,0.75,0.6679999999999999,0.37200000000000005,0.3
33,1.970714286,42.69357143,23.78214286,293.84,0.856,0.17600000000000002,0,0,1,0,1,0,1,1,0,0,0,1,2.333076923,3.0089892860000003,2.94025,1.632285714,5.65258713,61.68807692,47.83714286,60.3635,55.35428571,68.26391304,16.455,29.67357143,19.644000000000002,15.53285714,17.35369565,292.82,308.36,297.06,300.96,301.5,0.171,0.179,0.174,0.174,0.17600000000000002,1.0,0.43200000000000005,0.667,0.75,0.6679999999999999,3.229333162
34,2.3060869569999998,70.69652174,15.73586957,292.24,0.69,0.22699999999999998,0,0,1,0,1,0,1,1,1,0,0,1,2.222764292,4.318845133,1.1721185790000002,3.336427208,1.970714286,61.6025,40.68377778,62.14923558,49.298125,42.69357143,19.85791667,29.20688889,19.31107211,22.05375,23.78214286,307.0,312.4,302.46,308.96,293.84,0.154,0.175,0.20600000000000002,0.17300000000000001,0.17600000000000002,0.585,0.652,0.7609999999999999,0.688,0.856,1.3602610830000001
35,2.266458333,68.62604167,18.95979167,298.76,0.588,0.171,0,0,1,0,1,1,0,0,0,0,0,1,1.6448838540000001,3.910924125,1.5808333330000002,2.549954021,4.824245396,53.37645833,43.4425,33.429375,68.424375,63.26395833,25.21395833,26.42145833,21.59375,19.7175,20.38583333,306.42,306.82,316.68,304.42,306.36,0.201,0.204,0.107,0.191,0.205,0.8170000000000001,0.588,0.41,0.841,0.43700000000000006,3.7193806169999997
36,4.626666667,62.48979167,13.53458333,292.6,0.518,0.151,0,0,1,0,1,0,0,1,0,0,0,1,2.483845,1.263659,1.214358022,2.958333333,4.8678233330000005,80.3995,60.37466667,54.147608700000006,54.343125,63.37604167,23.15075,25.03822222,27.60652174,18.08270833,21.87,300.78,307.54,307.28,299.16,300.52,0.18600000000000003,0.192,0.205,0.115,0.19899999999999998,0.6559999999999999,0.659,0.5720000000000001,0.40299999999999997,0.653,1.176084161
37,2.648958333,64.621875,15.35375,292.78,0.7490000000000001,0.157,0,0,1,0,1,1,0,0,1,0,0,1,4.241308813,3.9514851039999996,2.272553191,1.912493851,1.7205209780000001,30.964375,33.12645833,69.20553191,50.06595745,52.39891304,16.083125,15.03291667,2.821914894,16.32308511,16.09708696,298.02,299.2,277.8,303.96,297.78,0.213,0.201,0.114,0.203,0.214,0.581,0.254,0.42200000000000004,0.261,0.528,1.99990201
38,3.56375,85.96583333,-2.992916667,271.62,0.706,0.156,0,0,1,0,1,1,0,1,1,0,0,1,2.0301957859999997,2.4998412080000003,1.5544205530000001,1.066875,2.402592958,76.04357143,66.78041667,64.66170213,83.651875,70.59833333,15.38964286,10.34152083,17.97404255,4.353333333,13.22297917,294.5,290.26,301.38,287.04,296.32,0.153,0.183,0.215,0.11,0.203,0.693,0.62,0.519,0.7090000000000001,0.251,0.3
39,2.201875,80.21041667,-6.366041667,266.98,0.209,0.377,0,0,1,0,1,0,0,1,1,0,0,1,1.293336021,1.2593305000000001,2.98,3.56375,2.0301957859999997,73.55297872,77.03770833,67.13666667,85.96583333,76.04357143,12.34025532,12.45491667,1.5654166669999998,-2.992916667,15.38964286,287.12,288.5,277.7,271.62,294.5,0.046,0.14300000000000002,0.10099999999999999,0.156,0.153,0.215,0.742,0.8759999999999999,0.706,0.693,0.5281357170000001
40,1.800208333,78.634375,-2.36375,274.62,0.43200000000000005,0.156,0,0,1,0,1,0,0,1,1,0,0,1,1.397328029,2.201875,1.293336021,1.2593305000000001,2.98,66.09885714,80.21041667,73.55297872,77.03770833,67.13666667,16.55457143,-6.366041667,12.34025532,12.45491667,1.5654166669999998,290.12,266.98,287.12,288.5,277.7,0.158,0.377,0.046,0.14300000000000002,0.10099999999999999,0.7340000000000001,0.209,0.215,0.742,0.8759999999999999,0.3
41,1.4120833330000002,75.465625,-3.8025,274.6,0.35200000000000004,0.157,0,0,1,0,1,0,0,1,1,0,0,1,1.800208333,1.397328029,2.201875,1.293336021,1.2593305000000001,78.634375,66.09885714,80.21041667,73.55297872,77.03770833,-2.36375,16.55457143,-6.366041667,12.34025532,12.45491667,274.62,290.12,266.98,287.12,288.5,0.156,0.158,0.377,0.046,0.14300000000000002,0.43200000000000005,0.7340000000000001,0.209,0.215,0.742,0.38710609100000004
42,3.681458333,76.974375,-5.086666667,271.52,0.45299999999999996,0.18,0,0,1,0,1,0,0,1,1,0,0,1,1.391332056,1.071924114,0.886201978,1.4120833330000002,1.800208333,82.70700652,68.10659091,64.09755556,75.465625,78.634375,1.63507189,11.19938636,10.89948889,-3.8025,-2.36375,277.62,294.54,294.16,274.6,274.62,0.155,0.16899999999999998,0.076,0.157,0.156,0.585,0.789,0.34,0.35200000000000004,0.43200000000000005,1.011308432
43,4.091875,65.74541667,-10.39895833,266.82,0.40299999999999997,0.183,0,0,1,0,1,0,0,0,1,0,0,1,2.918825043,3.0373300210000003,3.681458333,1.391332056,1.071924114,61.26,59.919375,76.974375,82.70700652,68.10659091,8.090510638,9.306333333,-5.086666667,1.63507189,11.19938636,292.54,291.52,271.52,277.62,294.54,0.08900000000000001,0.17300000000000001,0.18,0.155,0.16899999999999998,0.36,0.599,0.45299999999999996,0.585,0.789,0.722828597
44,3.9425,68.31,-8.718333333,272.88,0.187,0.17600000000000002,0,0,1,0,1,0,0,0,1,0,0,1,4.091875,2.918825043,3.0373300210000003,3.681458333,1.391332056,65.74541667,61.26,59.919375,76.974375,82.70700652,-10.39895833,8.090510638,9.306333333,-5.086666667,1.63507189,266.82,292.54,291.52,271.52,277.62,0.183,0.08900000000000001,0.17300000000000001,0.18,0.155,0.40299999999999997,0.36,0.599,0.45299999999999996,0.585,0.3
45,4.25375,54.55145833,11.97104167,288.7,0.299,0.142,0,0,1,0,1,0,1,0,0,0,0,1,2.450313227,1.6165981459999998,1.767472563,2.15345679,2.179445438,72.16274764,66.47791667,62.39958333,60.05591667,72.406875,8.387462841,16.968125,17.12395833,6.0625,7.509583332999999,280.38,292.42,298.82,271.72,288.86,0.149,0.18,0.11800000000000001,0.184,0.17,0.494,0.682,0.39,0.34,0.73,2.8622043130000003
46,2.920833333,67.63083333,17.12041667,300.92,0.44,0.183,0,0,1,0,1,0,1,1,0,0,0,1,2.275451042,1.972066087,0.920673155,4.527224917,2.082493002,46.14583333,72.34346041,57.50012498,57.16125,51.98260417,24.05916667,12.17849283,20.73499079,18.39291667,14.91875,321.12,293.28,303.12,307.9,292.62,0.121,0.203,0.20800000000000002,0.14300000000000002,0.099,0.24,0.835,0.722,0.282,0.775,2.426237822
47,2.142083333,57.52520833,19.956875,301.06,0.701,0.171,0,0,1,0,1,0,1,1,0,0,0,1,1.542692572,4.4114119380000005,2.524050184,5.183065167,2.700292521,77.24478999,64.74479167,49.74964583,61.68541667,60.91520833,15.70781744,19.36375,15.65375,19.404375,17.37041667,298.62,313.08,300.3,315.42,304.26,0.20600000000000002,0.133,0.10400000000000001,0.122,0.12300000000000001,0.6890000000000001,0.461,0.764,0.31,0.46299999999999997,0.3
48,2.858333333,55.46875,14.63520833,296.84,0.773,0.174,0,0,1,0,1,0,1,1,0,0,0,1,2.142083333,1.542692572,4.4114119380000005,2.524050184,5.183065167,57.52520833,77.24478999,64.74479167,49.74964583,61.68541667,19.956875,15.70781744,19.36375,15.65375,19.404375,301.06,298.62,313.08,300.3,315.42,0.171,0.20600000000000002,0.133,0.10400000000000001,0.122,0.701,0.6890000000000001,0.461,0.764,0.31,3.3043382169999997
49,2.1827083330000003,51.16145833,15.28833333,297.7,0.67,0.168,0,0,1,0,1,0,1,1,1,0,0,1,3.7423654789999996,0.832451945,2.858333333,2.142083333,1.542692572,69.66395833,42.90265262,55.46875,57.52520833,77.24478999,17.348125,23.06206,14.63520833,19.956875,15.70781744,307.08,306.84,296.84,301.06,298.62,0.14300000000000002,0.20600000000000002,0.174,0.171,0.20600000000000002,0.56,0.505,0.773,0.701,0.6890000000000001,4.7513601780000005
50,1.351666667,68.974375,17.50020833,300.84,0.68,0.168,0,0,1,0,1,0,1,1,1,0,0,1,2.172657455,2.1827083330000003,3.7423654789999996,0.832451945,2.858333333,39.11458333,51.16145833,69.66395833,42.90265262,55.46875,20.42516667,15.28833333,17.348125,23.06206,14.63520833,302.04,297.7,307.08,306.84,296.84,0.106,0.168,0.14300000000000002,0.20600000000000002,0.174,0.639,0.67,0.56,0.505,0.773,4.106770753999999
51,1.452291667,64.065,19.61083333,302.94,0.655,0.193,0,0,1,0,1,0,1,1,1,0,0,1,2.576032875,4.27709018,1.351666667,2.172657455,2.1827083330000003,60.99875,27.15978542,68.974375,39.11458333,51.16145833,22.1375,23.490625,17.50020833,20.42516667,15.28833333,307.42,307.58,300.84,302.04,297.7,0.18600000000000003,0.107,0.168,0.106,0.168,0.775,0.622,0.68,0.639,0.67,4.8183803560000005
52,0.926458333,60.81291667,19.848125,308.08,0.777,0.191,0,0,1,0,1,0,1,1,1,0,0,1,1.452291667,2.576032875,4.27709018,1.351666667,2.172657455,64.065,60.99875,27.15978542,68.974375,39.11458333,19.61083333,22.1375,23.490625,17.50020833,20.42516667,302.94,307.42,307.58,300.84,302.04,0.193,0.18600000000000003,0.107,0.168,0.106,0.655,0.775,0.622,0.68,0.639,0.3
53,1.4304166669999998,42.39604167,26.47041667,311.92,0.748,0.187,0,0,1,0,1,0,1,1,1,0,0,1,2.9847314999999996,3.068506788,0.926458333,1.452291667,2.576032875,55.62645833,20.05914583,60.81291667,64.065,60.99875,21.93791667,25.186875,19.848125,19.61083333,22.1375,305.62,304.64,308.08,302.94,307.42,0.193,0.107,0.191,0.193,0.18600000000000003,0.8170000000000001,0.7979999999999999,0.777,0.655,0.775,0.3
54,1.4829166669999998,51.47479167,25.65145833,307.92,0.5820000000000001,0.188,0,0,1,0,1,1,0,0,0,0,0,1,1.4304166669999998,2.9847314999999996,3.068506788,0.926458333,1.452291667,42.39604167,55.62645833,20.05914583,60.81291667,64.065,26.47041667,21.93791667,25.186875,19.848125,19.61083333,311.92,305.62,304.64,308.08,302.94,0.187,0.193,0.107,0.191,0.193,0.748,0.8170000000000001,0.7979999999999999,0.777,0.655,4.784526348
55,1.75125,47.64458333,24.38208333,309.04,0.59,0.188,0,0,1,0,1,1,0,0,0,0,0,1,1.699074217,2.4511324130000003,1.4829166669999998,1.4304166669999998,2.9847314999999996,51.96391304,44.74369565,51.47479167,42.39604167,55.62645833,20.915,23.1173913,25.65145833,26.47041667,21.93791667,301.62,302.38,307.92,311.92,305.62,0.195,0.198,0.188,0.187,0.193,0.843,0.82,0.5820000000000001,0.748,0.8170000000000001,3.779826403
56,1.254583333,53.70958333,19.753125,307.64,0.6890000000000001,0.188,0,0,1,0,1,1,0,0,0,0,0,1,1.214477872,1.75125,1.699074217,2.4511324130000003,1.4829166669999998,50.42553191,47.64458333,51.96391304,44.74369565,51.47479167,22.48893617,24.38208333,20.915,23.1173913,25.65145833,305.3,309.04,301.62,302.38,307.92,0.195,0.188,0.195,0.198,0.188,0.8220000000000001,0.59,0.843,0.82,0.5820000000000001,3.6263604160000003
57,1.4860416669999998,41.09104167,23.424375,306.14,0.48100000000000004,0.185,0,0,1,0,1,1,0,0,0,0,0,1,1.254583333,1.214477872,1.75125,1.699074217,2.4511324130000003,53.70958333,50.42553191,47.64458333,51.96391304,44.74369565,19.753125,22.48893617,24.38208333,20.915,23.1173913,307.64,305.3,309.04,301.62,302.38,0.188,0.195,0.188,0.195,0.198,0.6890000000000001,0.8220000000000001,0.59,0.843,0.82,3.4035406110000004
58,6.450833332999999,68.78979167,8.809583332999999,286.9,0.215,0.17,0,0,1,0,1,1,0,0,1,0,0,1,0.918350571,1.474335933,1.603285396,3.2164867289999997,3.773145167,61.22016795,67.85279275,61.44083333,72.42583333,76.56958333,12.79459554,10.82624217,17.42354167,16.91583333,16.11145833,293.0,288.84,301.66,300.56,300.5,0.14300000000000002,0.14300000000000002,0.19,0.19,0.19399999999999998,0.551,0.361,0.662,0.784,0.7759999999999999,2.474987626
59,5.939166667,50.37041667,16.63541667,295.5,0.395,0.172,0,0,1,0,1,1,0,0,1,0,0,1,7.006308375,6.450833332999999,0.918350571,1.474335933,1.603285396,28.279375,68.78979167,61.22016795,67.85279275,61.44083333,20.399375,8.809583332999999,12.79459554,10.82624217,17.42354167,297.1,286.9,293.0,288.84,301.66,0.161,0.17,0.14300000000000002,0.14300000000000002,0.19,0.36200000000000004,0.215,0.551,0.361,0.662,1.33238852
60,4.506875,67.91020833,10.99520833,281.1,0.436,0.153,0,0,1,0,1,1,0,1,0,0,0,1,1.153527405,1.371306722,1.551921133,1.9333296180000001,1.0552000590000001,43.8052381,78.88946287,43.73444444,61.64970588,52.98899803,9.314928571,10.63142403,15.11551111,17.06588235,19.59715294,294.88,285.18,295.58,301.82,299.02,0.11599999999999999,0.16699999999999998,0.13,0.153,0.18899999999999997,0.222,0.45899999999999996,0.267,0.24600000000000002,0.382,0.7785628440000001
61,8.11125,51.23354167,-1.073541667,268.34,0.26899999999999996,0.13,0,0,1,0,1,1,0,1,0,0,0,1,1.90151169,4.506875,1.153527405,1.371306722,1.551921133,75.38928571,67.91020833,43.8052381,78.88946287,43.73444444,13.09190476,10.99520833,9.314928571,10.63142403,15.11551111,290.42,281.1,294.88,285.18,295.58,0.06,0.153,0.11599999999999999,0.16699999999999998,0.13,0.221,0.436,0.222,0.45899999999999996,0.267,0.3
62,1.89104,53.871680000000005,28.0848,306.62,0.499,0.114,0,0,1,1,0,0,0,1,0,0,1,1,4.622104167,1.587166667,1.3599791669999999,4.137916667,2.126583333,65.86691667,64.86520833,88.15754167,82.55895833,69.60566667,26.98670833,18.3415,26.85,13.04458333,23.48422917,302.52,294.74,292.76,291.8,304.04,0.179,0.111,0.096,0.196,0.179,0.606,0.544,0.48700000000000004,0.46399999999999997,0.624,2.683865786
63,1.457342105,65.48513158,24.94702632,301.98,0.6809999999999999,0.12300000000000001,0,0,1,1,0,1,0,0,1,0,1,1,2.328541667,2.863541667,2.0520416669999997,1.89104,4.622104167,95.19166667,54.19022917,58.01877083,53.871680000000005,65.86691667,9.289479167,19.9459375,17.20395833,28.0848,26.98670833,286.76,305.1,297.34,306.62,302.52,0.136,0.179,0.107,0.114,0.179,0.475,0.527,0.735,0.499,0.606,1.9864308830000001
64,1.517875,43.75375,18.49483333,298.74,0.5589999999999999,0.136,0,0,1,1,0,1,0,0,1,0,1,1,2.238604167,3.707083333,1.490458333,1.457342105,2.328541667,82.33364583,83.25395833,62.68145833,65.48513158,95.19166667,27.40735417,4.228604167,13.76604167,24.94702632,9.289479167,299.58,281.32,291.98,301.98,286.76,0.107,0.121,0.09699999999999999,0.12300000000000001,0.136,0.366,0.531,0.732,0.6809999999999999,0.475,0.3
65,1.579142857,68.30632143,9.394464286,290.48,0.502,0.125,0,0,1,1,0,1,0,1,0,0,1,1,1.807083333,3.20125,2.0572340430000002,1.517875,2.238604167,89.54583333,58.474375,74.5887234,43.75375,82.33364583,4.047541667,10.10122917,12.06510638,18.49483333,27.40735417,282.2,291.8,291.5,298.74,299.58,0.11599999999999999,0.183,0.106,0.136,0.107,0.47100000000000003,0.37,0.682,0.5589999999999999,0.366,0.3
66,2.15345679,60.05591667,6.0625,271.72,0.34,0.184,0,0,1,1,1,0,0,0,1,1,0,0,2.179445438,3.9425,4.091875,2.918825043,3.0373300210000003,72.406875,68.31,65.74541667,61.26,59.919375,7.509583332999999,-8.718333333,-10.39895833,8.090510638,9.306333333,288.86,272.88,266.82,292.54,291.52,0.17,0.17600000000000002,0.183,0.08900000000000001,0.17300000000000001,0.73,0.187,0.40299999999999997,0.36,0.599,1.651778102
67,3.8202055610000003,74.783875,4.5925,286.96,0.632,0.105,0,0,1,1,1,0,1,0,0,1,0,0,1.828789028,1.622351375,4.329168911,1.6922526219999998,2.002895429,66.6812541,67.91541667,63.67577778,57.40555556,55.32904762,15.56989722,18.43166667,12.90844444,15.917,17.06880952,291.26,298.92,297.14,301.92,299.4,0.201,0.179,0.128,0.128,0.171,0.797,0.586,0.402,0.524,0.6559999999999999,2.371570587
68,2.082493002,51.98260417,14.91875,292.62,0.775,0.099,0,0,1,1,1,0,1,0,1,1,0,0,4.116208333,3.8202055610000003,1.828789028,1.622351375,4.329168911,70.27416667,74.783875,66.6812541,67.91541667,63.67577778,13.99708333,4.5925,15.56989722,18.43166667,12.90844444,292.08,286.96,291.26,298.92,297.14,0.177,0.105,0.201,0.179,0.128,0.547,0.632,0.797,0.586,0.402,5.674500942000001
69,2.524050184,49.74964583,15.65375,300.3,0.764,0.10400000000000001,0,0,1,1,1,0,1,1,0,1,0,0,5.183065167,2.700292521,2.920833333,2.275451042,1.972066087,61.68541667,60.91520833,67.63083333,46.14583333,72.34346041,19.404375,17.37041667,17.12041667,24.05916667,12.17849283,315.42,304.26,300.92,321.12,293.28,0.122,0.12300000000000001,0.183,0.121,0.203,0.31,0.46299999999999997,0.44,0.24,0.835,4.1829428669999995
70,4.27709018,27.15978542,23.490625,307.58,0.622,0.107,0,0,1,1,1,0,1,1,1,1,0,0,1.351666667,2.172657455,2.1827083330000003,3.7423654789999996,0.832451945,68.974375,39.11458333,51.16145833,69.66395833,42.90265262,17.50020833,20.42516667,15.28833333,17.348125,23.06206,300.84,302.04,297.7,307.08,306.84,0.168,0.106,0.168,0.14300000000000002,0.20600000000000002,0.68,0.639,0.67,0.56,0.505,2.5201959609999998
71,3.068506788,20.05914583,25.186875,304.64,0.7979999999999999,0.107,0,0,1,1,1,0,1,1,1,1,0,0,0.926458333,1.452291667,2.576032875,4.27709018,1.351666667,60.81291667,64.065,60.99875,27.15978542,68.974375,19.848125,19.61083333,22.1375,23.490625,17.50020833,308.08,302.94,307.42,307.58,300.84,0.191,0.193,0.18600000000000003,0.107,0.168,0.777,0.655,0.775,0.622,0.68,3.1826148030000003
72,2.504447368,75.02894737,23.42578947,302.44,0.745,0.122,0,1,0,0,0,0,1,1,0,1,0,1,6.485958332999999,7.2184375,7.797673913,5.161458333,3.387458333,36.44875,35.45895833,44.96521739,55.96041667,35.97689583,12.828875,16.16416667,13.39545652,-9.478333333,12.8750625,294.58,295.22,290.82,265.48,294.26,0.162,0.158,0.154,0.7340000000000001,0.159,0.46799999999999997,0.594,0.665,0.0,0.48,0.5833861229999999
73,2.053705882,72.56470588,24.79294118,303.0,0.7609999999999999,0.11,0,1,0,0,0,0,1,1,0,1,0,1,4.051566792,2.504447368,6.485958332999999,7.2184375,7.797673913,54.17270833,75.02894737,36.44875,35.45895833,44.96521739,18.09125,23.42578947,12.828875,16.16416667,13.39545652,303.24,302.44,294.58,295.22,290.82,0.171,0.122,0.162,0.158,0.154,0.6,0.745,0.46799999999999997,0.594,0.665,3.8485021589999997
74,1.8849,79.615,22.076,298.76,0.36200000000000004,0.11,0,1,0,0,0,0,1,1,0,1,0,1,2.053705882,4.051566792,2.504447368,6.485958332999999,7.2184375,72.56470588,54.17270833,75.02894737,36.44875,35.45895833,24.79294118,18.09125,23.42578947,12.828875,16.16416667,303.0,303.24,302.44,294.58,295.22,0.11,0.171,0.122,0.162,0.158,0.7609999999999999,0.6,0.745,0.46799999999999997,0.594,2.996829987
75,2.155208333,80.37502083,24.87625,302.6,0.8190000000000001,0.11199999999999999,0,1,0,0,0,0,1,1,1,1,0,1,3.64711932,1.8849,2.053705882,4.051566792,2.504447368,42.2568,79.615,72.56470588,54.17270833,75.02894737,28.8676,22.076,24.79294118,18.09125,23.42578947,312.7,298.76,303.0,303.24,302.44,0.16399999999999998,0.11,0.11,0.171,0.122,0.40700000000000003,0.36200000000000004,0.7609999999999999,0.6,0.745,9.253455162
76,1.773285714,89.10952381,25.89952381,298.82,0.855,0.115,0,1,0,0,0,0,1,1,1,1,0,1,1.118214286,2.1350293330000003,4.0998832919999995,2.155208333,3.64711932,67.6075,56.16083333,52.72854167,80.37502083,42.2568,17.47821429,21.81083333,21.70958333,24.87625,28.8676,291.88,309.52,302.58,302.6,312.7,0.18,0.182,0.17,0.11199999999999999,0.16399999999999998,0.632,0.578,0.687,0.8190000000000001,0.40700000000000003,8.944742202999999
77,2.261423077,53.05003846,22.15615385,296.92,0.86,0.11,0,1,0,0,0,1,0,0,0,1,0,1,5.060277021,3.9016927289999996,1.773285714,1.118214286,2.1350293330000003,72.315,59.90583333,89.10952381,67.6075,56.16083333,16.94770833,20.92625,25.89952381,17.47821429,21.81083333,301.46,303.68,298.82,291.88,309.52,0.19,0.18899999999999997,0.115,0.18,0.182,0.607,0.6509999999999999,0.855,0.632,0.578,6.444146156
78,1.6628541669999999,63.1875,18.78416667,299.06,0.779,0.109,0,1,0,0,0,1,0,0,0,1,0,1,2.261423077,5.060277021,3.9016927289999996,1.773285714,1.118214286,53.05003846,72.315,59.90583333,89.10952381,67.6075,22.15615385,16.94770833,20.92625,25.89952381,17.47821429,296.92,301.46,303.68,298.82,291.88,0.11,0.19,0.18899999999999997,0.115,0.18,0.86,0.607,0.6509999999999999,0.855,0.632,4.965390682
79,1.087526316,93.52105263,19.97210526,303.2,0.8109999999999999,0.1,0,1,0,0,0,1,0,0,0,1,0,1,3.6364011880000002,5.59664025,1.6628541669999999,2.261423077,5.060277021,47.28229167,73.27770833,63.1875,53.05003846,72.315,23.43333333,17.01416667,18.78416667,22.15615385,16.94770833,308.68,296.34,299.06,296.92,301.46,0.193,0.195,0.109,0.11,0.19,0.5379999999999999,0.6709999999999999,0.779,0.86,0.607,0.3
80,1.6065625,61.31460417,15.438125,296.1,0.772,0.107,0,1,0,0,0,0,0,1,0,1,0,1,2.5835254169999997,6.040924082999999,1.087526316,3.6364011880000002,5.59664025,55.73729167,66.65083333,93.52105263,47.28229167,73.27770833,24.83958333,18.74,19.97210526,23.43333333,17.01416667,310.52,299.6,303.2,308.68,296.34,0.19,0.19,0.1,0.193,0.195,0.636,0.602,0.8109999999999999,0.5379999999999999,0.6709999999999999,15.0
81,1.7235625,79.45208333,14.353125,294.62,0.838,0.107,0,1,0,0,0,0,0,1,0,1,0,1,1.7177307080000002,4.52637725,1.164326687,1.6065625,2.5835254169999997,64.23270833,64.01354167,47.86979167,61.31460417,55.73729167,19.931875,19.70770833,23.9,15.438125,24.83958333,301.46,302.84,308.54,296.1,310.52,0.192,0.203,0.204,0.107,0.19,0.5379999999999999,0.42,0.569,0.772,0.636,7.311950207000001
82,1.661479167,79.60208333,12.59229167,294.0,0.7190000000000001,0.114,0,1,0,0,0,1,0,0,1,1,0,1,2.153333333,3.514144317,2.9544128960000005,1.7235625,1.7177307080000002,84.33541667,47.09170732,56.739375,79.45208333,64.23270833,7.000625,17.26,17.775625,14.353125,19.931875,282.3,296.86,300.58,294.62,301.46,0.146,0.209,0.19899999999999998,0.107,0.192,0.27,0.43700000000000006,0.35100000000000003,0.838,0.5379999999999999,0.3
83,1.276166667,78.96458333,6.1668125,283.58,0.7659999999999999,0.113,0,1,0,0,0,1,0,1,1,1,0,1,2.0066666669999997,1.77620761,6.2495833329999995,4.092083333,2.56221775,89.31354167,68.46365854,85.97375,75.03333333,68.93479167,1.285,13.91165854,5.2175,6.574375,14.81125,274.12,295.86,279.22,281.46,296.34,0.12300000000000001,0.196,0.127,0.142,0.192,0.63,0.39399999999999996,0.091,0.207,0.516,0.3
84,2.140866667,73.31111111,-2.660422222,274.56,0.6829999999999999,0.105,0,1,0,0,0,1,0,1,1,1,0,1,4.272708333,1.116001935,4.02375122,1.276166667,2.0066666669999997,50.58104167,75.3426087,37.81195122,78.96458333,89.31354167,7.071041667,5.148217391,4.518707317,6.1668125,1.285,280.18,285.38,283.58,283.58,274.12,0.131,0.149,0.14800000000000002,0.113,0.12300000000000001,0.55,0.306,0.47600000000000003,0.7659999999999999,0.63,0.3
85,2.0055208330000003,63.1875,2.418979167,278.02,0.644,0.106,0,1,0,0,0,1,0,1,1,1,0,1,2.140866667,4.272708333,1.116001935,4.02375122,1.276166667,73.31111111,50.58104167,75.3426087,37.81195122,78.96458333,-2.660422222,7.071041667,5.148217391,4.518707317,6.1668125,274.56,280.18,285.38,283.58,283.58,0.105,0.131,0.149,0.14800000000000002,0.113,0.6829999999999999,0.55,0.306,0.47600000000000003,0.7659999999999999,0.603315175
86,2.118104167,57.94666667,-1.738958333,274.28,0.626,0.10800000000000001,0,1,0,0,0,1,1,0,0,1,0,1,1.4858521869999999,1.254809833,2.787776163,1.9768372580000002,2.0055208330000003,65.256875,62.94458333,49.35348837,37.30290323,63.1875,8.421041667,8.359895833,10.48565116,9.948967742,2.418979167,289.8,288.4,287.24,285.34,278.02,0.154,0.165,0.157,0.156,0.106,0.298,0.361,0.282,0.332,0.644,0.3
87,2.3454255319999997,58.93446809,3.5491489360000004,279.6,0.754,0.10800000000000001,0,1,0,0,0,1,1,0,0,1,0,1,2.118104167,1.4858521869999999,1.254809833,2.787776163,1.9768372580000002,57.94666667,65.256875,62.94458333,49.35348837,37.30290323,-1.738958333,8.421041667,8.359895833,10.48565116,9.948967742,274.28,289.8,288.4,287.24,285.34,0.10800000000000001,0.154,0.165,0.157,0.156,0.626,0.298,0.361,0.282,0.332,2.396226168
88,1.203,53.24592593,-5.368148148,278.46,0.613,0.11199999999999999,0,1,0,0,0,0,0,0,1,1,0,1,4.579375,1.565719146,2.3454255319999997,2.118104167,1.4858521869999999,72.81416667,54.78604167,58.93446809,57.94666667,65.256875,2.057083333,9.688020833,3.5491489360000004,-1.738958333,8.421041667,274.9,287.64,279.6,274.28,289.8,0.16399999999999998,0.155,0.10800000000000001,0.10800000000000001,0.154,0.40700000000000003,0.326,0.754,0.626,0.298,0.3
89,2.068586957,58.55173913,4.025,280.74,0.304,0.113,0,1,0,0,0,0,0,0,1,1,0,1,3.9825,1.203,4.579375,1.565719146,2.3454255319999997,45.24,53.24592593,72.81416667,54.78604167,58.93446809,16.405,-5.368148148,2.057083333,9.688020833,3.5491489360000004,287.3,278.46,274.9,287.64,279.6,0.177,0.11199999999999999,0.16399999999999998,0.155,0.10800000000000001,0.66,0.613,0.40700000000000003,0.326,0.754,0.3
90,2.3121333330000002,37.02291111,-3.414222222,278.82,0.585,0.11699999999999999,0,1,0,0,0,0,0,0,1,1,0,1,5.126343438,2.375625,3.262723458,2.068586957,3.9825,38.56833333,60.52583333,59.9825,58.55173913,45.24,14.44541667,7.162083332999999,15.76041667,4.025,16.405,293.46,290.36,296.24,280.74,287.3,0.155,0.154,0.14400000000000002,0.113,0.177,0.648,0.456,0.609,0.304,0.66,3.503353119
91,1.830979167,66.62854167,5.1216666669999995,282.32,0.565,0.11,0,1,0,0,0,0,1,0,0,1,0,1,2.095625,2.3121333330000002,5.126343438,2.375625,3.262723458,62.05583333,37.02291111,38.56833333,60.52583333,59.9825,11.01916667,-3.414222222,14.44541667,7.162083332999999,15.76041667,292.7,278.82,293.46,290.36,296.24,0.16699999999999998,0.11699999999999999,0.155,0.154,0.14400000000000002,0.635,0.585,0.648,0.456,0.609,5.37498188
92,2.5161875,39.93958333,10.01979167,291.64,0.6859999999999999,0.106,0,1,0,0,0,0,1,0,0,1,0,1,1.167307692,3.7657555560000002,2.2010416669999997,1.830979167,2.095625,71.82358974,74.18555556,69.46916667,66.62854167,62.05583333,9.231205128,8.828622222,13.336875,5.1216666669999995,11.01916667,292.72,283.34,289.78,282.32,292.7,0.18,0.179,0.163,0.11,0.16699999999999998,0.693,0.391,0.742,0.565,0.635,0.421229869
93,2.52076087,75.34217391,11.78586957,292.64,0.49700000000000005,0.126,0,1,0,0,0,0,1,0,0,1,0,1,1.511956522,5.071539562,1.615717391,2.155416667,2.5161875,77.28521739,60.95125,51.85,79.18145833,39.93958333,12.34391304,15.30145833,11.5468913,3.644375,10.01979167,292.14,297.18,295.8,284.5,291.64,0.19399999999999998,0.16,0.17,0.166,0.106,0.257,0.643,0.659,0.8490000000000001,0.6859999999999999,3.8842284680000003
94,2.13475,70.10625,15.643125,293.88,0.732,0.111,0,1,0,0,0,1,0,0,1,1,0,1,3.249166667,4.094275596,5.17625,1.116247149,3.7493955189999997,88.935,32.39787234,70.88166667,50.15680851,59.83407407,11.98395833,22.49,16.68416667,21.54361702,23.17518519,282.9,301.88,291.42,305.2,300.16,0.151,0.179,0.161,0.17300000000000001,0.201,0.335,0.633,0.619,0.602,0.643,2.9517352580000003
95,2.4554166669999997,62.76647917,8.569791667,285.74,0.747,0.111,0,1,0,0,0,1,0,0,1,1,0,1,2.13475,3.249166667,4.094275596,5.17625,1.116247149,70.10625,88.935,32.39787234,70.88166667,50.15680851,15.643125,11.98395833,22.49,16.68416667,21.54361702,293.88,282.9,301.88,291.42,305.2,0.111,0.151,0.179,0.161,0.17300000000000001,0.732,0.335,0.633,0.619,0.602,0.3
96,2.0108125,57.51875,11.16335417,290.0,0.659,0.11199999999999999,0,1,0,0,0,1,0,0,1,1,0,1,3.271875,1.712291667,2.4554166669999997,2.13475,3.249166667,86.55041667,94.80104167,62.76647917,70.10625,88.935,6.203333333,7.036875,8.569791667,15.643125,11.98395833,278.32,286.26,285.74,293.88,282.9,0.165,0.168,0.111,0.111,0.151,0.775,0.768,0.747,0.732,0.335,0.303814501
97,1.8223125,43.63770833,13.75104167,289.38,0.65,0.11599999999999999,0,1,0,0,0,1,0,1,0,1,0,1,2.502916667,1.8175,1.051666308,2.0108125,3.271875,70.90875,75.98895833,79.93230769,57.51875,86.55041667,12.49395833,12.66979167,12.20384615,11.16335417,6.203333333,283.14,287.5,297.92,290.0,278.32,0.175,0.17300000000000001,0.163,0.11199999999999999,0.165,0.635,0.7609999999999999,0.716,0.659,0.775,0.3
98,2.127916667,46.69979167,-3.75875,273.08,0.642,0.111,0,1,0,0,0,1,0,1,0,1,0,1,1.094695611,1.8223125,2.502916667,1.8175,1.051666308,63.44611111,43.63770833,70.90875,75.98895833,79.93230769,16.5575,13.75104167,12.49395833,12.66979167,12.20384615,296.78,289.38,283.14,287.5,297.92,0.161,0.11599999999999999,0.175,0.17300000000000001,0.163,0.514,0.65,0.635,0.7609999999999999,0.716,0.3
99,1.8397916669999999,34.74022917,19.26939583,313.32,0.348,0.152,0,1,0,0,1,0,1,0,1,1,0,1,2.2825,1.94,1.9572058819999998,1.951375,1.963777778,35.87739129999999,40.27757143,28.48735294,26.04475,68.26933333,20.47782609,23.58342857,21.42264706,22.895,12.90888889,308.3,308.82,307.62,312.88,301.22,0.152,0.131,0.149,0.147,0.15,0.48700000000000004,0.584,0.465,0.34299999999999997,0.447,0.3
100,2.134883721,15.35,27.08237209,312.04,0.465,0.152,0,1,0,0,1,0,1,1,0,1,0,1,2.298125,1.868829787,1.8397916669999999,2.2825,1.94,79.9925,71.15406383,34.74022917,35.87739129999999,40.27757143,11.67872917,22.55382979,19.26939583,20.47782609,23.58342857,289.84,305.58,313.32,308.3,308.82,0.196,0.115,0.152,0.152,0.131,0.6890000000000001,0.743,0.348,0.48700000000000004,0.584,2.0676119330000002
101,2.7051086960000004,44.98260870000001,10.70965217,292.24,0.456,0.156,0,1,0,0,1,1,0,1,0,1,0,1,3.5164888889999997,5.920111111000001,1.840851064,1.187588235,2.378333333,45.76488889,50.77944444,92.70212766,74.22882353,52.96666667,19.06464444,9.711777778,8.648085106,0.245294118,6.192291667,298.3,293.36,284.56,287.68,284.82,0.161,0.168,0.152,0.171,0.11,0.33799999999999997,0.345,0.546,0.428,0.71,3.751271963
102,1.688333333,77.995,4.338104167,290.96,0.635,0.16,0,1,0,1,0,0,1,0,0,0,0,1,1.857666667,1.8205625,2.682695652,4.532673913,1.0660416670000001,38.31729167,46.234375,86.95347826,60.79210870000001,81.96291667,12.84479167,9.538770833,23.51602174,8.365456522,-0.908645833,303.02,292.2,296.74,295.14,280.92,0.105,0.106,0.111,0.155,0.139,0.541,0.607,0.8290000000000001,0.249,0.385,2.084807396
103,2.670208333,73.31,5.344458333,289.32,0.34600000000000003,0.161,0,1,0,1,0,0,1,0,0,0,0,1,1.688333333,1.857666667,1.8205625,2.682695652,4.532673913,77.995,38.31729167,46.234375,86.95347826,60.79210870000001,4.338104167,12.84479167,9.538770833,23.51602174,8.365456522,290.96,303.02,292.2,296.74,295.14,0.16,0.105,0.106,0.111,0.155,0.635,0.541,0.607,0.8290000000000001,0.249,0.3
104,1.391875,65.411875,10.93602083,296.02,0.701,0.184,0,1,0,1,0,0,1,0,1,0,0,1,8.2641875,2.468208333,3.81287234,2.0176875,2.6074791669999997,51.92572917,81.0976875,41.77102128,78.39895833,68.58616667,17.65070833,27.07145833,15.85255319,13.77291667,22.05102083,302.42,297.08,304.58,293.12,301.06,0.153,0.10300000000000001,0.147,0.11599999999999999,0.114,0.36,0.8240000000000001,0.436,0.617,0.727,2.464826822
105,1.351666667,71.92020833,9.840395832999999,293.96,0.778,0.191,0,1,0,1,0,0,1,0,1,0,0,1,4.6876875,1.391875,8.2641875,2.468208333,3.81287234,48.18495833,65.411875,51.92572917,81.0976875,41.77102128,19.6675625,10.93602083,17.65070833,27.07145833,15.85255319,300.82,296.02,302.42,297.08,304.58,0.161,0.184,0.153,0.10300000000000001,0.147,0.638,0.701,0.36,0.8240000000000001,0.436,2.898472548
106,1.486666667,69.74458333,11.327625,297.9,0.6679999999999999,0.192,0,1,0,1,0,0,1,0,1,0,0,1,1.351666667,4.6876875,1.391875,8.2641875,2.468208333,71.92020833,48.18495833,65.411875,51.92572917,81.0976875,9.840395832999999,19.6675625,10.93602083,17.65070833,27.07145833,293.96,300.82,296.02,302.42,297.08,0.191,0.161,0.184,0.153,0.10300000000000001,0.778,0.638,0.701,0.36,0.8240000000000001,2.805195332
107,2.300833333,70.82625,15.22,295.1,0.732,0.195,0,1,0,1,0,0,1,0,1,0,0,1,3.6564666669999997,1.486666667,1.351666667,4.6876875,1.391875,55.53066667,69.74458333,71.92020833,48.18495833,65.411875,21.66933333,11.327625,9.840395832999999,19.6675625,10.93602083,307.3,297.9,293.96,300.82,296.02,0.099,0.192,0.191,0.161,0.184,0.628,0.6679999999999999,0.778,0.638,0.701,6.2877635960000005
108,0.472857143,84.31380952,13.27380952,302.82,0.7979999999999999,0.21100000000000002,0,1,0,1,0,0,1,1,0,0,0,1,2.300833333,3.6564666669999997,1.486666667,1.351666667,4.6876875,70.82625,55.53066667,69.74458333,71.92020833,48.18495833,15.22,21.66933333,11.327625,9.840395832999999,19.6675625,295.1,307.3,297.9,293.96,300.82,0.195,0.099,0.192,0.191,0.161,0.732,0.628,0.6679999999999999,0.778,0.638,3.521666765
109,3.885333333,69.18935714,12.1187619,287.3,0.09300000000000001,0.205,0,1,0,1,1,0,0,0,1,0,1,0,4.007466667,2.3738541669999997,1.546395833,4.610424242,4.320270833,78.9966,51.04604167,76.9559375,75.68812121,64.96945833,2.2184,2.304354167,21.56047917,7.873757576,0.437625,274.84,281.04,298.4,291.7,284.38,0.207,0.111,0.121,0.209,0.18600000000000003,0.228,0.6779999999999999,0.878,0.278,0.233,0.3
110,2.322292683,62.24341463,3.886243902,288.26,0.275,0.203,0,1,0,1,1,0,0,0,1,0,1,0,4.922125,2.0958125,3.885333333,4.007466667,2.3738541669999997,72.45970833,79.84891667,69.18935714,78.9966,51.04604167,4.3630833330000005,20.594875,12.1187619,2.2184,2.304354167,287.92,295.5,287.3,274.84,281.04,0.188,0.11199999999999999,0.205,0.207,0.111,0.24600000000000002,0.8390000000000001,0.09300000000000001,0.228,0.6779999999999999,1.102663159
111,4.794837838,44.83559459,13.15197297,287.98,0.228,0.203,0,1,0,1,1,0,0,0,1,0,1,0,2.322292683,4.922125,2.0958125,3.885333333,4.007466667,62.24341463,72.45970833,79.84891667,69.18935714,78.9966,3.886243902,4.3630833330000005,20.594875,12.1187619,2.2184,288.26,287.92,295.5,287.3,274.84,0.203,0.188,0.11199999999999999,0.205,0.207,0.275,0.24600000000000002,0.8390000000000001,0.09300000000000001,0.228,0.3
112,3.994214286,53.76821429,11.843,290.62,0.251,0.19899999999999998,0,1,0,1,1,0,0,0,1,0,1,0,2.0604166669999997,4.794837838,2.322292683,4.922125,2.0958125,71.87939583,44.83559459,62.24341463,72.45970833,79.84891667,18.31304167,13.15197297,3.886243902,4.3630833330000005,20.594875,296.28,287.98,288.26,287.92,295.5,0.115,0.203,0.203,0.188,0.11199999999999999,0.498,0.228,0.275,0.24600000000000002,0.8390000000000001,5.580559254
113,2.659468085,32.65821277,17.30168085,304.56,0.261,0.182,0,1,0,1,1,0,1,0,0,0,1,0,1.5444375,1.963625,2.491104167,2.441666667,2.7122916669999997,66.01458333,77.707,85.81429167,49.12583333,68.568125,7.167854167000001,24.45197917,25.24995833,9.072291667,5.298958333,285.68,298.02,296.64,291.08,283.9,0.11,0.12,0.11599999999999999,0.155,0.139,0.6459999999999999,0.75,0.49,0.35600000000000004,0.32899999999999996,0.3
114,6.406045455,60.02263636,30.17088636,309.06,0.759,0.182,0,1,0,1,1,0,1,1,0,0,1,0,2.6010000000000004,4.089375,1.8243333330000002,2.3811041669999997,4.917130435,69.50399999999999,51.780625,81.18414583,68.67241667,62.95054348,25.88840426,15.90645833,25.216125,24.91033333,16.77658696,295.9,296.92,295.02,299.78,306.94,0.08900000000000001,0.196,0.087,0.095,0.177,0.34,0.877,0.65,0.679,0.377,7.037987232000001
115,4.340909091,75.62921212,21.80954545,301.86,0.804,0.192,0,1,0,1,1,0,1,1,0,0,1,0,8.824083332999999,1.538020833,1.8464583330000002,6.406045455,2.6010000000000004,41.1368125,81.46575,67.22458333,60.02263636,69.50399999999999,28.54125,27.10372917,15.043125,30.17088636,25.88840426,318.02,298.12,293.58,309.06,295.9,0.207,0.10800000000000001,0.179,0.182,0.08900000000000001,0.28,0.605,0.5920000000000001,0.759,0.34,9.56253624
116,5.830311111,56.81684444,32.78308889,313.94,0.7040000000000001,0.191,0,1,0,1,1,0,1,1,1,0,1,0,4.340909091,8.824083332999999,1.538020833,1.8464583330000002,6.406045455,75.62921212,41.1368125,81.46575,67.22458333,60.02263636,21.80954545,28.54125,27.10372917,15.043125,30.17088636,301.86,318.02,298.12,293.58,309.06,0.192,0.207,0.10800000000000001,0.179,0.182,0.804,0.28,0.605,0.5920000000000001,0.759,0.3
117,2.8358181819999997,71.84466667,29.15084848,306.66,0.7490000000000001,0.19699999999999998,0,1,0,1,1,0,1,1,1,0,1,0,5.830311111,4.340909091,8.824083332999999,1.538020833,1.8464583330000002,56.81684444,75.62921212,41.1368125,81.46575,67.22458333,32.78308889,21.80954545,28.54125,27.10372917,15.043125,313.94,301.86,318.02,298.12,293.58,0.191,0.192,0.207,0.10800000000000001,0.179,0.7040000000000001,0.804,0.28,0.605,0.5920000000000001,6.079884052000001
118,4.991604167,80.45952083,29.95772917,302.76,0.7909999999999999,0.198,0,1,0,1,1,0,1,1,1,0,1,0,2.8358181819999997,5.830311111,4.340909091,8.824083332999999,1.538020833,71.84466667,56.81684444,75.62921212,41.1368125,81.46575,29.15084848,32.78308889,21.80954545,28.54125,27.10372917,306.66,313.94,301.86,318.02,298.12,0.19699999999999998,0.191,0.192,0.207,0.10800000000000001,0.7490000000000001,0.7040000000000001,0.804,0.28,0.605,0.3
119,4.2598936169999995,63.03621277,33.95429787,313.18,0.718,0.196,0,1,0,1,1,0,1,1,1,0,1,0,2.320625,1.4633125,4.991604167,2.8358181819999997,5.830311111,60.78064583,79.37060417,80.45952083,71.84466667,56.81684444,20.60960417,28.0130625,29.95772917,29.15084848,32.78308889,298.28,303.34,302.76,306.66,313.94,0.115,0.121,0.198,0.19699999999999998,0.191,0.797,0.8390000000000001,0.7909999999999999,0.7490000000000001,0.7040000000000001,0.3
120,3.797702703,57.64362162,34.04510811,314.42,0.6409999999999999,0.19399999999999998,0,1,0,1,1,0,1,1,1,0,1,0,4.486291667,4.2598936169999995,2.320625,1.4633125,4.991604167,40.868125,63.03621277,60.78064583,79.37060417,80.45952083,33.21122917,33.95429787,20.60960417,28.0130625,29.95772917,315.74,313.18,298.28,303.34,302.76,0.207,0.196,0.115,0.121,0.198,0.07200000000000001,0.718,0.797,0.8390000000000001,0.7909999999999999,8.442065239
121,2.513581395,71.62783721,30.11169767,303.56,0.753,0.18899999999999997,0,1,0,1,1,0,1,1,1,0,1,0,3.797702703,4.486291667,4.2598936169999995,2.320625,1.4633125,57.64362162,40.868125,63.03621277,60.78064583,79.37060417,34.04510811,33.21122917,33.95429787,20.60960417,28.0130625,314.42,315.74,313.18,298.28,303.34,0.19399999999999998,0.207,0.196,0.115,0.121,0.6409999999999999,0.07200000000000001,0.718,0.797,0.8390000000000001,0.3
122,3.9083541669999997,49.8745625,35.26758333,309.34,0.691,0.18100000000000002,0,1,0,1,1,1,0,0,0,0,1,0,1.447545455,2.7525,2.513581395,3.797702703,4.486291667,66.46045455,66.72418182,71.62783721,57.64362162,40.868125,25.12954545,30.42768182,30.11169767,34.04510811,33.21122917,304.22,301.04,303.56,314.42,315.74,0.113,0.11900000000000001,0.18899999999999997,0.19399999999999998,0.207,0.795,0.201,0.753,0.6409999999999999,0.07200000000000001,6.0373206139999995
123,4.572521739,48.90621739,35.064,316.72,0.65,0.182,0,1,0,1,1,1,0,0,0,0,1,0,3.9083541669999997,1.447545455,2.7525,2.513581395,3.797702703,49.8745625,66.46045455,66.72418182,71.62783721,57.64362162,35.26758333,25.12954545,30.42768182,30.11169767,34.04510811,309.34,304.22,301.04,303.56,314.42,0.18100000000000002,0.113,0.11900000000000001,0.18899999999999997,0.19399999999999998,0.691,0.795,0.201,0.753,0.6409999999999999,0.3
124,2.8815,39.93920833,32.37916667,309.92,0.7,0.188,0,1,0,1,1,1,0,0,0,0,1,0,3.569875,1.473822222,1.48875,1.7996666669999999,4.572521739,35.46422917,59.15955556,81.3115,80.33647917,48.90621739,33.93633333,19.28177778,28.1418125,26.49229167,35.064,322.04,298.02,303.46,301.62,316.72,0.193,0.12300000000000001,0.10800000000000001,0.115,0.182,0.381,0.779,0.8420000000000001,0.413,0.65,0.3
125,5.5421702129999995,42.62380851,33.01676596,309.18,0.607,0.187,0,1,0,1,1,0,0,1,0,0,1,0,2.8815,3.569875,1.473822222,1.48875,1.7996666669999999,39.93920833,35.46422917,59.15955556,81.3115,80.33647917,32.37916667,33.93633333,19.28177778,28.1418125,26.49229167,309.92,322.04,298.02,303.46,301.62,0.188,0.193,0.12300000000000001,0.10800000000000001,0.115,0.7,0.381,0.779,0.8420000000000001,0.413,2.6841106409999997
126,2.406088235,64.02638235,23.9635,302.4,0.5710000000000001,0.184,0,1,0,1,1,0,0,1,0,0,1,0,0.0855,5.5421702129999995,2.8815,3.569875,1.473822222,79.1937,42.62380851,39.93920833,35.46422917,59.15955556,23.34733333,33.01676596,32.37916667,33.93633333,19.28177778,297.3,309.18,309.92,322.04,298.02,0.114,0.187,0.188,0.193,0.12300000000000001,0.8440000000000001,0.607,0.7,0.381,0.779,15.0
127,1.814148936,68.05019149,24.36574468,305.04,0.621,0.182,0,1,0,1,1,0,0,1,0,0,1,0,2.406088235,0.0855,5.5421702129999995,2.8815,3.569875,64.02638235,79.1937,42.62380851,39.93920833,35.46422917,23.9635,23.34733333,33.01676596,32.37916667,33.93633333,302.4,297.3,309.18,309.92,322.04,0.184,0.114,0.187,0.188,0.193,0.5710000000000001,0.8440000000000001,0.607,0.7,0.381,0.3
128,3.065568182,62.44720455,-0.14113636400000001,276.28,0.214,0.203,0,1,0,1,1,1,0,1,1,0,1,0,2.0291666669999997,3.6251063830000003,2.823125,5.0507916669999995,1.796041667,84.908125,83.38042553,61.98791667,40.97666667,52.50229167,6.09625,6.342978723,5.669166667000001,20.43083333,16.5775,283.72,285.84,285.52,304.72,297.32,0.171,0.16899999999999998,0.158,0.21100000000000002,0.166,0.6729999999999999,0.6729999999999999,0.644,0.322,0.46,0.3
129,6.8426,46.531000000000006,10.12285,285.52,0.275,0.19899999999999998,0,1,0,1,1,1,0,1,1,0,1,0,1.977787234,3.065568182,2.0291666669999997,3.6251063830000003,2.823125,51.60234043,62.44720455,84.908125,83.38042553,61.98791667,-1.14112766,-0.14113636400000001,6.09625,6.342978723,5.669166667000001,272.2,276.28,283.72,285.84,285.52,0.099,0.203,0.171,0.16899999999999998,0.158,0.5660000000000001,0.214,0.6729999999999999,0.6729999999999999,0.644,0.3
130,2.458190476,58.35021429,3.894666667,279.4,0.259,0.19699999999999998,0,1,0,1,1,1,1,0,0,0,1,0,2.1399375,6.8426,1.977787234,3.065568182,2.0291666669999997,52.19583333,46.531000000000006,51.60234043,62.44720455,84.908125,9.625270833,10.12285,-1.14112766,-0.14113636400000001,6.09625,287.02,285.52,272.2,276.28,283.72,0.10800000000000001,0.19899999999999998,0.099,0.203,0.171,0.632,0.275,0.5660000000000001,0.214,0.6729999999999999,0.3
131,6.220022222000001,53.53126667,-4.108244443999999,274.86,0.255,0.192,0,1,0,1,1,0,0,1,1,0,1,0,4.797854167,2.929666667,2.559208333,2.458190476,2.1399375,54.7180625,61.66872917,55.90833333,58.35021429,52.19583333,9.778395833,5.174791667,-2.332291667,3.894666667,9.625270833,280.46,285.28,274.18,279.4,287.02,0.195,0.16699999999999998,0.10800000000000001,0.19699999999999998,0.10800000000000001,0.195,0.255,0.618,0.259,0.632,0.3
132,5.848266667000001,29.58597778,10.3084,291.52,0.215,0.198,0,1,0,1,1,0,0,1,1,0,1,0,3.3471666669999998,6.220022222000001,4.797854167,2.929666667,2.559208333,50.90266667,53.53126667,54.7180625,61.66872917,55.90833333,4.582354167,-4.108244443999999,9.778395833,5.174791667,-2.332291667,288.78,274.86,280.46,285.28,274.18,0.174,0.192,0.195,0.16699999999999998,0.10800000000000001,0.242,0.255,0.195,0.255,0.618,0.3
133,5.81473913,37.45536957,8.322847826,293.44,0.23399999999999999,0.2,0,1,0,1,1,0,0,0,1,0,1,0,5.848266667000001,3.3471666669999998,6.220022222000001,4.797854167,2.929666667,29.58597778,50.90266667,53.53126667,54.7180625,61.66872917,10.3084,4.582354167,-4.108244443999999,9.778395833,5.174791667,291.52,288.78,274.86,280.46,285.28,0.198,0.174,0.192,0.195,0.16699999999999998,0.215,0.242,0.255,0.195,0.255,1.41017127
134,5.416046512,54.63404651,19.87993023,301.5,0.223,0.195,0,1,0,1,1,0,0,0,1,0,1,0,5.81473913,5.848266667000001,3.3471666669999998,6.220022222000001,4.797854167,37.45536957,29.58597778,50.90266667,53.53126667,54.7180625,8.322847826,10.3084,4.582354167,-4.108244443999999,9.778395833,293.44,291.52,288.78,274.86,280.46,0.2,0.198,0.174,0.192,0.195,0.23399999999999999,0.215,0.242,0.255,0.195,0.3
135,9.947234043,54.29089362,27.39210638,309.02,0.653,0.17800000000000002,0,1,0,1,1,0,1,0,1,0,1,0,2.497083333,1.45025,1.280625,5.416046512,5.81473913,56.00083333,71.0,70.79833333,54.63404651,37.45536957,12.95916667,12.511875,8.626875,19.87993023,8.322847826,295.54,297.64,293.78,301.5,293.44,0.161,0.114,0.152,0.195,0.2,0.39,0.5760000000000001,0.5429999999999999,0.223,0.23399999999999999,3.929662228
136,5.9112,69.93902222,29.49077778,306.26,0.623,0.17800000000000002,0,1,0,1,1,0,1,1,0,0,1,0,3.7879166669999997,1.3,9.947234043,2.497083333,1.45025,79.6151875,53.21125,54.29089362,56.00083333,71.0,23.94152083,14.93666667,27.39210638,12.95916667,12.511875,306.28,300.48,309.02,295.54,297.64,0.209,0.183,0.17800000000000002,0.161,0.114,0.322,0.336,0.653,0.39,0.5760000000000001,0.3
137,3.4208636360000004,47.59534091,25.42381818,314.2,0.466,0.187,0,1,0,1,1,1,0,0,0,0,1,0,2.163541667,1.4989166669999998,1.722083333,5.256416667,6.262979167,66.10541667,79.9,62.44458333,67.0610625,42.42495833,14.14875,23.92791667,14.746875,17.62041667,32.2294375,294.64,300.28,290.36,298.94,322.52,0.182,0.11,0.182,0.172,0.215,0.89,0.215,0.706,0.696,0.23800000000000002,0.3
138,3.3437272730000003,59.75688636,10.64075,294.4,0.318,0.159,0,1,0,1,1,1,0,0,1,0,1,0,1.978104167,4.4566666669999995,1.069,2.801276596,3.177333333,67.05835417,63.40854167,70.08110811,64.37808511,60.91291667,11.2515,11.986875,18.47894595,11.65723404,18.89875,290.7,283.04,297.02,288.8,298.66,0.109,0.168,0.207,0.161,0.207,0.6779999999999999,0.281,0.579,0.44799999999999995,0.589,1.59155941
139,3.3075277780000003,63.33172222,4.3605,281.3,0.294,0.17600000000000002,0,1,0,1,1,1,0,1,1,0,1,0,1.379645833,1.8296041669999998,5.492354167,1.891363636,3.3437272730000003,71.53958333,62.98125,57.89620833,64.67272727,59.75688636,4.428791667,1.316229167,16.99027083,-0.490681818,10.64075,279.64,279.84,297.48,281.34,294.4,0.107,0.113,0.18600000000000003,0.111,0.159,0.579,0.669,0.304,0.557,0.318,0.3
140,1.963625,77.707,24.45197917,298.02,0.75,0.12,0,1,1,0,0,0,1,0,0,1,1,0,2.491104167,2.441666667,2.7122916669999997,2.052729167,3.994214286,85.81429167,49.12583333,68.568125,73.51804167,53.76821429,25.24995833,9.072291667,5.298958333,19.92429167,11.843,296.64,291.08,283.9,296.3,290.62,0.11599999999999999,0.155,0.139,0.11699999999999999,0.19899999999999998,0.49,0.35600000000000004,0.32899999999999996,0.8759999999999999,0.251,4.183904171
141,2.4231875,72.41797917,24.50404167,298.06,0.068,0.11199999999999999,0,1,1,0,0,0,1,0,0,1,1,0,3.406451613,2.659468085,1.5444375,1.963625,2.491104167,44.74548387,32.65821277,66.01458333,77.707,85.81429167,14.91548387,17.30168085,7.167854167000001,24.45197917,25.24995833,297.22,304.56,285.68,298.02,296.64,0.17800000000000002,0.182,0.11,0.12,0.11599999999999999,0.505,0.261,0.6459999999999999,0.75,0.49,6.132584095
142,1.644833333,75.441625,26.29347917,302.22,0.7290000000000001,0.106,0,1,1,0,0,0,1,0,1,1,1,0,2.9641666669999998,3.160208333,2.4231875,3.406451613,2.659468085,48.81166667,52.74729167,72.41797917,44.74548387,32.65821277,13.36395833,8.011458333,24.50404167,14.91548387,17.30168085,296.96,289.06,298.06,297.22,304.56,0.182,0.17800000000000002,0.11199999999999999,0.17800000000000002,0.182,0.726,0.76,0.068,0.505,0.261,6.595211506
143,2.3811041669999997,68.67241667,24.91033333,299.78,0.679,0.095,0,1,1,0,0,0,1,0,1,1,1,0,4.917130435,1.644833333,2.9641666669999998,3.160208333,2.4231875,62.95054348,75.441625,48.81166667,52.74729167,72.41797917,16.77658696,26.29347917,13.36395833,8.011458333,24.50404167,306.94,302.22,296.96,289.06,298.06,0.177,0.106,0.182,0.17800000000000002,0.11199999999999999,0.377,0.7290000000000001,0.726,0.76,0.068,0.3
144,1.8243333330000002,81.18414583,25.216125,295.02,0.65,0.087,0,1,1,0,0,0,1,0,1,1,1,0,2.3811041669999997,4.917130435,1.644833333,2.9641666669999998,3.160208333,68.67241667,62.95054348,75.441625,48.81166667,52.74729167,24.91033333,16.77658696,26.29347917,13.36395833,8.011458333,299.78,306.94,302.22,296.96,289.06,0.095,0.177,0.106,0.182,0.17800000000000002,0.679,0.377,0.7290000000000001,0.726,0.76,3.1966474060000003
145,2.6010000000000004,69.50399999999999,25.88840426,295.9,0.34,0.08900000000000001,0,1,1,0,0,0,1,1,0,1,1,0,4.089375,1.8243333330000002,2.3811041669999997,4.917130435,1.644833333,51.780625,81.18414583,68.67241667,62.95054348,75.441625,15.90645833,25.216125,24.91033333,16.77658696,26.29347917,296.92,295.02,299.78,306.94,302.22,0.196,0.087,0.095,0.177,0.106,0.877,0.65,0.679,0.377,0.7290000000000001,15.0
146,1.538020833,81.46575,27.10372917,298.12,0.605,0.10800000000000001,0,1,1,0,0,0,1,1,0,1,1,0,1.8464583330000002,6.406045455,2.6010000000000004,4.089375,1.8243333330000002,67.22458333,60.02263636,69.50399999999999,51.780625,81.18414583,15.043125,30.17088636,25.88840426,15.90645833,25.216125,293.58,309.06,295.9,296.92,295.02,0.179,0.182,0.08900000000000001,0.196,0.087,0.5920000000000001,0.759,0.34,0.877,0.65,0.3
147,1.4633125,79.37060417,28.0130625,303.34,0.8390000000000001,0.121,0,1,1,0,0,0,1,1,1,1,1,0,4.991604167,2.8358181819999997,5.830311111,4.340909091,8.824083332999999,80.45952083,71.84466667,56.81684444,75.62921212,41.1368125,29.95772917,29.15084848,32.78308889,21.80954545,28.54125,302.76,306.66,313.94,301.86,318.02,0.198,0.19699999999999998,0.191,0.192,0.207,0.7909999999999999,0.7490000000000001,0.7040000000000001,0.804,0.28,0.3
148,2.7525,66.72418182,30.42768182,301.04,0.201,0.11900000000000001,0,1,1,0,0,0,1,1,1,1,1,0,2.513581395,3.797702703,4.486291667,4.2598936169999995,2.320625,71.62783721,57.64362162,40.868125,63.03621277,60.78064583,30.11169767,34.04510811,33.21122917,33.95429787,20.60960417,303.56,314.42,315.74,313.18,298.28,0.18899999999999997,0.19399999999999998,0.207,0.196,0.115,0.753,0.6409999999999999,0.07200000000000001,0.718,0.797,5.434948444
149,1.48875,81.3115,28.1418125,303.46,0.8420000000000001,0.10800000000000001,0,1,1,0,0,1,0,0,0,1,1,0,1.7996666669999999,4.572521739,3.9083541669999997,1.447545455,2.7525,80.33647917,48.90621739,49.8745625,66.46045455,66.72418182,26.49229167,35.064,35.26758333,25.12954545,30.42768182,301.62,316.72,309.34,304.22,301.04,0.115,0.182,0.18100000000000002,0.113,0.11900000000000001,0.413,0.65,0.691,0.795,0.201,0.3
150,1.209574098,74.00895833,17.39354167,300.52,0.365,0.22,0,1,1,0,1,0,1,1,1,0,0,1,2.0960222219999998,1.047234583,6.577833332999999,4.533869565,5.4082708329999996,83.90844444,64.51361115,69.92280952,74.06676087,58.12916667,25.50866667,14.95326394,31.95521429,29.01632609,30.74083333,312.02,294.34,303.76,296.18,314.74,0.17600000000000002,0.163,0.193,0.19399999999999998,0.188,0.596,0.606,0.8059999999999999,0.738,0.42,1.712411523
151,3.983936709,68.11705882,14.68647059,288.82,0.6,0.16399999999999998,0,1,1,0,1,0,0,1,0,0,0,1,2.256043542,1.770355625,1.3712894740000001,6.099763157999999,4.798854167,59.16484567,72.29922758,56.32647368,76.49310526,42.98416667,15.81798608,13.95930554,22.455,29.33465789,28.1785625,296.16,294.84,304.28,302.96,312.36,0.17600000000000002,0.17600000000000002,0.177,0.184,0.18600000000000003,0.589,0.22,0.5660000000000001,0.695,0.507,0.731680274
152,2.260291867,79.10354167,13.50541667,291.6,0.535,0.146,0,1,1,0,1,1,0,0,1,0,0,1,3.0242083330000002,4.208544583,4.321165778,3.08146875,1.352210526,49.97270833,85.39543121,87.63087409,69.00675,57.38589474,22.93066667,11.21951381,10.59555547,13.9899375,19.49731579,313.94,290.8,287.72,295.22,299.14,0.18,0.165,0.165,0.183,0.183,0.257,0.245,0.441,0.517,0.539,0.3
153,1.8674554419999998,69.17125,12.3840625,291.08,0.522,0.152,0,1,1,0,1,1,0,0,1,0,0,1,2.260291867,3.0242083330000002,4.208544583,4.321165778,3.08146875,79.10354167,49.97270833,85.39543121,87.63087409,69.00675,13.50541667,22.93066667,11.21951381,10.59555547,13.9899375,291.6,313.94,290.8,287.72,295.22,0.146,0.18,0.165,0.165,0.183,0.535,0.257,0.245,0.441,0.517,0.48150852299999997
154,4.797854167,54.7180625,9.778395833,280.46,0.195,0.195,0,1,1,1,0,1,1,0,0,0,1,0,2.929666667,2.559208333,2.458190476,2.1399375,6.8426,61.66872917,55.90833333,58.35021429,52.19583333,46.531000000000006,5.174791667,-2.332291667,3.894666667,9.625270833,10.12285,285.28,274.18,279.4,287.02,285.52,0.16699999999999998,0.10800000000000001,0.19699999999999998,0.10800000000000001,0.19899999999999998,0.255,0.618,0.259,0.632,0.275,0.3
155,3.7879166669999997,79.6151875,23.94152083,306.28,0.322,0.209,0,1,1,1,0,0,1,1,0,0,1,0,1.3,9.947234043,2.497083333,1.45025,1.280625,53.21125,54.29089362,56.00083333,71.0,70.79833333,14.93666667,27.39210638,12.95916667,12.511875,8.626875,300.48,309.02,295.54,297.64,293.78,0.183,0.17800000000000002,0.161,0.114,0.152,0.336,0.653,0.39,0.5760000000000001,0.5429999999999999,3.836369276
156,6.262979167,42.42495833,32.2294375,322.52,0.23800000000000002,0.215,0,1,1,1,0,0,1,1,1,0,1,0,1.244375,1.7380208330000002,2.284953488,5.9112,3.7879166669999997,64.82458333,58.49583333,45.04906977,69.93902222,79.6151875,14.35104167,28.21545833,24.63976744,29.49077778,23.94152083,291.6,306.16,311.84,306.26,306.28,0.195,0.109,0.152,0.17800000000000002,0.209,0.784,0.8059999999999999,0.534,0.623,0.322,0.3
157,2.929666667,61.66872917,5.174791667,285.28,0.255,0.16699999999999998,0,1,1,1,1,1,1,0,0,0,1,0,2.559208333,2.458190476,2.1399375,6.8426,1.977787234,55.90833333,58.35021429,52.19583333,46.531000000000006,51.60234043,-2.332291667,3.894666667,9.625270833,10.12285,-1.14112766,274.18,279.4,287.02,285.52,272.2,0.10800000000000001,0.19699999999999998,0.10800000000000001,0.19899999999999998,0.099,0.618,0.259,0.632,0.275,0.5660000000000001,1.573053122
158,3.3471666669999998,50.90266667,4.582354167,288.78,0.242,0.174,0,1,1,1,1,0,0,1,1,0,1,0,6.220022222000001,4.797854167,2.929666667,2.559208333,2.458190476,53.53126667,54.7180625,61.66872917,55.90833333,58.35021429,-4.108244443999999,9.778395833,5.174791667,-2.332291667,3.894666667,274.86,280.46,285.28,274.18,279.4,0.192,0.195,0.16699999999999998,0.10800000000000001,0.19699999999999998,0.255,0.195,0.255,0.618,0.259,1.283011913
159,2.904291667,44.14310417,32.41527083,320.1,0.419,0.16899999999999998,0,1,1,1,1,0,0,1,0,0,1,0,2.030916667,1.075416667,1.394955556,3.4208636360000004,2.163541667,58.72395833,60.48145833,53.92177778,47.59534091,66.10541667,20.70145833,14.5925,23.785999999999998,25.42381818,14.14875,302.42,299.76,305.82,314.2,294.64,0.19899999999999998,0.179,0.191,0.187,0.182,0.7120000000000001,0.872,0.7190000000000001,0.466,0.89,2.341912508
160,5.492354167,57.89620833,16.99027083,297.48,0.304,0.18600000000000003,0,1,1,1,1,1,0,1,0,0,1,0,1.891363636,3.3437272730000003,1.978104167,4.4566666669999995,1.069,64.67272727,59.75688636,67.05835417,63.40854167,70.08110811,-0.490681818,10.64075,11.2515,11.986875,18.47894595,281.34,294.4,290.7,283.04,297.02,0.111,0.159,0.109,0.168,0.207,0.557,0.318,0.6779999999999999,0.281,0.579,1.291298628
161,7.797673913,44.96521739,13.39545652,290.82,0.665,0.154,1,0,0,0,0,0,1,0,0,0,0,1,5.161458333,3.387458333,3.528375,1.8465,4.385326087,55.96041667,35.97689583,41.9,61.48127083,37.77176087,-9.478333333,12.8750625,1.3250625,1.9675416669999999,-2.687826087,265.48,294.26,279.06,283.6,274.78,0.7340000000000001,0.159,0.102,0.10800000000000001,0.106,0.0,0.48,0.62,0.61,0.64,5.112141609
162,7.2184375,35.45895833,16.16416667,295.22,0.594,0.158,1,0,0,0,0,0,1,0,0,0,0,1,7.797673913,5.161458333,3.387458333,3.528375,1.8465,44.96521739,55.96041667,35.97689583,41.9,61.48127083,13.39545652,-9.478333333,12.8750625,1.3250625,1.9675416669999999,290.82,265.48,294.26,279.06,283.6,0.154,0.7340000000000001,0.159,0.102,0.10800000000000001,0.665,0.0,0.48,0.62,0.61,7.467412472
163,6.485958332999999,36.44875,12.828875,294.58,0.46799999999999997,0.162,1,0,0,0,0,0,1,0,0,0,0,1,7.2184375,7.797673913,5.161458333,3.387458333,3.528375,35.45895833,44.96521739,55.96041667,35.97689583,41.9,16.16416667,13.39545652,-9.478333333,12.8750625,1.3250625,295.22,290.82,265.48,294.26,279.06,0.158,0.154,0.7340000000000001,0.159,0.102,0.594,0.665,0.0,0.48,0.62,4.838779449
164,5.65258713,68.26391304,17.35369565,301.5,0.6679999999999999,0.17600000000000002,1,0,0,0,1,0,1,0,1,0,0,1,1.55875,1.5169163780000001,1.799206479,2.0172950000000003,2.7176,40.79208333,66.99810879,55.06708333,57.3545,60.8192,18.51625,17.23113014,22.7475,18.512,15.6692,314.76,290.56,313.96,300.98,303.4,0.10800000000000001,0.188,0.17600000000000002,0.16699999999999998,0.18,0.37200000000000005,0.7440000000000001,0.7909999999999999,0.632,0.503,2.115884542
165,3.336427208,49.298125,22.05375,308.96,0.688,0.17300000000000001,1,0,0,0,1,0,1,1,0,0,0,1,1.970714286,2.333076923,3.0089892860000003,2.94025,1.632285714,42.69357143,61.68807692,47.83714286,60.3635,55.35428571,23.78214286,16.455,29.67357143,19.644000000000002,15.53285714,293.84,292.82,308.36,297.06,300.96,0.17600000000000002,0.171,0.179,0.174,0.174,0.856,1.0,0.43200000000000005,0.667,0.75,3.7545398480000003
166,4.318845133,40.68377778,29.20688889,312.4,0.652,0.175,1,0,0,0,1,0,1,1,0,0,0,1,1.1721185790000002,3.336427208,1.970714286,2.333076923,3.0089892860000003,62.14923558,49.298125,42.69357143,61.68807692,47.83714286,19.31107211,22.05375,23.78214286,16.455,29.67357143,302.46,308.96,293.84,292.82,308.36,0.20600000000000002,0.17300000000000001,0.17600000000000002,0.171,0.179,0.7609999999999999,0.688,0.856,1.0,0.43200000000000005,3.3992829319999998
167,3.881102354,29.65395833,27.894375,312.8,0.495,0.195,1,0,0,0,1,0,1,1,1,0,0,1,2.3060869569999998,2.222764292,4.318845133,1.1721185790000002,3.336427208,70.69652174,61.6025,40.68377778,62.14923558,49.298125,15.73586957,19.85791667,29.20688889,19.31107211,22.05375,292.24,307.0,312.4,302.46,308.96,0.22699999999999998,0.154,0.175,0.20600000000000002,0.17300000000000001,0.69,0.585,0.652,0.7609999999999999,0.688,2.975772381
168,4.824245396,63.26395833,20.38583333,306.36,0.43700000000000006,0.205,1,0,0,0,1,0,1,1,1,0,0,1,2.573921313,3.881102354,2.3060869569999998,2.222764292,4.318845133,39.21229167,29.65395833,70.69652174,61.6025,40.68377778,27.74541667,27.894375,15.73586957,19.85791667,29.20688889,307.64,312.8,292.24,307.0,312.4,0.184,0.195,0.22699999999999998,0.154,0.175,0.841,0.495,0.69,0.585,0.652,2.057631731
169,3.910924125,43.4425,26.42145833,306.82,0.588,0.204,1,0,0,0,1,1,0,0,0,0,0,1,1.5808333330000002,2.549954021,4.824245396,2.573921313,3.881102354,33.429375,68.424375,63.26395833,39.21229167,29.65395833,21.59375,19.7175,20.38583333,27.74541667,27.894375,316.68,304.42,306.36,307.64,312.8,0.107,0.191,0.205,0.184,0.195,0.41,0.841,0.43700000000000006,0.841,0.495,3.13728261
170,4.8678233330000005,63.37604167,21.87,300.52,0.653,0.19899999999999998,1,0,0,0,1,1,0,0,0,0,0,1,2.35875,2.187747255,2.266458333,1.6448838540000001,3.910924125,40.79895833,74.79297872,68.62604167,53.37645833,43.4425,18.12770833,19.8093617,18.95979167,25.21395833,26.42145833,313.48,303.26,298.76,306.42,306.82,0.10400000000000001,0.20600000000000002,0.171,0.201,0.204,0.395,0.815,0.588,0.8170000000000001,0.588,2.59595108
171,1.214358022,54.147608700000006,27.60652174,307.28,0.5720000000000001,0.205,1,0,0,0,1,0,0,1,0,0,0,1,2.958333333,4.8678233330000005,2.35875,2.187747255,2.266458333,54.343125,63.37604167,40.79895833,74.79297872,68.62604167,18.08270833,21.87,18.12770833,19.8093617,18.95979167,299.16,300.52,313.48,303.26,298.76,0.115,0.19899999999999998,0.10400000000000001,0.20600000000000002,0.171,0.40299999999999997,0.653,0.395,0.815,0.588,2.493984938
172,1.7205209780000001,52.39891304,16.09708696,297.78,0.528,0.214,1,0,0,0,1,1,0,0,1,0,0,1,2.098125,4.626666667,2.483845,1.263659,1.214358022,65.58125,62.48979167,80.3995,60.37466667,54.147608700000006,3.115625,13.53458333,23.15075,25.03822222,27.60652174,286.48,292.6,300.78,307.54,307.28,0.114,0.151,0.18600000000000003,0.192,0.205,0.1,0.518,0.6559999999999999,0.659,0.5720000000000001,1.381647885
173,4.241308813,30.964375,16.083125,298.02,0.581,0.213,1,0,0,0,1,1,0,0,1,0,0,1,3.9514851039999996,2.272553191,1.912493851,1.7205209780000001,2.098125,33.12645833,69.20553191,50.06595745,52.39891304,65.58125,15.03291667,2.821914894,16.32308511,16.09708696,3.115625,299.2,277.8,303.96,297.78,286.48,0.201,0.114,0.203,0.214,0.114,0.254,0.42200000000000004,0.261,0.528,0.1,2.180629611
174,1.5544205530000001,64.66170213,17.97404255,301.38,0.519,0.215,1,0,0,0,1,1,0,0,1,0,0,1,1.066875,2.402592958,2.648958333,4.241308813,3.9514851039999996,83.651875,70.59833333,64.621875,30.964375,33.12645833,4.353333333,13.22297917,15.35375,16.083125,15.03291667,287.04,296.32,292.78,298.02,299.2,0.11,0.203,0.157,0.213,0.201,0.7090000000000001,0.251,0.7490000000000001,0.581,0.254,1.5340753790000001
175,2.4998412080000003,66.78041667,10.34152083,290.26,0.62,0.183,1,0,0,0,1,1,0,1,0,0,0,1,1.5544205530000001,1.066875,2.402592958,2.648958333,4.241308813,64.66170213,83.651875,70.59833333,64.621875,30.964375,17.97404255,4.353333333,13.22297917,15.35375,16.083125,301.38,287.04,296.32,292.78,298.02,0.215,0.11,0.203,0.157,0.213,0.519,0.7090000000000001,0.251,0.7490000000000001,0.581,1.825860143
176,2.0301957859999997,76.04357143,15.38964286,294.5,0.693,0.153,1,0,0,0,1,1,0,1,0,0,0,1,2.4998412080000003,1.5544205530000001,1.066875,2.402592958,2.648958333,66.78041667,64.66170213,83.651875,70.59833333,64.621875,10.34152083,17.97404255,4.353333333,13.22297917,15.35375,290.26,301.38,287.04,296.32,292.78,0.183,0.215,0.11,0.203,0.157,0.62,0.519,0.7090000000000001,0.251,0.7490000000000001,1.6303094630000001
177,1.2593305000000001,77.03770833,12.45491667,288.5,0.742,0.14300000000000002,1,0,0,0,1,0,0,1,1,0,0,1,2.98,3.56375,2.0301957859999997,2.4998412080000003,1.5544205530000001,67.13666667,85.96583333,76.04357143,66.78041667,64.66170213,1.5654166669999998,-2.992916667,15.38964286,10.34152083,17.97404255,277.7,271.62,294.5,290.26,301.38,0.10099999999999999,0.156,0.153,0.183,0.215,0.8759999999999999,0.706,0.693,0.62,0.519,3.1506204610000004
178,1.397328029,66.09885714,16.55457143,290.12,0.7340000000000001,0.158,1,0,0,0,1,0,0,1,1,0,0,1,2.201875,1.293336021,1.2593305000000001,2.98,3.56375,80.21041667,73.55297872,77.03770833,67.13666667,85.96583333,-6.366041667,12.34025532,12.45491667,1.5654166669999998,-2.992916667,266.98,287.12,288.5,277.7,271.62,0.377,0.046,0.14300000000000002,0.10099999999999999,0.156,0.209,0.215,0.742,0.8759999999999999,0.706,1.76043117
179,1.071924114,68.10659091,11.19938636,294.54,0.789,0.16899999999999998,1,0,0,0,1,0,0,1,1,0,0,1,0.886201978,1.4120833330000002,1.800208333,1.397328029,2.201875,64.09755556,75.465625,78.634375,66.09885714,80.21041667,10.89948889,-3.8025,-2.36375,16.55457143,-6.366041667,294.16,274.6,274.62,290.12,266.98,0.076,0.157,0.156,0.158,0.377,0.34,0.35200000000000004,0.43200000000000005,0.7340000000000001,0.209,2.4349143509999998
180,3.0373300210000003,59.919375,9.306333333,291.52,0.599,0.17300000000000001,1,0,0,0,1,0,0,1,1,0,0,1,3.681458333,1.391332056,1.071924114,0.886201978,1.4120833330000002,76.974375,82.70700652,68.10659091,64.09755556,75.465625,-5.086666667,1.63507189,11.19938636,10.89948889,-3.8025,271.52,277.62,294.54,294.16,274.6,0.18,0.155,0.16899999999999998,0.076,0.157,0.45299999999999996,0.585,0.789,0.34,0.35200000000000004,1.868765831
181,2.179445438,72.406875,7.509583332999999,288.86,0.73,0.17,1,0,0,0,1,0,0,0,1,0,0,1,3.9425,4.091875,2.918825043,3.0373300210000003,3.681458333,68.31,65.74541667,61.26,59.919375,76.974375,-8.718333333,-10.39895833,8.090510638,9.306333333,-5.086666667,272.88,266.82,292.54,291.52,271.52,0.17600000000000002,0.183,0.08900000000000001,0.17300000000000001,0.18,0.187,0.40299999999999997,0.36,0.599,0.45299999999999996,2.2265372269999997
182,1.6165981459999998,66.47791667,16.968125,292.42,0.682,0.18,1,0,0,0,1,0,0,0,1,0,0,1,1.767472563,2.15345679,2.179445438,3.9425,4.091875,62.39958333,60.05591667,72.406875,68.31,65.74541667,17.12395833,6.0625,7.509583332999999,-8.718333333,-10.39895833,298.82,271.72,288.86,272.88,266.82,0.11800000000000001,0.184,0.17,0.17600000000000002,0.183,0.39,0.34,0.73,0.187,0.40299999999999997,4.318966866
183,2.002895429,55.32904762,17.06880952,299.4,0.6559999999999999,0.171,1,0,0,0,1,0,1,0,0,0,0,1,2.2975227609999997,2.71856131,4.25375,2.450313227,1.6165981459999998,57.01857389999999,65.66610398,54.55145833,72.16274764,66.47791667,14.10550217,8.354038098,11.97104167,8.387462841,16.968125,288.9,289.0,288.7,280.38,292.42,0.16399999999999998,0.16399999999999998,0.142,0.149,0.18,0.57,0.725,0.299,0.494,0.682,3.375349879
184,1.622351375,67.91541667,18.43166667,298.92,0.586,0.179,1,0,0,0,1,0,1,0,0,0,0,1,4.329168911,1.6922526219999998,2.002895429,2.2975227609999997,2.71856131,63.67577778,57.40555556,55.32904762,57.01857389999999,65.66610398,12.90844444,15.917,17.06880952,14.10550217,8.354038098,297.14,301.92,299.4,288.9,289.0,0.128,0.128,0.171,0.16399999999999998,0.16399999999999998,0.402,0.524,0.6559999999999999,0.57,0.725,3.8508454569999997
185,4.116208333,70.27416667,13.99708333,292.08,0.547,0.177,1,0,0,0,1,0,1,0,0,0,0,1,3.8202055610000003,1.828789028,1.622351375,4.329168911,1.6922526219999998,74.783875,66.6812541,67.91541667,63.67577778,57.40555556,4.5925,15.56989722,18.43166667,12.90844444,15.917,286.96,291.26,298.92,297.14,301.92,0.105,0.201,0.179,0.128,0.128,0.632,0.797,0.586,0.402,0.524,4.052640438
186,2.9277544439999996,83.34903611,15.33675,290.62,0.505,0.185,1,0,0,1,0,0,1,1,0,0,0,1,4.012942853999999,3.82375,2.045244643,2.40612963,3.143541667,43.04375,61.33041667,74.26340179,70.68444444,50.34645833,21.58875,8.810625,17.45564107,24.40259259,16.9375,301.8,303.02,296.58,302.6,293.54,0.18600000000000003,0.121,0.19899999999999998,0.17300000000000001,0.10800000000000001,0.5710000000000001,0.414,0.6679999999999999,0.433,0.42700000000000005,1.251032114
187,1.9819105,71.98585333,19.93917167,299.3,0.547,0.184,1,0,0,1,0,0,1,1,0,0,0,1,2.317783681,3.98485,4.185616667,2.9277544439999996,4.012942853999999,45.01680851,70.90891304,65.51833333,83.34903611,43.04375,22.35659574,28.23847826,29.2,15.33675,21.58875,310.9,308.0,312.36,290.62,301.8,0.187,0.19699999999999998,0.16399999999999998,0.185,0.18600000000000003,0.597,0.38,0.535,0.505,0.5710000000000001,1.955751061
188,1.249884125,53.13807917,19.759325,297.34,0.251,0.16699999999999998,1,0,0,1,0,0,0,1,0,0,0,1,2.097916667,1.6022916669999998,1.578125,1.542427541,1.652460211,39.89854167,59.08166667,61.08083333,61.83066622,65.72223786,11.41854167,21.89020833,21.51625,22.49008243,20.28530789,303.56,302.74,301.8,303.24,301.84,0.115,0.184,0.184,0.17600000000000002,0.174,0.386,0.514,0.34299999999999997,0.48700000000000004,0.369,0.3
189,4.155677045,75.69182273,14.62243182,289.94,0.42200000000000004,0.175,1,0,0,1,0,1,0,0,1,0,0,1,2.6808571430000003,2.095626316,1.5997916669999999,3.394993378,1.249884125,56.84971429,49.56736842,85.96145833,45.35837838,53.13807917,16.47485714,22.91210526,12.43958333,19.88486486,19.759325,293.58,301.86,290.78,301.76,297.34,0.11199999999999999,0.16,0.182,0.205,0.16699999999999998,0.161,0.47600000000000003,0.499,0.695,0.251,0.3
190,0.9887809999999999,77.4988,3.22715,274.76,0.5660000000000001,0.132,1,0,0,1,0,1,0,1,1,0,0,1,1.98625,1.810416667,3.078272,2.988842308,8.581602083,82.29375,78.52854167,65.1292,63.71615385,56.00895833,7.81875,-2.292916667,16.6672,15.98653846,27.17833333,279.8,275.42,294.04,295.04,299.42,0.162,0.163,0.19,0.174,0.19,0.5589999999999999,0.8170000000000001,0.527,0.318,0.396,0.3
191,5.5649125,78.42083333,21.16875,296.94,0.82,0.17,1,0,0,1,1,0,1,0,0,0,1,0,3.182926471,2.3145625,3.06,3.3315384619999997,1.8044695640000001,64.68705882,63.0671875,60.55619048,75.11923077,57.72921119,11.30923529,12.902125,3.643809524,15.63128205,10.11388846,296.54,296.16,287.44,294.48,290.82,0.183,0.177,0.102,0.171,0.183,0.522,0.7929999999999999,0.409,0.764,0.536,2.7866828439999995
192,2.207893103,50.65034483,19.28655172,299.6,0.787,0.166,1,0,0,1,1,0,1,0,1,0,1,0,2.5088303030000003,4.508302896,5.687619565,5.5649125,3.182926471,58.77878788,69.72229167,76.29673913,78.42083333,64.68705882,15.59693939,15.79854167,20.87934783,21.16875,11.30923529,300.62,298.12,300.64,296.94,296.54,0.155,0.16399999999999998,0.16699999999999998,0.17,0.183,0.415,0.759,0.514,0.82,0.522,1.415090442
193,3.556555172,59.2637931,21.57793103,300.14,0.73,0.16,1,0,0,1,1,0,1,0,1,0,1,0,2.7408510639999997,2.207893103,2.5088303030000003,4.508302896,5.687619565,59.84510638,50.65034483,58.77878788,69.72229167,76.29673913,6.75787234,19.28655172,15.59693939,15.79854167,20.87934783,281.16,299.6,300.62,298.12,300.64,0.19,0.166,0.155,0.16399999999999998,0.16699999999999998,0.304,0.787,0.415,0.759,0.514,2.4131479259999997
194,2.0172950000000003,57.3545,18.512,300.98,0.632,0.16699999999999998,1,0,0,1,1,0,1,0,1,0,1,0,2.7176,2.45,1.506057405,3.647538708,3.556555172,60.8192,65.52035714,71.51222113,59.125,59.2637931,15.6692,15.135,15.77057149,13.465375,21.57793103,303.4,293.08,298.8,301.64,300.14,0.18,0.18,0.18,0.171,0.16,0.503,0.61,0.634,0.721,0.73,4.462000847
195,3.0089892860000003,47.83714286,29.67357143,308.36,0.43200000000000005,0.179,1,0,0,1,1,0,1,1,0,0,1,0,2.94025,1.632285714,5.65258713,1.55875,1.5169163780000001,60.3635,55.35428571,68.26391304,40.79208333,66.99810879,19.644000000000002,15.53285714,17.35369565,18.51625,17.23113014,297.06,300.96,301.5,314.76,290.56,0.174,0.174,0.17600000000000002,0.10800000000000001,0.188,0.667,0.75,0.6679999999999999,0.37200000000000005,0.7440000000000001,8.636237621
196,1.5808333330000002,33.429375,21.59375,316.68,0.41,0.107,1,0,1,0,0,0,1,1,1,1,0,0,2.549954021,4.824245396,2.573921313,3.881102354,2.3060869569999998,68.424375,63.26395833,39.21229167,29.65395833,70.69652174,19.7175,20.38583333,27.74541667,27.894375,15.73586957,304.42,306.36,307.64,312.8,292.24,0.191,0.205,0.184,0.195,0.22699999999999998,0.841,0.43700000000000006,0.841,0.495,0.69,15.0
197,2.35875,40.79895833,18.12770833,313.48,0.395,0.10400000000000001,1,0,1,0,0,1,0,0,0,1,0,0,2.187747255,2.266458333,1.6448838540000001,3.910924125,1.5808333330000002,74.79297872,68.62604167,53.37645833,43.4425,33.429375,19.8093617,18.95979167,25.21395833,26.42145833,21.59375,303.26,298.76,306.42,306.82,316.68,0.20600000000000002,0.171,0.201,0.204,0.107,0.815,0.588,0.8170000000000001,0.588,0.41,0.448418438
198,2.958333333,54.343125,18.08270833,299.16,0.40299999999999997,0.115,1,0,1,0,0,1,0,0,0,1,0,0,4.8678233330000005,2.35875,2.187747255,2.266458333,1.6448838540000001,63.37604167,40.79895833,74.79297872,68.62604167,53.37645833,21.87,18.12770833,19.8093617,18.95979167,25.21395833,300.52,313.48,303.26,298.76,306.42,0.19899999999999998,0.10400000000000001,0.20600000000000002,0.171,0.201,0.653,0.395,0.815,0.588,0.8170000000000001,1.168809295
199,2.098125,65.58125,3.115625,286.48,0.1,0.114,1,0,1,0,0,1,0,0,1,1,0,0,4.626666667,2.483845,1.263659,1.214358022,2.958333333,62.48979167,80.3995,60.37466667,54.147608700000006,54.343125,13.53458333,23.15075,25.03822222,27.60652174,18.08270833,292.6,300.78,307.54,307.28,299.16,0.151,0.18600000000000003,0.192,0.205,0.115,0.518,0.6559999999999999,0.659,0.5720000000000001,0.40299999999999997,5.485470772
200,2.272553191,69.20553191,2.821914894,277.8,0.42200000000000004,0.114,1,0,1,0,0,1,0,0,1,1,0,0,1.912493851,1.7205209780000001,2.098125,4.626666667,2.483845,50.06595745,52.39891304,65.58125,62.48979167,80.3995,16.32308511,16.09708696,3.115625,13.53458333,23.15075,303.96,297.78,286.48,292.6,300.78,0.203,0.214,0.114,0.151,0.18600000000000003,0.261,0.528,0.1,0.518,0.6559999999999999,0.3
201,1.066875,83.651875,4.353333333,287.04,0.7090000000000001,0.11,1,0,1,0,0,1,0,0,1,1,0,0,2.402592958,2.648958333,4.241308813,3.9514851039999996,2.272553191,70.59833333,64.621875,30.964375,33.12645833,69.20553191,13.22297917,15.35375,16.083125,15.03291667,2.821914894,296.32,292.78,298.02,299.2,277.8,0.203,0.157,0.213,0.201,0.114,0.251,0.7490000000000001,0.581,0.254,0.42200000000000004,2.133443356
202,2.98,67.13666667,1.5654166669999998,277.7,0.8759999999999999,0.10099999999999999,1,0,1,0,0,1,0,1,1,1,0,0,3.56375,2.0301957859999997,2.4998412080000003,1.5544205530000001,1.066875,85.96583333,76.04357143,66.78041667,64.66170213,83.651875,-2.992916667,15.38964286,10.34152083,17.97404255,4.353333333,271.62,294.5,290.26,301.38,287.04,0.156,0.153,0.183,0.215,0.11,0.706,0.693,0.62,0.519,0.7090000000000001,0.396934777
203,2.172657455,39.11458333,20.42516667,302.04,0.639,0.106,1,0,1,0,0,0,1,1,1,1,0,0,2.1827083330000003,3.7423654789999996,0.832451945,2.858333333,2.142083333,51.16145833,69.66395833,42.90265262,55.46875,57.52520833,15.28833333,17.348125,23.06206,14.63520833,19.956875,297.7,307.08,306.84,296.84,301.06,0.168,0.14300000000000002,0.20600000000000002,0.174,0.171,0.67,0.56,0.505,0.773,0.701,0.589158773
204,1.972066087,72.34346041,12.17849283,293.28,0.835,0.203,1,0,1,0,1,0,1,0,1,0,0,1,0.920673155,4.527224917,2.082493002,4.116208333,3.8202055610000003,57.50012498,57.16125,51.98260417,70.27416667,74.783875,20.73499079,18.39291667,14.91875,13.99708333,4.5925,303.12,307.9,292.62,292.08,286.96,0.20800000000000002,0.14300000000000002,0.099,0.177,0.105,0.722,0.282,0.775,0.547,0.632,0.3
205,1.542692572,77.24478999,15.70781744,298.62,0.6890000000000001,0.20600000000000002,1,0,1,0,1,0,1,1,0,0,0,1,4.4114119380000005,2.524050184,5.183065167,2.700292521,2.920833333,64.74479167,49.74964583,61.68541667,60.91520833,67.63083333,19.36375,15.65375,19.404375,17.37041667,17.12041667,313.08,300.3,315.42,304.26,300.92,0.133,0.10400000000000001,0.122,0.12300000000000001,0.183,0.461,0.764,0.31,0.46299999999999997,0.44,0.3
206,0.832451945,42.90265262,23.06206,306.84,0.505,0.20600000000000002,1,0,1,0,1,0,1,1,1,0,0,1,2.858333333,2.142083333,1.542692572,4.4114119380000005,2.524050184,55.46875,57.52520833,77.24478999,64.74479167,49.74964583,14.63520833,19.956875,15.70781744,19.36375,15.65375,296.84,301.06,298.62,313.08,300.3,0.174,0.171,0.20600000000000002,0.133,0.10400000000000001,0.773,0.701,0.6890000000000001,0.461,0.764,3.750447243
207,1.474335933,67.85279275,10.82624217,288.84,0.361,0.14300000000000002,1,0,1,0,1,0,0,1,0,0,0,1,1.603285396,3.2164867289999997,3.773145167,1.4860416669999998,1.254583333,61.44083333,72.42583333,76.56958333,41.09104167,53.70958333,17.42354167,16.91583333,16.11145833,23.424375,19.753125,301.66,300.56,300.5,306.14,307.64,0.19,0.19,0.19399999999999998,0.185,0.188,0.662,0.784,0.7759999999999999,0.48100000000000004,0.6890000000000001,0.46115770899999997
208,0.918350571,61.22016795,12.79459554,293.0,0.551,0.14300000000000002,1,0,1,0,1,0,0,1,0,0,0,1,1.474335933,1.603285396,3.2164867289999997,3.773145167,1.4860416669999998,67.85279275,61.44083333,72.42583333,76.56958333,41.09104167,10.82624217,17.42354167,16.91583333,16.11145833,23.424375,288.84,301.66,300.56,300.5,306.14,0.14300000000000002,0.19,0.19,0.19399999999999998,0.185,0.361,0.662,0.784,0.7759999999999999,0.48100000000000004,0.3
209,1.0552000590000001,52.98899803,19.59715294,299.02,0.382,0.18899999999999997,1,0,1,0,1,1,0,0,1,0,0,1,3.370876511,5.939166667,7.006308375,6.450833332999999,0.918350571,22.37280851,50.37041667,28.279375,68.78979167,61.22016795,16.49893617,16.63541667,20.399375,8.809583332999999,12.79459554,304.92,295.5,297.1,286.9,293.0,0.158,0.172,0.161,0.17,0.14300000000000002,0.24100000000000002,0.395,0.36200000000000004,0.215,0.551,0.3
210,1.371306722,78.88946287,10.63142403,285.18,0.45899999999999996,0.16699999999999998,1,0,1,0,1,1,0,1,0,0,0,1,1.551921133,1.9333296180000001,1.0552000590000001,3.370876511,5.939166667,43.73444444,61.64970588,52.98899803,22.37280851,50.37041667,15.11551111,17.06588235,19.59715294,16.49893617,16.63541667,295.58,301.82,299.02,304.92,295.5,0.13,0.153,0.18899999999999997,0.158,0.172,0.267,0.24600000000000002,0.382,0.24100000000000002,0.395,0.3
211,3.182926471,64.68705882,11.30923529,296.54,0.522,0.183,1,0,1,1,0,0,1,0,0,0,0,1,2.3145625,3.06,3.3315384619999997,1.8044695640000001,1.847163385,63.0671875,60.55619048,75.11923077,57.72921119,62.57118921,12.902125,3.643809524,15.63128205,10.11388846,9.615228462000001,296.16,287.44,294.48,290.82,283.34,0.177,0.102,0.171,0.183,0.184,0.7929999999999999,0.409,0.764,0.536,0.609,0.894972801
212,5.687619565,76.29673913,20.87934783,300.64,0.514,0.16699999999999998,1,0,1,1,0,0,1,0,0,0,0,1,5.5649125,3.182926471,2.3145625,3.06,3.3315384619999997,78.42083333,64.68705882,63.0671875,60.55619048,75.11923077,21.16875,11.30923529,12.902125,3.643809524,15.63128205,296.94,296.54,296.16,287.44,294.48,0.17,0.183,0.177,0.102,0.171,0.82,0.522,0.7929999999999999,0.409,0.764,3.787490845
213,2.5088303030000003,58.77878788,15.59693939,300.62,0.415,0.155,1,0,1,1,0,0,1,0,1,0,0,1,4.508302896,5.687619565,5.5649125,3.182926471,2.3145625,69.72229167,76.29673913,78.42083333,64.68705882,63.0671875,15.79854167,20.87934783,21.16875,11.30923529,12.902125,298.12,300.64,296.94,296.54,296.16,0.16399999999999998,0.16699999999999998,0.17,0.183,0.177,0.759,0.514,0.82,0.522,0.7929999999999999,2.318529606
214,2.483845,80.3995,23.15075,300.78,0.6559999999999999,0.18600000000000003,1,0,1,1,0,0,0,1,0,0,0,1,1.263659,1.214358022,2.958333333,4.8678233330000005,2.35875,60.37466667,54.147608700000006,54.343125,63.37604167,40.79895833,25.03822222,27.60652174,18.08270833,21.87,18.12770833,307.54,307.28,299.16,300.52,313.48,0.192,0.205,0.115,0.19899999999999998,0.10400000000000001,0.659,0.5720000000000001,0.40299999999999997,0.653,0.395,4.164859772
215,1.603285396,61.44083333,17.42354167,301.66,0.662,0.19,1,0,1,1,1,0,0,1,0,0,0,1,3.2164867289999997,3.773145167,1.4860416669999998,1.254583333,1.214477872,72.42583333,76.56958333,41.09104167,53.70958333,50.42553191,16.91583333,16.11145833,23.424375,19.753125,22.48893617,300.56,300.5,306.14,307.64,305.3,0.19,0.19399999999999998,0.185,0.188,0.195,0.784,0.7759999999999999,0.48100000000000004,0.6890000000000001,0.8220000000000001,2.439720392
216,7.006308375,28.279375,20.399375,297.1,0.36200000000000004,0.161,1,0,1,1,1,1,0,0,1,0,0,1,6.450833332999999,0.918350571,1.474335933,1.603285396,3.2164867289999997,68.78979167,61.22016795,67.85279275,61.44083333,72.42583333,8.809583332999999,12.79459554,10.82624217,17.42354167,16.91583333,286.9,293.0,288.84,301.66,300.56,0.17,0.14300000000000002,0.14300000000000002,0.19,0.19,0.215,0.551,0.361,0.662,0.784,5.233751774
217,3.370876511,22.37280851,16.49893617,304.92,0.24100000000000002,0.158,1,0,1,1,1,1,0,0,1,0,0,1,5.939166667,7.006308375,6.450833332999999,0.918350571,1.474335933,50.37041667,28.279375,68.78979167,61.22016795,67.85279275,16.63541667,20.399375,8.809583332999999,12.79459554,10.82624217,295.5,297.1,286.9,293.0,288.84,0.172,0.161,0.17,0.14300000000000002,0.14300000000000002,0.395,0.36200000000000004,0.215,0.551,0.361,0.31381723300000003
218,1.9333296180000001,61.64970588,17.06588235,301.82,0.24600000000000002,0.153,1,0,1,1,1,1,0,0,1,0,0,1,1.0552000590000001,3.370876511,5.939166667,7.006308375,6.450833332999999,52.98899803,22.37280851,50.37041667,28.279375,68.78979167,19.59715294,16.49893617,16.63541667,20.399375,8.809583332999999,299.02,304.92,295.5,297.1,286.9,0.18899999999999997,0.158,0.172,0.161,0.17,0.382,0.24100000000000002,0.395,0.36200000000000004,0.215,0.5502387879999999
219,1.551921133,43.73444444,15.11551111,295.58,0.267,0.13,1,0,1,1,1,1,0,0,1,0,0,1,1.9333296180000001,1.0552000590000001,3.370876511,5.939166667,7.006308375,61.64970588,52.98899803,22.37280851,50.37041667,28.279375,17.06588235,19.59715294,16.49893617,16.63541667,20.399375,301.82,299.02,304.92,295.5,297.1,0.153,0.18899999999999997,0.158,0.172,0.161,0.24600000000000002,0.382,0.24100000000000002,0.395,0.36200000000000004,2.535238504
220,1.153527405,43.8052381,9.314928571,294.88,0.222,0.11599999999999999,1,0,1,1,1,1,0,1,0,0,0,1,1.371306722,1.551921133,1.9333296180000001,1.0552000590000001,3.370876511,78.88946287,43.73444444,61.64970588,52.98899803,22.37280851,10.63142403,15.11551111,17.06588235,19.59715294,16.49893617,285.18,295.58,301.82,299.02,304.92,0.16699999999999998,0.13,0.153,0.18899999999999997,0.158,0.45899999999999996,0.267,0.24600000000000002,0.382,0.24100000000000002,1.8633465180000002
221,1.90151169,75.38928571,13.09190476,290.42,0.221,0.06,1,0,1,1,1,1,0,1,0,0,0,1,4.506875,1.153527405,1.371306722,1.551921133,1.9333296180000001,67.91020833,43.8052381,78.88946287,43.73444444,61.64970588,10.99520833,9.314928571,10.63142403,15.11551111,17.06588235,281.1,294.88,285.18,295.58,301.82,0.153,0.11599999999999999,0.16699999999999998,0.13,0.153,0.436,0.222,0.45899999999999996,0.267,0.24600000000000002,0.3
222,1.8659766219999998,79.54155556,7.921533332999999,286.32,0.263,0.051,1,0,1,1,1,1,0,1,1,0,0,1,8.11125,1.90151169,4.506875,1.153527405,1.371306722,51.23354167,75.38928571,67.91020833,43.8052381,78.88946287,-1.073541667,13.09190476,10.99520833,9.314928571,10.63142403,268.34,290.42,281.1,294.88,285.18,0.13,0.06,0.153,0.11599999999999999,0.16699999999999998,0.26899999999999996,0.221,0.436,0.222,0.45899999999999996,1.048386216
