Error Metrics,Validation Scores standard deviation,Validation Scores,Testing Scores
mean target,5.199416872377552,5.199416872377552,5.199416872377552
F1,2.9998953347481474e-06,1.0999965111582717e-05,1e-05
F2,1.1998953402252677e-05,1.3999651134084226e-05,1e-05
F05,7.499836458404338e-07,1.0249994548613479e-05,1e-05
Precision,0.0,1e-05,1e-05
Recall,0.17197084695999698,0.05733361565333232,1e-05
R2,0.015700259997131018,-0.017878476088418815,-0.029651787521900452
Adjusted R2,0.027029819124103238,1.489334812986702,7.692736618892353
RMSE,0.31163483592186675,2.1034018964957877,2.135499741464766
MSE,1.3614591926036201,4.521415809142128,4.560359145796081
MAE,0.27746127783252295,1.7892831875808917,1.7698999770108188
MAPE,12.34637430234471,43.393573612337136,45.83624997831618
Accuracy,12.34637430234471,56.606426387662864,54.16375002168382
Pearson C.C.,,,
Spearman C.C.,,,
Spatial Distance,,,
NMI,0.0,0.0,1.5190962614425414e-17
AIC,4.69742555338127,22.88155925755225,60.69605521871543
BIC,4.69742555338127,22.88155925755225,60.69605521871543
Data Size train,-,-,156.0
Data Size test,-,-,40.0
Training Time (seconds),-,-,0.013295650482177734
Testing Time (seconds),-,-,0.0018391609191894531
