Error Metrics,Testing
Average,3.7471547625276496
Average Testing,3.573871584393934
R2,0.56
Adjusted R2,0.55
RMSE,1.26
MSE,1.6
MAE,0.93
MAPE,31.87
Accuracy,68.13
Pearson C.C.,0.7499482935506939
Spearman C.C.,0.77
Spatial Distance,0.2500517064493062
NMI,1.0
Data Size,10911
AIC,1
BIC,1
Relative Error,43.85
Uncertainty,None
