For param {'n_trees': 100, 'max_depth': 7, 'learning_rate': 0.1}
 *************************FOLDS Average***************************** 

Utility Based Metrics Across All
F1:  0.31415423195985387
F2:  0.3268079200808809
F05: 0.3027665571755124
precision:  0.29577552401353013
recall: 0.3360742404943272

Regression Error Metrics Across All
R2: -0.08127936333098873
Adj-R2: -1.1277042604878753
RMSE: 2.2249629230787065
MSE: 5.053434083964244
MAE: 1.702354021056673
MAPE: 241.20919641358813
Accuracy: -141.20919641358813
AIC: 158.628510540029
BIC: 158.628510540029
NMI: 0.821727856467826

Correlations Across All
Pearson: 0.2440202836963504
Spearman: 0.19126508305220757
Distance: 0.7559797163036496
************************REPETITIONS Average*******************************

Utility Based Metrics Across All
F1:  0.31415423195985387
F2:  0.3268079200808809
F05: 0.3027665571755124
precision:  0.29577552401353013
recall: 0.3360742404943272

Regression Error Metrics Across All
R2: -0.08127936333098873
Adj-R2: -1.1277042604878753
RMSE: 2.2249629230787065
MSE: 5.053434083964244
MAE: 1.702354021056673
MAPE: 241.20919641358813
Accuracy: -141.20919641358813
AIC: 158.628510540029
BIC: 158.628510540029
NMI: 0.821727856467826

Correlations Across All
Pearson: 0.2440202836963504
Spearman: 0.19126508305220757
Distance: 0.7559797163036496
For param {'n_trees': 100, 'max_depth': 6, 'learning_rate': 0.1}
 *************************FOLDS Average***************************** 

Utility Based Metrics Across All
F1:  0.3310947531695335
F2:  0.33150407769623713
F05: 0.33080020177849717
precision:  0.33066588326946567
recall: 0.3318425865683536

Regression Error Metrics Across All
R2: -0.09213522550894257
Adj-R2: -1.1492035309405086
RMSE: 2.2425774685968194
MSE: 5.1507535620828975
MAE: 1.7253394318611328
MAPE: 246.65879160625073
Accuracy: -146.65879160625073
AIC: 159.8555961739051
BIC: 159.8555961739051
NMI: 0.8208668518132999

Correlations Across All
Pearson: 0.20513731991894618
Spearman: 0.1551490258786699
Distance: 0.7948626800810537
************************REPETITIONS Average*******************************

Utility Based Metrics Across All
F1:  0.3310947531695335
F2:  0.33150407769623713
F05: 0.33080020177849717
precision:  0.33066588326946567
recall: 0.3318425865683536

Regression Error Metrics Across All
R2: -0.09213522550894257
Adj-R2: -1.1492035309405086
RMSE: 2.2425774685968194
MSE: 5.1507535620828975
MAE: 1.7253394318611328
MAPE: 246.65879160625073
Accuracy: -146.65879160625073
AIC: 159.8555961739051
BIC: 159.8555961739051
NMI: 0.8208668518132999

Correlations Across All
Pearson: 0.20513731991894618
Spearman: 0.1551490258786699
Distance: 0.7948626800810537
