Error Metrics,Validation Scores,Testing Scores
mean target,3.745675226975701,3.745675226975701
F1,0.761614081938929,0.8141510366874574
F2,0.7589443629871432,0.8106391999328503
F05,0.7657721227932809,0.8176934336682532
Precision,0.7694263704009122,0.8200722071223487
Recall,0.7579541934157059,0.8083147586022422
R2,0.4853823779961532,0.48559067957870206
Adjusted R2,0.4457197221920673,0.45447454307960167
RMSE,1.4192956807125996,1.1597299194519126
MSE,2.019922132383191,1.3449734860719398
MAE,1.060458128430507,0.8955182650305804
MAPE,34.84710994055795,37.732034858014934
Accuracy,65.15289005944206,62.267965141985066
Pearson C.C.,0.7123114311594891,0.7466094032430437
Spearman C.C.,0.6909288792437778,0.7285165274454828
Spatial Distance,0.28768856884051053,0.25339059675695697
NMI,0.9904089724132014,0.9944478374269241
AIC,458.92893335829046,244.508797419013
BIC,458.92893335829046,244.508797419013
Data Size train,-,3289.0
Data Size test,-,825.0
Training Time (seconds),-,20.391817331314087
Testing Time (seconds),-,0.6585531234741211
