Total Number of rare cases: 117 out of 1471
Percentage of Rare Cases: 7.95%

number of rare in train: 93/1175
==> 7.914893617021276%%
number of rare in test: 24/296
==> 8.108108108108109%%
Total Number of rare cases: 468 out of 4114
Percentage of Rare Cases: 11.38%

number of rare in train: 374/3289
==> 11.37123745819398%%
number of rare in test: 94/825
==> 11.393939393939394%%
