,Month_1,Month_2,Month_3,Month_4,Vegetation_1,Vegetation_2,Vegetation_3,WS,WS-1,WS-2,WS-3,WS-4,WS-5,RH,RH-1,RH-2,RH-3,RH-4,RH-5,TA,TA-1,TA-2,TA-3,TA-4,TA-5,Eeflux_LST,Eeflux_LST-1,Eeflux_LST-2,Eeflux_LST-3,Eeflux_LST-4,Eeflux_LST-5,Eeflux_NDVI,Eeflux_NDVI-1,Eeflux_NDVI-2,Eeflux_NDVI-3,Eeflux_NDVI-4,Eeflux_NDVI-5,Eeflux_Albedo,Eeflux_Albedo-1,Eeflux_Albedo-2,Eeflux_Albedo-3,Eeflux_Albedo-4,Eeflux_Albedo-5,Site_0,LE_bowen_corr_mm
0,0,1,1,1,1,0,1,1.824724138,1.356514286,2.533142857,1.7114666669999998,1.60804,1.587451613,68.72296552,90.79571429,77.13232143,65.86903333,68.00404,75.95693548,30.03548276,26.21551429,28.07125,29.97686667,30.547040000000003,28.81593548,301.36,302.66,302.34,297.98,302.1,300.28,0.494,0.29100000000000004,0.759,0.589,1.0,0.778,0.138,0.131,0.11900000000000001,0.125,0.125,0.12300000000000001,1,9.261586774
1,0,1,1,1,1,0,1,2.3514,1.824724138,1.356514286,2.533142857,1.7114666669999998,1.60804,73.08583333,68.72296552,90.79571429,77.13232143,65.86903333,68.00404,29.85613333,30.03548276,26.21551429,28.07125,29.97686667,30.547040000000003,299.76,301.36,302.66,302.34,297.98,302.1,0.6990000000000001,0.494,0.29100000000000004,0.759,0.589,1.0,0.13699999999999998,0.138,0.131,0.11900000000000001,0.125,0.125,1,8.174165481000001
2,0,1,1,1,1,0,1,2.669607143,2.3514,1.824724138,1.356514286,2.533142857,1.7114666669999998,75.02639286,73.08583333,68.72296552,90.79571429,77.13232143,65.86903333,29.31425,29.85613333,30.03548276,26.21551429,28.07125,29.97686667,301.58,299.76,301.36,302.66,302.34,297.98,0.727,0.6990000000000001,0.494,0.29100000000000004,0.759,0.589,0.138,0.13699999999999998,0.138,0.131,0.11900000000000001,0.125,1,8.992425216
3,0,1,1,1,1,0,1,2.0068064519999997,2.669607143,2.3514,1.824724138,1.356514286,2.533142857,78.70032258,75.02639286,73.08583333,68.72296552,90.79571429,77.13232143,28.718612899999997,29.31425,29.85613333,30.03548276,26.21551429,28.07125,299.96,301.58,299.76,301.36,302.66,302.34,0.7290000000000001,0.727,0.6990000000000001,0.494,0.29100000000000004,0.759,0.142,0.138,0.13699999999999998,0.138,0.131,0.11900000000000001,1,6.4072481660000005
4,0,1,1,1,1,0,1,2.14356,2.0068064519999997,2.669607143,2.3514,1.824724138,1.356514286,72.20056,78.70032258,75.02639286,73.08583333,68.72296552,90.79571429,30.1138,28.718612899999997,29.31425,29.85613333,30.03548276,26.21551429,302.26,299.96,301.58,299.76,301.36,302.66,0.782,0.7290000000000001,0.727,0.6990000000000001,0.494,0.29100000000000004,0.14400000000000002,0.142,0.138,0.13699999999999998,0.138,0.131,1,9.342390825
5,0,1,1,1,1,0,1,1.3966666669999999,2.14356,2.0068064519999997,2.669607143,2.3514,1.824724138,74.83296667,72.20056,78.70032258,75.02639286,73.08583333,68.72296552,28.97663333,30.1138,28.718612899999997,29.31425,29.85613333,30.03548276,300.28,302.26,299.96,301.58,299.76,301.36,1.0,0.782,0.7290000000000001,0.727,0.6990000000000001,0.494,0.14400000000000002,0.14400000000000002,0.142,0.138,0.13699999999999998,0.138,1,7.930794219
6,0,1,1,1,1,0,1,1.331346154,1.3966666669999999,2.14356,2.0068064519999997,2.669607143,2.3514,73.69811538,74.83296667,72.20056,78.70032258,75.02639286,73.08583333,29.66876923,28.97663333,30.1138,28.718612899999997,29.31425,29.85613333,301.18,300.28,302.26,299.96,301.58,299.76,0.408,1.0,0.782,0.7290000000000001,0.727,0.6990000000000001,0.15,0.14400000000000002,0.14400000000000002,0.142,0.138,0.13699999999999998,1,8.483714887
7,0,1,1,1,1,0,1,3.542395833,1.331346154,1.3966666669999999,2.14356,2.0068064519999997,2.669607143,79.64625,73.69811538,74.83296667,72.20056,78.70032258,75.02639286,28.7121875,29.66876923,28.97663333,30.1138,28.718612899999997,29.31425,294.74,301.18,300.28,302.26,299.96,301.58,0.445,0.408,1.0,0.782,0.7290000000000001,0.727,0.154,0.15,0.14400000000000002,0.14400000000000002,0.142,0.138,1,5.4523052739999995
8,0,1,1,1,1,0,1,3.5737073169999998,3.542395833,1.331346154,1.3966666669999999,2.14356,2.0068064519999997,80.10436585,79.64625,73.69811538,74.83296667,72.20056,78.70032258,28.716512199999997,28.7121875,29.66876923,28.97663333,30.1138,28.718612899999997,302.08,294.74,301.18,300.28,302.26,299.96,0.843,0.445,0.408,1.0,0.782,0.7290000000000001,0.154,0.154,0.15,0.14400000000000002,0.14400000000000002,0.142,1,5.727566518
9,1,0,0,0,1,0,1,3.622,3.5737073169999998,3.542395833,1.331346154,1.3966666669999999,2.14356,73.78588889,80.10436585,79.64625,73.69811538,74.83296667,72.20056,28.42227778,28.716512199999997,28.7121875,29.66876923,28.97663333,30.1138,299.18,302.08,294.74,301.18,300.28,302.26,0.784,0.843,0.445,0.408,1.0,0.782,0.115,0.154,0.154,0.15,0.14400000000000002,0.14400000000000002,1,6.591821026
10,1,0,0,0,1,0,1,2.014230769,3.622,3.5737073169999998,3.542395833,1.331346154,1.3966666669999999,80.72480769,73.78588889,80.10436585,79.64625,73.69811538,74.83296667,26.90661538,28.42227778,28.716512199999997,28.7121875,29.66876923,28.97663333,298.12,299.18,302.08,294.74,301.18,300.28,0.584,0.784,0.843,0.445,0.408,1.0,0.115,0.115,0.154,0.154,0.15,0.14400000000000002,1,5.055060202
11,0,0,0,1,1,0,1,3.276675,2.014230769,3.622,3.5737073169999998,3.542395833,1.331346154,56.058875,80.72480769,73.78588889,80.10436585,79.64625,73.69811538,13.3579,26.90661538,28.42227778,28.716512199999997,28.7121875,29.66876923,291.44,298.12,299.18,302.08,294.74,301.18,0.8690000000000001,0.584,0.784,0.843,0.445,0.408,0.107,0.115,0.115,0.154,0.154,0.15,1,2.583205215
12,0,0,0,1,1,0,1,2.8986511630000003,3.276675,2.014230769,3.622,3.5737073169999998,3.542395833,65.62246512,56.058875,80.72480769,73.78588889,80.10436585,79.64625,12.48334884,13.3579,26.90661538,28.42227778,28.716512199999997,28.7121875,289.96,291.44,298.12,299.18,302.08,294.74,0.8170000000000001,0.8690000000000001,0.584,0.784,0.843,0.445,0.107,0.107,0.115,0.115,0.154,0.154,1,2.4240941819999997
13,0,0,0,1,1,0,1,2.435875,2.8986511630000003,3.276675,2.014230769,3.622,3.5737073169999998,70.466625,65.62246512,56.058875,80.72480769,73.78588889,80.10436585,15.4645,12.48334884,13.3579,26.90661538,28.42227778,28.716512199999997,288.72,289.96,291.44,298.12,299.18,302.08,0.324,0.8170000000000001,0.8690000000000001,0.584,0.784,0.843,0.106,0.107,0.107,0.115,0.115,0.154,1,2.0949409759999997
14,0,0,0,1,1,0,1,2.583195122,2.435875,2.8986511630000003,3.276675,2.014230769,3.622,84.22502439,70.466625,65.62246512,56.058875,80.72480769,73.78588889,21.47236585,15.4645,12.48334884,13.3579,26.90661538,28.42227778,295.98,288.72,289.96,291.44,298.12,299.18,0.838,0.324,0.8170000000000001,0.8690000000000001,0.584,0.784,0.107,0.106,0.107,0.107,0.115,0.115,1,2.523912638
15,0,0,0,1,1,0,1,1.547733333,2.583195122,2.435875,2.8986511630000003,3.276675,2.014230769,83.66053333,84.22502439,70.466625,65.62246512,56.058875,80.72480769,22.75383333,21.47236585,15.4645,12.48334884,13.3579,26.90661538,294.14,295.98,288.72,289.96,291.44,298.12,0.725,0.838,0.324,0.8170000000000001,0.8690000000000001,0.584,0.107,0.107,0.106,0.107,0.107,0.115,1,3.914265785
16,0,0,0,1,1,0,1,1.69475,1.547733333,2.583195122,2.435875,2.8986511630000003,3.276675,78.90945833,83.66053333,84.22502439,70.466625,65.62246512,56.058875,23.25220833,22.75383333,21.47236585,15.4645,12.48334884,13.3579,292.68,294.14,295.98,288.72,289.96,291.44,0.255,0.725,0.838,0.324,0.8170000000000001,0.8690000000000001,0.111,0.107,0.107,0.106,0.107,0.107,1,5.3184951
17,0,0,0,1,1,0,1,1.296166667,1.69475,1.547733333,2.583195122,2.435875,2.8986511630000003,86.87930556,78.90945833,83.66053333,84.22502439,70.466625,65.62246512,21.42963889,23.25220833,22.75383333,21.47236585,15.4645,12.48334884,297.66,292.68,294.14,295.98,288.72,289.96,0.8740000000000001,0.255,0.725,0.838,0.324,0.8170000000000001,0.111,0.111,0.107,0.107,0.106,0.107,1,3.395337211
18,0,0,0,1,1,0,1,2.541958333,1.296166667,1.69475,1.547733333,2.583195122,2.435875,66.49983333,86.87930556,78.90945833,83.66053333,84.22502439,70.466625,16.667,21.42963889,23.25220833,22.75383333,21.47236585,15.4645,294.46,297.66,292.68,294.14,295.98,288.72,0.8370000000000001,0.8740000000000001,0.255,0.725,0.838,0.324,0.11199999999999999,0.111,0.111,0.107,0.107,0.106,1,2.80223405
19,0,0,0,1,1,0,1,2.442763158,2.541958333,1.296166667,1.69475,1.547733333,2.583195122,72.5035,66.49983333,86.87930556,78.90945833,83.66053333,84.22502439,18.61589474,16.667,21.42963889,23.25220833,22.75383333,21.47236585,294.76,294.46,297.66,292.68,294.14,295.98,0.914,0.8370000000000001,0.8740000000000001,0.255,0.725,0.838,0.111,0.11199999999999999,0.111,0.111,0.107,0.107,1,2.747670176
20,0,0,0,1,1,0,1,2.213431818,2.442763158,2.541958333,1.296166667,1.69475,1.547733333,82.4395,72.5035,66.49983333,86.87930556,78.90945833,83.66053333,21.27063636,18.61589474,16.667,21.42963889,23.25220833,22.75383333,295.36,294.76,294.46,297.66,292.68,294.14,0.7120000000000001,0.914,0.8370000000000001,0.8740000000000001,0.255,0.725,0.11199999999999999,0.111,0.11199999999999999,0.111,0.111,0.107,1,2.269456317
21,0,0,0,1,1,0,1,2.771219512,2.213431818,2.442763158,2.541958333,1.296166667,1.69475,62.02578049,82.4395,72.5035,66.49983333,86.87930556,78.90945833,17.49239024,21.27063636,18.61589474,16.667,21.42963889,23.25220833,293.26,295.36,294.76,294.46,297.66,292.68,0.8240000000000001,0.7120000000000001,0.914,0.8370000000000001,0.8740000000000001,0.255,0.113,0.11199999999999999,0.111,0.11199999999999999,0.111,0.111,1,3.6324436639999997
22,0,0,0,1,1,0,1,2.603145833,2.771219512,2.213431818,2.442763158,2.541958333,1.296166667,71.15122917,62.02578049,82.4395,72.5035,66.49983333,86.87930556,15.64483333,17.49239024,21.27063636,18.61589474,16.667,21.42963889,292.54,293.26,295.36,294.76,294.46,297.66,0.725,0.8240000000000001,0.7120000000000001,0.914,0.8370000000000001,0.8740000000000001,0.113,0.113,0.11199999999999999,0.111,0.11199999999999999,0.111,1,2.3480288380000003
23,0,0,0,1,1,0,1,2.103,2.603145833,2.771219512,2.213431818,2.442763158,2.541958333,73.26675862,71.15122917,62.02578049,82.4395,72.5035,66.49983333,20.65872414,15.64483333,17.49239024,21.27063636,18.61589474,16.667,294.62,292.54,293.26,295.36,294.76,294.46,0.25,0.725,0.8240000000000001,0.7120000000000001,0.914,0.8370000000000001,0.114,0.113,0.113,0.11199999999999999,0.111,0.11199999999999999,1,3.944311051
24,0,0,0,1,1,0,1,2.5389375,2.103,2.603145833,2.771219512,2.213431818,2.442763158,75.78814583,73.26675862,71.15122917,62.02578049,82.4395,72.5035,18.368625,20.65872414,15.64483333,17.49239024,21.27063636,18.61589474,295.5,294.62,292.54,293.26,295.36,294.76,0.8490000000000001,0.25,0.725,0.8240000000000001,0.7120000000000001,0.914,0.115,0.114,0.113,0.113,0.11199999999999999,0.111,1,2.642721646
25,0,0,0,1,1,0,1,2.4225142859999997,2.5389375,2.103,2.603145833,2.771219512,2.213431818,63.4276,75.78814583,73.26675862,71.15122917,62.02578049,82.4395,19.28685714,18.368625,20.65872414,15.64483333,17.49239024,21.27063636,293.1,295.5,294.62,292.54,293.26,295.36,0.698,0.8490000000000001,0.25,0.725,0.8240000000000001,0.7120000000000001,0.115,0.115,0.114,0.113,0.113,0.11199999999999999,1,4.691569747
26,0,0,0,1,1,0,1,2.16828125,2.4225142859999997,2.5389375,2.103,2.603145833,2.771219512,71.1761875,63.4276,75.78814583,73.26675862,71.15122917,62.02578049,21.99715625,19.28685714,18.368625,20.65872414,15.64483333,17.49239024,293.92,293.1,295.5,294.62,292.54,293.26,0.812,0.698,0.8490000000000001,0.25,0.725,0.8240000000000001,0.11699999999999999,0.115,0.115,0.114,0.113,0.113,1,4.708723947
27,0,0,1,0,1,0,1,3.13752381,2.16828125,2.4225142859999997,2.5389375,2.103,2.603145833,83.99290476,71.1761875,63.4276,75.78814583,73.26675862,71.15122917,22.74933333,21.99715625,19.28685714,18.368625,20.65872414,15.64483333,296.6,293.92,293.1,295.5,294.62,292.54,0.81,0.812,0.698,0.8490000000000001,0.25,0.725,0.11800000000000001,0.11699999999999999,0.115,0.115,0.114,0.113,1,4.768307196
28,0,0,1,0,1,0,1,4.698,3.13752381,2.16828125,2.4225142859999997,2.5389375,2.103,61.85333333,83.99290476,71.1761875,63.4276,75.78814583,73.26675862,18.8255,22.74933333,21.99715625,19.28685714,18.368625,20.65872414,288.98,296.6,293.92,293.1,295.5,294.62,0.7559999999999999,0.81,0.812,0.698,0.8490000000000001,0.25,0.115,0.11800000000000001,0.11699999999999999,0.115,0.115,0.114,1,5.5053962489999995
29,0,0,1,0,1,0,1,3.444545455,4.698,3.13752381,2.16828125,2.4225142859999997,2.5389375,39.94118182,61.85333333,83.99290476,71.1761875,63.4276,75.78814583,16.45318182,18.8255,22.74933333,21.99715625,19.28685714,18.368625,290.46,288.98,296.6,293.92,293.1,295.5,0.8420000000000001,0.7559999999999999,0.81,0.812,0.698,0.8490000000000001,0.11599999999999999,0.115,0.11800000000000001,0.11699999999999999,0.115,0.115,1,7.838601831
30,0,0,1,0,1,0,1,3.444545455,3.444545455,4.698,3.13752381,2.16828125,2.4225142859999997,39.94118182,39.94118182,61.85333333,83.99290476,71.1761875,63.4276,16.45318182,16.45318182,18.8255,22.74933333,21.99715625,19.28685714,290.46,290.46,288.98,296.6,293.92,293.1,0.8420000000000001,0.8420000000000001,0.7559999999999999,0.81,0.812,0.698,0.11599999999999999,0.11599999999999999,0.115,0.11800000000000001,0.11699999999999999,0.115,1,7.838601831
31,0,0,1,0,1,0,1,2.1926666669999997,3.444545455,3.444545455,4.698,3.13752381,2.16828125,54.285,39.94118182,39.94118182,61.85333333,83.99290476,71.1761875,19.5165,16.45318182,16.45318182,18.8255,22.74933333,21.99715625,293.2,290.46,290.46,288.98,296.6,293.92,0.835,0.8420000000000001,0.8420000000000001,0.7559999999999999,0.81,0.812,0.11599999999999999,0.11599999999999999,0.11599999999999999,0.115,0.11800000000000001,0.11699999999999999,1,5.426659966
32,0,0,1,0,1,0,1,2.8491714289999996,2.1926666669999997,3.444545455,3.444545455,4.698,3.13752381,61.48877143,54.285,39.94118182,39.94118182,61.85333333,83.99290476,18.59151429,19.5165,16.45318182,16.45318182,18.8255,22.74933333,294.06,293.2,290.46,290.46,288.98,296.6,0.818,0.835,0.8420000000000001,0.8420000000000001,0.7559999999999999,0.81,0.11699999999999999,0.11599999999999999,0.11599999999999999,0.11599999999999999,0.115,0.11800000000000001,1,4.916379132
33,0,0,1,0,1,0,1,2.365857143,2.8491714289999996,2.1926666669999997,3.444545455,3.444545455,4.698,69.48211905,61.48877143,54.285,39.94118182,39.94118182,61.85333333,21.4437381,18.59151429,19.5165,16.45318182,16.45318182,18.8255,294.94,294.06,293.2,290.46,290.46,288.98,0.196,0.818,0.835,0.8420000000000001,0.8420000000000001,0.7559999999999999,0.114,0.11699999999999999,0.11599999999999999,0.11599999999999999,0.11599999999999999,0.115,1,3.9838314089999995
34,0,0,1,0,1,0,1,2.619142857,2.365857143,2.8491714289999996,2.1926666669999997,3.444545455,3.444545455,65.02975,69.48211905,61.48877143,54.285,39.94118182,39.94118182,23.14803571,21.4437381,18.59151429,19.5165,16.45318182,16.45318182,297.64,294.94,294.06,293.2,290.46,290.46,0.8190000000000001,0.196,0.818,0.835,0.8420000000000001,0.8420000000000001,0.113,0.114,0.11699999999999999,0.11599999999999999,0.11599999999999999,0.11599999999999999,1,5.814775151
35,0,0,1,0,1,0,1,2.3850322580000003,2.619142857,2.365857143,2.8491714289999996,2.1926666669999997,3.444545455,70.38454839,65.02975,69.48211905,61.48877143,54.285,39.94118182,22.96841935,23.14803571,21.4437381,18.59151429,19.5165,16.45318182,296.68,297.64,294.94,294.06,293.2,290.46,0.835,0.8190000000000001,0.196,0.818,0.835,0.8420000000000001,0.111,0.113,0.114,0.11699999999999999,0.11599999999999999,0.11599999999999999,1,5.559968249
36,0,0,1,0,1,0,1,2.528375,2.3850322580000003,2.619142857,2.365857143,2.8491714289999996,2.1926666669999997,79.140975,70.38454839,65.02975,69.48211905,61.48877143,54.285,22.8707,22.96841935,23.14803571,21.4437381,18.59151429,19.5165,296.48,296.68,297.64,294.94,294.06,293.2,0.716,0.835,0.8190000000000001,0.196,0.818,0.835,0.11,0.111,0.113,0.114,0.11699999999999999,0.11599999999999999,1,3.829654137
37,0,0,1,0,1,0,1,2.361295455,2.528375,2.3850322580000003,2.619142857,2.365857143,2.8491714289999996,81.68993182,79.140975,70.38454839,65.02975,69.48211905,61.48877143,23.21852273,22.8707,22.96841935,23.14803571,21.4437381,18.59151429,297.86,296.48,296.68,297.64,294.94,294.06,0.792,0.716,0.835,0.8190000000000001,0.196,0.818,0.11,0.11,0.111,0.113,0.114,0.11699999999999999,1,3.4086553
38,0,0,1,0,1,0,1,1.6029333330000002,2.361295455,2.528375,2.3850322580000003,2.619142857,2.365857143,76.66966667,81.68993182,79.140975,70.38454839,65.02975,69.48211905,23.54763333,23.21852273,22.8707,22.96841935,23.14803571,21.4437381,295.48,297.86,296.48,296.68,297.64,294.94,0.62,0.792,0.716,0.835,0.8190000000000001,0.196,0.11199999999999999,0.11,0.11,0.111,0.113,0.114,1,4.924552703
39,0,0,1,0,1,0,1,1.657583333,1.6029333330000002,2.361295455,2.528375,2.3850322580000003,2.619142857,75.2605,76.66966667,81.68993182,79.140975,70.38454839,65.02975,23.64041667,23.54763333,23.21852273,22.8707,22.96841935,23.14803571,298.92,295.48,297.86,296.48,296.68,297.64,0.867,0.62,0.792,0.716,0.835,0.8190000000000001,0.11199999999999999,0.11199999999999999,0.11,0.11,0.111,0.113,1,3.7231128030000002
