Error Metrics,Testing
Average,3.7471547625276496
Average Testing,3.573871584393934
R2,0.48
Adjusted R2,0.47
RMSE,1.37
MSE,1.88
MAE,1.07
MAPE,41.75
Accuracy,58.25
Pearson C.C.,0.7094610134561847
Spearman C.C.,0.73
Spatial Distance,0.29053898654381527
NMI,0.9999589127109856
Data Size,10911
AIC,[1387.0035 1386.7509 1386.6975 ... 1386.604  1386.6233 1386.6309]
BIC,[1388.4164 1387.4445 1387.2391 ... 1386.8795 1386.954  1386.983 ]
Relative Error,49.06
Uncertainty,None
