Error Metrics,Testing
Average,3.7471547625276496
Average Testing,3.573871584393934
R2,0.53
Adjusted R2,0.52
RMSE,1.3
MSE,1.69
MAE,1.01
MAPE,39.33
Accuracy,60.67
Pearson C.C.,0.7451815247682478
Spearman C.C.,0.76
Spatial Distance,0.25481847523175216
NMI,1.0
Data Size,10911
AIC,[1146.9911 1146.9651 1146.886  ... 1146.8011 1146.7924 1146.7745]
BIC,[1147.828  1147.7279 1147.424  ... 1147.0975 1147.0637 1146.9954]
Relative Error,44.19
Uncertainty,None
