Error Metrics,Testing
Average,3.7471547625276496
Average Testing,3.573871584393934
R2,0.56
Adjusted R2,0.55
RMSE,1.26
MSE,1.58
MAE,0.96
MAPE,36.51
Accuracy,63.49
Pearson C.C.,0.7608030288909455
Spearman C.C.,0.77
Spatial Distance,0.23919697110905447
NMI,0.9999589127109856
Data Size,10911
AIC,[1005.6593  1005.7031  1005.6069  ... 1005.8585  1005.6386  1006.81854]
BIC,[1006.5095  1006.67816 1006.3079  ... 1007.2759  1006.42993 1010.9685 ]
Relative Error,41.52
Uncertainty,None
