{"k": 7400, "test samples": 1850, "gradient steps": 32, "number of tasks": 3000, "number of columns": 36, "number of test experiments": 100, "hidden 1": 40, "hidden 2": 64, "inner learning rate": "0.01", "meta learning rate": "0.001", "optimizer": "Adam"}

columnsToTake = ['Date', 'Site Id', 'TA', 'TA-1', 'TA-2', 'TA-3', 'EEflux LST',
       'EEflux LST-1', 'WS', 'WS-1', 'WS-2', 'WS-3',
                         'RH', 'RH-1', 'RH-2', 'RH-3',
                         'EEflux LST-2', 'EEflux LST-3',
       'EEflux NDVI', 'EEflux NDVI-1', 'EEflux NDVI-2', 'EEflux NDVI-3'
                         , 'EEflux Albedo', 'EEflux Albedo-1',
       'EEflux Albedo-2', 'EEflux Albedo-3'
                         , 'LE_bowen_corr(mm)', 'Site Id_1', 'Site Id_2',
       'Site Id_3', 'Site Id_4', 'Site Id_5', 'Month_1', 'Month_2', 'Month_3',
       'Month_4', 'Vegetation_1', 'Vegetation_2', 'Vegetation_3']