Date,Site,Month_1,Month_2,Month_3,Month_4,Vegetation_1,Vegetation_2,Vegetation_3,WS,WS-1,WS-2,WS-3,WS-4,WS-5,RH,RH-1,RH-2,RH-3,RH-4,RH-5,TA,TA-1,TA-2,TA-3,TA-4,TA-5,Eeflux_LST,Eeflux_LST-1,Eeflux_LST-2,Eeflux_LST-3,Eeflux_LST-4,Eeflux_LST-5,Eeflux_NDVI,Eeflux_NDVI-1,Eeflux_NDVI-2,Eeflux_NDVI-3,Eeflux_NDVI-4,Eeflux_NDVI-5,Eeflux_Albedo,Eeflux_Albedo-1,Eeflux_Albedo-2,Eeflux_Albedo-3,Eeflux_Albedo-4,Eeflux_Albedo-5,Site_0,Site_1,Site_2,Site_3,Site_4,Site_5,LE_bowen_corr_mm,LE_bowen_corr_pred,Eeflux_ET
Date,Site,Month_1,Month_2,Month_3,Month_4,Vegetation_1,Vegetation_2,Vegetation_3,WS,WS-1,WS-2,WS-3,WS-4,WS-5,RH,RH-1,RH-2,RH-3,RH-4,RH-5,TA,TA-1,TA-2,TA-3,TA-4,TA-5,Eeflux_LST,Eeflux_LST-1,Eeflux_LST-2,Eeflux_LST-3,Eeflux_LST-4,Eeflux_LST-5,Eeflux_NDVI,Eeflux_NDVI-1,Eeflux_NDVI-2,Eeflux_NDVI-3,Eeflux_NDVI-4,Eeflux_NDVI-5,Eeflux_Albedo,Eeflux_Albedo-1,Eeflux_Albedo-2,Eeflux_Albedo-3,Eeflux_Albedo-4,Eeflux_Albedo-5,Site_0,Site_1,Site_2,Site_3,Site_4,Site_5,LE_bowen_corr_mm,LE_bowen_corr_pred,Eeflux_ET
7/17/2003,FI-Jok,0,1,1,1,0,0,1,1.188875,2.0851875,3.141666667,1.3834375,1.306395833,5.244729167,59.99054167,69.50664583,69.4666875,78.62675,62.95389583,70.18,22.51952083,9.439854167,10.62745833,11.53029167,9.3898125,13.00635417,303.92,286.16,291.3,292.74,288.38,290.16,0.82,0.242,0.767,0.475,0.657,0.74,0.152,0.146,0.146,0.151,0.151,0.154,0,0,0,0,0,1,5.862500511,6.290472179,2.783199787
9/25/2015,DE-Kli,1,0,0,1,0,0,1,2.157916667,1.410833333,1.20125,1.4875,3.284166667,3.149791667,80.52583333,56.07833333,56.61041667,67.6875,65.56208333,58.13958333,11.62916667,21.46041667,19.82,12.250625,13.83333333,14.29375,284.36,302.18,299.92,290.24,290.44,290.3,0.296,0.363,0.518,0.606,0.453,0.461,0.168,0.184,0.179,0.186,0.182,0.198,0,0,0,0,1,0,1.787594885,1.861241145,2.516218424
10/11/2015,DE-Kli,1,0,1,0,0,0,1,4.045416667,3.257291667,1.914166667,2.157916667,1.410833333,1.20125,70.313125,82.00145833,75.25416667,80.52583333,56.07833333,56.61041667,1.970208333,5.561458333,9.364166667,11.62916667,21.46041667,19.82,282,283.16,288.74,284.36,302.18,299.92,0.372,0.357,0.603,0.296,0.363,0.518,0.139,0.146,0.177,0.168,0.184,0.179,0,0,0,0,1,0,1.737021553,1.884804989,1.54770422
10/12/2015,DE-Kli,1,0,1,0,0,0,1,3.041875,4.045416667,3.257291667,1.914166667,2.157916667,1.410833333,81.57520833,70.313125,82.00145833,75.25416667,80.52583333,56.07833333,0.812083333,1.970208333,5.561458333,9.364166667,11.62916667,21.46041667,281.74,282,283.16,288.74,284.36,302.18,0.607,0.372,0.357,0.603,0.296,0.363,0.127,0.139,0.146,0.177,0.168,0.184,0,0,0,0,1,0,1.162048493,1.779475907,0
3/28/2016,DE-Kli,0,0,1,1,0,0,1,4.365625,3.041041667,1.822083333,3.402708333,4.309583333,4.751875,67.874375,83.00666667,72.363125,82.63354167,78.496875,52.90041667,8.083333333,2.512916667,3.536875,1.54625,12.12666667,10.103125,285.2,283.28,285.88,279.72,284.64,286.84,0.53,0.649,0.618,0.063,0.104,0.44,0.132,0.13,0.13,0.13,0.138,0.137,0,0,0,0,1,0,2.280227408,2.183052282,0
4/5/2016,DE-Kli,0,1,0,0,0,0,1,1.63625,4.123958333,4.365625,3.041041667,1.822083333,3.402708333,75.444375,57.63625,67.874375,83.00666667,72.363125,82.63354167,13.675,7.273125,8.083333333,2.512916667,3.536875,1.54625,285.74,283.62,285.2,283.28,285.88,279.72,0.69,0.602,0.53,0.649,0.618,0.063,0.135,0.132,0.132,0.13,0.13,0.13,0,0,0,0,1,0,2.256727015,3.357937576,1.992715359
4/20/2016,DE-Kli,0,1,0,0,0,0,1,3.242291667,1.747916667,1.63625,4.123958333,4.365625,3.041041667,72.10604167,72.99,75.444375,57.63625,67.874375,83.00666667,4.669375,5.679166667,13.675,7.273125,8.083333333,2.512916667,284.14,283.32,285.74,283.62,285.2,283.28,0.864,0.86,0.69,0.602,0.53,0.649,0.162,0.163,0.135,0.132,0.132,0.13,0,0,0,0,1,0,2.235509455,3.198307833,0
4/21/2016,DE-Kli,0,1,0,0,0,0,1,1.161458333,3.242291667,1.747916667,1.63625,4.123958333,4.365625,66.10333333,72.10604167,72.99,75.444375,57.63625,67.874375,7.186666667,4.669375,5.679166667,13.675,7.273125,8.083333333,290.98,284.14,283.32,285.74,283.62,285.2,0.855,0.864,0.86,0.69,0.602,0.53,0.16,0.162,0.163,0.135,0.132,0.132,0,0,0,0,1,0,3.03305783,3.039077713,2.71982193
4/29/2016,DE-Kli,0,1,0,0,0,0,1,2.795416667,3.20875,1.994791667,1.161458333,3.242291667,1.747916667,58.524375,84.08541667,68.185,66.10333333,72.10604167,72.99,5.832083333,0.953125,5.959166667,7.186666667,4.669375,5.679166667,289.84,277.06,287.54,290.98,284.14,283.32,0.805,0.472,0.744,0.855,0.864,0.86,0.172,0.161,0.16,0.16,0.162,0.163,0,0,0,0,1,0,3.163462413,3.035736544,2.799290419
5/6/2016,DE-Kli,0,1,0,1,0,0,1,2.925416667,1.770416667,2.795416667,3.20875,1.994791667,1.161458333,60.64229167,80.78666667,58.524375,84.08541667,68.185,66.10333333,13.66604167,9.223541667,5.832083333,0.953125,5.959166667,7.186666667,295.78,289.28,289.84,277.06,287.54,290.98,0.843,0.819,0.805,0.472,0.744,0.855,0.189,0.189,0.172,0.161,0.16,0.16,0,0,0,0,1,0,4.574989093,3.749114581,0
5/7/2016,DE-Kli,0,1,0,1,0,0,1,3.789375,2.925416667,1.770416667,2.795416667,3.20875,1.994791667,49.16666667,60.64229167,80.78666667,58.524375,84.08541667,68.185,15.13416667,13.66604167,9.223541667,5.832083333,0.953125,5.959166667,292.34,295.78,289.28,289.84,277.06,287.54,0.838,0.843,0.819,0.805,0.472,0.744,0.191,0.189,0.189,0.172,0.161,0.16,0,0,0,0,1,0,5.298737773,4.067564704,5.818086147
5/14/2016,DE-Kli,0,1,0,1,0,0,1,3.271875,3.084375,3.084375,3.521666667,3.141875,3.104791667,77.17291667,68.80458333,68.80458333,68.803125,64.05125,66.82229167,7.267083333,14.39083333,14.39083333,13.850625,14.65916667,14.24666667,284.06,293.1,293.1,293.72,294.82,294.08,0.734,0.403,0.403,0.853,0.525,0.903,0.191,0.194,0.194,0.194,0.194,0.194,0,0,0,0,1,0,2.483727479,3.072191491,4.191156864
5/22/2016,DE-Kli,0,1,0,1,0,0,1,3.057083333,1.777708333,2.464166667,3.271875,3.084375,3.084375,54.74875,64.95208333,69.98104167,77.17291667,68.80458333,68.80458333,18.711875,14.96270833,13.33458333,7.267083333,14.39083333,14.39083333,300,289.38,293.9,284.06,293.1,293.1,0.884,0.663,0.902,0.734,0.403,0.403,0.207,0.208,0.208,0.191,0.194,0.194,0,0,0,0,1,0,6.062439106,4.397271592,0
7/10/2016,DE-Kli,0,1,1,1,0,0,1,2.243958333,3.057083333,1.777708333,2.464166667,3.271875,3.084375,67.705625,54.74875,64.95208333,69.98104167,77.17291667,68.80458333,19.98208333,18.711875,14.96270833,13.33458333,7.267083333,14.39083333,296.42,300,289.38,293.9,284.06,293.1,0.697,0.884,0.663,0.902,0.734,0.403,0.155,0.207,0.208,0.208,0.191,0.194,0,0,0,0,1,0,5.248066244,4.654226333,5.57045269
9/11/2016,DE-Kli,1,0,0,1,0,0,1,1.578125,2.351875,1.71375,3.076458333,1.642916667,2.243958333,61.08083333,71.95,75.86333333,65.92645833,75.79479167,67.705625,21.51625,20.11375,18.72083333,19.80395833,17.96458333,19.98208333,301.8,298.7,296.86,298.82,291.66,296.42,0.343,0.44,0.295,0.461,0.11,0.697,0.184,0.185,0.185,0.184,0.155,0.155,0,0,0,0,1,0,1.275053232,2.768858615,1.079455376
9/12/2016,DE-Kli,1,0,0,1,0,0,1,1.602291667,1.578125,2.351875,1.71375,3.076458333,1.642916667,59.08166667,61.08083333,71.95,75.86333333,65.92645833,75.79479167,21.89020833,21.51625,20.11375,18.72083333,19.80395833,17.96458333,302.74,301.8,298.7,296.86,298.82,291.66,0.514,0.343,0.44,0.295,0.461,0.11,0.184,0.184,0.185,0.185,0.184,0.155,0,0,0,0,1,0,1.464343346,2.722532045,1.640466809
2/27/2017,DE-Kli,0,0,1,0,0,0,1,5.284166667,4.405625,2.374791667,3.745416667,3.145833333,3.349791667,60.710625,76.41104167,87.37,85.12145833,82.62333333,82.576875,7.877083333,1.250625,5.971666667,7.498541667,9.602708333,11.79895833,284.44,272.32,284.34,283.14,276.06,291.92,0.433,0.224,0.821,0.379,0.529,0.645,0.159,0.159,0.164,0.164,0.154,0.174,0,0,0,0,1,0,6.251850071,1.939474801,0.743035793
5/9/2017,DE-Kli,0,1,0,1,0,0,1,1.875208333,3.531041667,4.536458333,1.580833333,4.400416667,5.193125,74.22,72.24770833,65.02166667,76.68854167,54.43,63.283125,2.760416667,6.213333333,11.97020833,11.28645833,9.078541667,4.847708333,275.9,284.36,293.94,292,286.44,278.4,0.041,0.514,0.381,0.225,0.405,0.379,0.189,0.148,0.149,0.151,0.16,0.16,0,0,0,0,1,0,1.258389049,2.162007193,0
5/10/2017,DE-Kli,0,1,0,1,0,0,1,2.762291667,1.875208333,3.531041667,4.536458333,1.580833333,4.400416667,59.65208333,74.22,72.24770833,65.02166667,76.68854167,54.43,6.775416667,2.760416667,6.213333333,11.97020833,11.28645833,9.078541667,281.16,275.9,284.36,293.94,292,286.44,0.304,0.041,0.514,0.381,0.225,0.405,0.19,0.189,0.148,0.149,0.151,0.16,0,0,0,0,1,0,1.342467384,2.137851212,1.218460798
6/2/2017,DE-Kli,0,1,1,0,0,0,1,1.543125,2.034791667,2.762291667,1.875208333,3.531041667,4.536458333,54.06083333,78.415,59.65208333,74.22,72.24770833,65.02166667,16.15854167,14.39041667,6.775416667,2.760416667,6.213333333,11.97020833,300.96,292.9,281.16,275.9,284.36,293.94,0.75,0.253,0.304,0.041,0.514,0.381,0.174,0.178,0.19,0.189,0.148,0.149,0,0,0,0,1,0,2.127742243,3.373405997,2.647957444
6/3/2017,DE-Kli,0,1,1,0,0,0,1,2.73,1.543125,2.034791667,2.762291667,1.875208333,3.531041667,62.031875,54.06083333,78.415,59.65208333,74.22,72.24770833,18.53208333,16.15854167,14.39041667,6.775416667,2.760416667,6.213333333,297.06,300.96,292.9,281.16,275.9,284.36,0.667,0.75,0.253,0.304,0.041,0.514,0.174,0.174,0.178,0.19,0.189,0.148,0,0,0,0,1,0,3.02019821,3.837727001,3.206347704
7/4/2017,DE-Kli,0,1,1,1,0,0,1,2.353958333,2.187708333,3.868541667,2.73,1.543125,2.034791667,70.7375,72.15645833,85.72666667,62.031875,54.06083333,78.415,15.73541667,14.94375,14.23916667,18.53208333,16.15854167,14.39041667,292.24,293.12,290.76,297.06,300.96,292.9,0.69,0.811,0.717,0.667,0.75,0.253,0.227,0.191,0.185,0.174,0.174,0.178,0,0,0,0,1,0,3.284229328,3.715579095,1.360261083
8/5/2017,DE-Kli,1,0,0,0,0,0,1,2.266458333,2.17875,3.161041667,3.040625,2.954166667,1.674791667,68.62604167,61.25416667,58.66291667,72.29083333,86.721875,63.51145833,18.95979167,21.97395833,22.82458333,16.39041667,15.58666667,21.54729167,298.76,301.14,302,295.62,291.92,302.58,0.588,0.558,0.467,0.191,0.226,0.564,0.171,0.172,0.174,0.174,0.175,0.17,0,0,0,0,1,0,2.213202062,2.148432622,3.719380617
9/30/2017,DE-Kli,1,0,0,1,0,0,1,4.626666667,3.0625,2.7775,2.062708333,3.582708333,1.628333333,62.48979167,68.83583333,75.96708333,72.064375,61.296875,53.69479167,13.53458333,14.735625,15.06291667,19.37125,18.83083333,16.29645833,292.6,292.74,284.96,298.1,287.88,298.46,0.518,0.622,0.532,0.544,0.438,0.584,0.151,0.15,0.148,0.169,0.169,0.17,0,0,0,0,1,0,2.261614625,1.957018646,1.176084161
10/16/2017,DE-Kli,1,0,1,0,0,0,1,2.648958333,1.843541667,2.886041667,5.590416667,4.626666667,3.0625,64.621875,79.471875,83.92833333,88.03083333,62.48979167,68.83583333,15.35375,14.50770833,13.2675,7.804583333,13.53458333,14.735625,292.78,292.1,290.36,281.86,292.6,292.74,0.749,0.706,0.696,0.199,0.518,0.622,0.157,0.157,0.157,0.162,0.151,0.15,0,0,0,0,1,0,3.720660969,2.908408334,1.99990201
4/3/2018,DE-Kli,0,1,0,0,0,0,1,4.25375,3.205416667,6.48375,2.648958333,1.843541667,2.886041667,54.55145833,67.26020833,80.619375,64.621875,79.471875,83.92833333,11.97104167,4.741666667,-1.967291667,15.35375,14.50770833,13.2675,288.7,281.32,271.48,292.78,292.1,290.36,0.299,0.247,0.329,0.749,0.706,0.696,0.142,0.151,0.159,0.157,0.157,0.157,0,0,0,0,1,0,3.42968857,2.845164097,2.862204313
6/6/2018,DE-Kli,0,1,1,0,0,0,1,2.920833333,4.25375,3.205416667,6.48375,2.648958333,1.843541667,67.63083333,54.55145833,67.26020833,80.619375,64.621875,79.471875,17.12041667,11.97104167,4.741666667,-1.967291667,15.35375,14.50770833,300.92,288.7,281.32,271.48,292.78,292.1,0.44,0.299,0.247,0.329,0.749,0.706,0.183,0.142,0.151,0.159,0.157,0.157,0,0,0,0,1,0,2.044303122,2.676463416,2.426237822
6/29/2018,DE-Kli,0,1,1,0,0,0,1,2.142083333,2.139583333,2.060416667,2.920833333,4.25375,3.205416667,57.52520833,66.02270833,49.845,67.63083333,54.55145833,67.26020833,19.956875,15.32416667,20.17791667,17.12041667,11.97104167,4.741666667,301.06,291.42,301.34,300.92,288.7,281.32,0.701,0.702,0.62,0.44,0.299,0.247,0.171,0.176,0.181,0.183,0.142,0.151,0,0,0,0,1,0,4.060438054,4.318330368,0
7/15/2018,DE-Kli,0,1,1,1,0,0,1,1.351666667,1.970833333,1.928541667,0.985208333,1.304166667,1.012291667,68.974375,69.04833333,47.18541667,41.40125,48.98854167,53.61166667,17.50020833,17.97625,21.69395833,19.806875,15.78729167,13.01875,300.84,295.96,303.98,307.18,303.48,300.1,0.68,0.697,0.68,0.763,0.753,0.712,0.168,0.168,0.174,0.174,0.174,0.174,0,0,0,0,1,0,3.791835165,4.306249799,4.106770754
7/23/2018,DE-Kli,0,1,1,1,0,0,1,1.452291667,1.665833333,1.351666667,1.970833333,1.928541667,0.985208333,64.065,68.80270833,68.974375,69.04833333,47.18541667,41.40125,19.61083333,17.36416667,17.50020833,17.97625,21.69395833,19.806875,302.94,298,300.84,295.96,303.98,307.18,0.655,0.353,0.68,0.697,0.68,0.763,0.193,0.177,0.168,0.168,0.174,0.174,0,0,0,0,1,0,3.34674357,4.221500691,4.818380356
7/31/2018,DE-Kli,0,1,1,1,0,0,1,1.430416667,1.074166667,1,1.207916667,1.289791667,1.452291667,42.39604167,52.35833333,63.87041667,59.27604167,64.58854167,64.065,26.47041667,24.84875,21.09854167,21.024375,20.4525,19.61083333,311.92,307.88,305.34,309.16,298.66,302.94,0.748,0.751,0.769,0.525,0.58,0.655,0.187,0.186,0.187,0.19,0.19,0.193,0,0,0,0,1,0,5.187148694,6.900661209,0
8/1/2018,DE-Kli,1,0,0,0,0,0,1,1.482916667,1.430416667,1.074166667,1,1.207916667,1.289791667,51.47479167,42.39604167,52.35833333,63.87041667,59.27604167,64.58854167,25.65145833,26.47041667,24.84875,21.09854167,21.024375,20.4525,307.92,311.92,307.88,305.34,309.16,298.66,0.582,0.748,0.751,0.769,0.525,0.58,0.188,0.187,0.186,0.187,0.19,0.19,0,0,0,0,1,0,4.377967114,5.183586808,4.784526348
8/8/2018,DE-Kli,1,0,0,0,0,0,1,1.75125,2.147291667,1.119583333,1.202291667,1.482916667,1.430416667,47.64458333,30.75791667,75.99208333,74.41041667,51.47479167,42.39604167,24.38208333,25.05708333,22.45,22.01458333,25.65145833,26.47041667,309.04,310.4,303.9,305.42,307.92,311.92,0.59,0.73,0.705,0.656,0.582,0.748,0.188,0.187,0.184,0.184,0.188,0.187,0,0,0,0,1,0,4.157318229,4.90271984,3.779826403
8/16/2018,DE-Kli,1,0,0,0,0,0,1,1.254583333,1.944375,1.75125,2.147291667,1.119583333,1.202291667,53.70958333,44.61583333,47.64458333,30.75791667,75.99208333,74.41041667,19.753125,21.77,24.38208333,25.05708333,22.45,22.01458333,307.64,309.72,309.04,310.4,303.9,305.42,0.689,0.597,0.59,0.73,0.705,0.656,0.188,0.197,0.188,0.187,0.184,0.184,0,0,0,0,1,0,3.073630502,4.278977223,2.976030588
3/2/2017,US-A32,0,0,1,1,0,1,0,3.849415385,3.849415385,5.504845,5.504845,3.85895,2.930461538,24.67153846,24.67153846,27.3475,27.3475,52.22571429,51.02076923,13.55115385,13.55115385,10.99855,10.99855,20.75107143,18.96492308,290.78,290.78,290.16,290.16,294.42,297.06,0.575,0.575,0.666,0.666,0.563,0.643,0.187,0.187,0.185,0.185,0.188,0.188,0,0,0,0,1,1,3.088035868,2.753383865,0
3/10/2017,US-A32,0,0,1,1,0,1,0,5.63817,3.484342857,4.716173333,4.716173333,7.273071429,3.849415385,42.418,58.13071429,18.77533333,18.77533333,32.48571429,24.67153846,7.6285,20.74928571,13.5208,13.5208,15.0287619,13.55115385,287.78,300.98,295.58,295.58,292.88,290.78,0.756,0.744,0.788,0.788,0.673,0.575,0.197,0.192,0.187,0.187,0.187,0.187,0,0,0,0,1,1,1.850340539,3.723654186,6.678493023
3/18/2017,US-A32,0,0,1,1,0,1,0,3.86375,4.155470588,4.155470588,7.010368182,3.798152632,5.63817,36.12818182,53.82647059,53.82647059,61.08636364,50.44894737,42.418,19.44772727,21.94823529,21.94823529,18.64540909,7.846842105,7.6285,298.04,294.16,294.16,295.04,285.8,287.78,0.59,0.684,0.684,0.573,0.702,0.756,0.198,0.198,0.198,0.196,0.198,0.197,0,0,0,0,1,1,3.127795498,2.908170589,1.474037051
4/11/2017,US-A32,0,1,0,0,0,1,0,3.010185714,4.8782,4.8782,6.039904167,5.223677273,3.2586875,50.25428571,39.45434783,39.45434783,59.27791667,46.42272727,49.83375,17.08571429,17.90521739,17.90521739,22.68,18.65059091,14.91,296.16,296.86,296.86,298.42,293.44,294.32,0.793,0.778,0.778,0.769,0.76,0.845,0.177,0.173,0.173,0.173,0.174,0.173,0,0,0,0,1,1,3.49610519,4.550780274,2.01513052
5/5/2017,US-A32,0,1,0,1,0,1,0,2.156075,5.23662381,5.99815,2.33386,7.098704,4.851986364,72.045,50.4147619,38.28541667,39.714,71.9888,67.33090909,14.14,18.37761905,16.638125,19.156,23.0464,22.83318182,299.6,292.02,294.14,296.34,296.94,295.78,0.787,0.787,0.84,0.799,0.82,0.785,0.166,0.166,0.165,0.169,0.17,0.169,0,0,0,0,1,1,3.673246837,4.677207041,1.415090442
5/13/2017,US-A32,0,1,0,1,0,1,0,4.278129412,4.690443478,4.420126087,4.673813636,4.673813636,3.05878,47.64529412,47.98173913,56.1073913,48.30772727,48.30772727,47.998,24.14352941,20.59695652,25.33608696,26.57863636,26.57863636,22.786,300.14,298.38,303.12,302.26,302.26,302.04,0.73,0.729,0.791,0.67,0.67,0.764,0.16,0.16,0.164,0.165,0.165,0.166,0,0,0,0,1,1,9.582663713,7.046925182,2.413147926
5/21/2017,US-A32,0,1,0,1,0,1,0,1.94095,5.153312,8.415957143,7.15865,5.394691667,5.656086957,44.27,58.6972,47.5452381,70.8295,63.4925,58.73,23.01,16.1836,23.82904762,24.6685,27.49875,25.63826087,300.98,293.38,297,300.32,303.44,303.52,0.632,0.687,0.651,0.624,0.696,0.676,0.167,0.167,0.161,0.16,0.159,0.159,0,0,0,0,1,1,7.135255216,5.590554123,4.462000847
5/29/2017,US-A32,0,1,0,1,0,1,0,2.866141667,3.46965625,3.993461538,4.374241667,5.09434375,5.09434375,35.09166667,49.44625,55.83846154,54.91583333,46.243125,46.243125,28.16333333,23.814375,27.09153846,16.73583333,19.32125,19.32125,306.48,305.74,307.1,296.32,296.16,296.16,0.5,0.486,0.544,0.592,0.575,0.575,0.174,0.176,0.176,0.174,0.174,0.174,0,0,0,0,1,1,7.650849738,4.884809606,3.674496174
6/6/2017,US-A32,0,1,1,0,0,1,0,3.32305,3.095442857,2.866141667,3.46965625,3.993461538,4.374241667,43.97642857,57.78857143,35.09166667,49.44625,55.83846154,54.91583333,30.62357143,23.73285714,28.16333333,23.814375,27.09153846,16.73583333,308.36,306.24,306.48,305.74,307.1,296.32,0.432,0.387,0.5,0.486,0.544,0.592,0.179,0.174,0.174,0.176,0.176,0.174,0,0,0,0,1,1,8.177079128,5.413654957,8.636237621
7/20/2004,US-Wlr,0,1,1,1,0,1,0,3.191458333,2.750208333,3.962083333,3.544375,2.744583333,2.744583333,62.10625,71.35208333,73.58541667,78.70833333,62.62083333,62.62083333,28.43125,27.69791667,27.0625,25.37291667,19.83958333,19.83958333,311.8,307.96,306.8,297.34,298.34,298.34,0.667,0.654,0.747,0.69,0.739,0.739,0.182,0.176,0.172,0.171,0.164,0.164,0,0,0,1,0,0,6.575818392,5.760210985,4.579813957
8/14/2004,US-Wlr,1,0,0,0,0,1,0,1.705833333,3.960416667,3.594791667,3.750833333,2.767291667,3.21875,67.22291667,68.06458333,74.42291667,75.7375,68.64791667,73.90625,18.4375,28.8125,28.12083333,26.70625,20.425,18.61875,303.98,308.92,300.54,306.42,304.4,300.04,0.69,0.729,0.677,0.722,0.666,0.766,0.184,0.174,0.174,0.17,0.171,0.171,0,0,0,1,0,0,5.341447001,4.420469703,2.492971659
9/24/2010,US-Kon,1,0,0,1,0,1,0,1.875586207,5.371361111,1.503944444,3.191333333,3.758423077,4.252428571,67.98051724,73.03233333,80.80538889,77.57879167,78.85138462,77.61735714,21.05903448,28.64355556,23.1755,29.22941667,28.0365,24.79557143,298.54,304.22,297.3,305.32,303.24,292.84,0.627,0.566,0.598,0.539,0.625,0.51,0.181,0.181,0.177,0.176,0.176,0.175,0,0,0,1,1,0,3.946659159,2.987577737,0
10/1/2010,US-Kon,1,0,1,0,0,1,0,1.352210526,2.415692308,2.341166667,2.424357143,2.778,2.122631579,57.38589474,60.06269231,68.20911111,73.68257143,73.02607143,72.03705263,19.49731579,19.53671795,22.14825,20.47792857,18.38032143,16.06936842,299.14,299.74,300.82,297.22,290.74,295,0.539,0.519,0.549,0.405,0.488,0.603,0.183,0.18,0.18,0.182,0.179,0.181,0,0,0,1,1,0,2.006005122,2.139156027,2.830246687
10/2/2010,US-Kon,1,0,1,0,0,1,0,3.3324,1.352210526,2.415692308,2.341166667,2.424357143,2.778,68.60488,57.38589474,60.06269231,68.20911111,73.68257143,73.02607143,14.89648,19.49731579,19.53671795,22.14825,20.47792857,18.38032143,295.22,299.14,299.74,300.82,297.22,290.74,0.517,0.539,0.519,0.549,0.405,0.488,0.183,0.183,0.18,0.18,0.182,0.179,0,0,0,1,1,0,2.302052364,1.884292176,0
5/30/2011,US-Kon,0,1,0,1,0,1,0,11.53046154,3.513181818,5.675770833,4.672185185,7.819551724,7.086322581,72.5544359,70.88629545,58.06785417,52.14337037,48.89424138,64.44612903,27.60905128,12.23143182,10.26920833,15.03603704,23.44213793,21.20470968,303.84,297.48,291.2,296.58,301.68,295.1,0.689,0.297,0.286,0.287,0.259,0.081,0.167,0.145,0.182,0.181,0.182,0.197,0,0,0,1,1,0,1.630794274,4.813067262,0
6/6/2011,US-Kon,0,1,1,0,0,1,0,6.406045455,5.361212766,3.05262963,11.53046154,3.513181818,5.675770833,60.02263636,56.46265957,48.82485185,72.5544359,70.88629545,58.06785417,30.17088636,29.57191489,24.09540741,27.60905128,12.23143182,10.26920833,309.06,303.94,301.64,303.84,297.48,291.2,0.759,0.798,0.774,0.689,0.297,0.286,0.182,0.181,0.169,0.167,0.145,0.182,0,0,0,1,1,0,5.198583181,6.116560464,7.037987232
6/7/2011,US-Kon,0,1,1,0,0,1,0,7.839461538,6.406045455,5.361212766,3.05262963,11.53046154,3.513181818,67.52115385,60.02263636,56.46265957,48.82485185,72.5544359,70.88629545,29.94779487,30.17088636,29.57191489,24.09540741,27.60905128,12.23143182,304.02,309.06,303.94,301.64,303.84,297.48,0.806,0.759,0.798,0.774,0.689,0.297,0.182,0.182,0.181,0.169,0.167,0.145,0,0,0,1,1,0,3.827331628,5.973383077,0
6/22/2011,US-Kon,0,1,1,0,0,1,0,4.340909091,7.475264706,5.463129032,2.50925,3.5020625,5.249931034,75.62921212,76.67788235,75.77664516,86.20465,76.52996875,65.06448276,21.80954545,28.07617647,30.88345161,25.717025,29.12040625,31.75448276,301.86,301.46,301.7,302.34,302.78,307.2,0.804,0.703,0.784,0.843,0.794,0.802,0.192,0.192,0.193,0.193,0.193,0.201,0,0,0,1,1,0,2.031114517,4.885472952,9.56253624
7/1/2011,US-Kon,0,1,1,1,0,1,0,5.830311111,5.830311111,6.053170213,5.417083333,2.827804348,4.631548387,56.81684444,56.81684444,61.28557447,73.76095833,73.77995652,85.40409677,32.78308889,32.78308889,33.28359574,29.80952083,23.73015217,28.68216129,313.94,313.94,310.1,311.3,303.56,302.8,0.704,0.704,0.785,0.763,0.783,0.84,0.191,0.191,0.191,0.191,0.191,0.191,0,0,0,1,1,0,5.712045303,5.935046279,0
7/8/2011,US-Kon,0,1,1,1,0,1,0,2.835818182,3.390128205,3.230717949,5.830311111,5.830311111,6.053170213,71.84466667,75.45279487,77.38061538,56.81684444,56.81684444,61.28557447,29.15084848,31.36553846,29.66476923,32.78308889,32.78308889,33.28359574,306.66,306.96,309.38,313.94,313.94,310.1,0.749,0.719,0.78,0.704,0.704,0.785,0.197,0.196,0.196,0.191,0.191,0.191,0,0,0,1,1,0,7.931033442,5.757506327,6.079884052
7/9/2011,US-Kon,0,1,1,1,0,1,0,4.991604167,2.835818182,3.390128205,3.230717949,5.830311111,5.830311111,80.45952083,71.84466667,75.45279487,77.38061538,56.81684444,56.81684444,29.95772917,29.15084848,31.36553846,29.66476923,32.78308889,32.78308889,302.76,306.66,306.96,309.38,313.94,313.94,0.791,0.749,0.719,0.78,0.704,0.704,0.198,0.197,0.196,0.196,0.191,0.191,0,0,0,1,1,0,5.08392324,5.939685195,0
7/17/2011,US-Kon,0,1,1,1,0,1,0,4.259893617,5.865522727,4.786057143,3.9734,3.630465116,3.319547619,63.03621277,71.50568182,73.3814,82.05575,65.66918605,62.21066667,33.95429787,33.76440909,33.0232,30.064125,31.31130233,33.4222381,313.18,309.72,303.72,307.54,308.38,307.92,0.718,0.722,0.744,0.79,0.734,0.788,0.196,0.192,0.193,0.195,0.197,0.2,0,0,0,1,1,0,4.657915432,6.608148209,0
7/25/2011,US-Kon,0,1,1,1,0,1,0,2.513581395,3.725666667,4.275553191,4.275553191,4.489021277,4.88375,71.62783721,58.17880556,48.51461702,48.51461702,50.76355319,52.72565909,30.11169767,34.27105556,35.64844681,35.64844681,34.91157447,34.63540909,303.56,314.42,309.5,309.5,314.86,310,0.753,0.641,0.672,0.672,0.67,0.653,0.189,0.194,0.194,0.194,0.195,0.195,0,0,0,1,1,0,5.42283362,5.275235606,0
8/1/2011,US-Kon,1,0,0,0,0,1,0,3.908354167,3.046617021,6.698,3.8396875,2.513581395,3.725666667,49.8745625,73.78002128,48.537075,65.1839375,71.62783721,58.17880556,35.26758333,33.16778723,34.9323,32.22820833,30.11169767,34.27105556,309.34,313.74,310.06,308.7,303.56,314.42,0.691,0.732,0.727,0.693,0.753,0.641,0.181,0.188,0.188,0.188,0.189,0.194,0,0,0,1,1,0,4.33780745,6.532363118,6.037320614
8/2/2011,US-Kon,1,0,0,0,0,1,0,4.572521739,3.908354167,3.046617021,6.698,3.8396875,2.513581395,48.90621739,49.8745625,73.78002128,48.537075,65.1839375,71.62783721,35.064,35.26758333,33.16778723,34.9323,32.22820833,30.11169767,316.72,309.34,313.74,310.06,308.7,303.56,0.65,0.691,0.732,0.727,0.693,0.753,0.182,0.181,0.188,0.188,0.188,0.189,0,0,0,1,1,0,3.977195407,6.186017368,0
8/26/2011,US-Kon,1,0,0,0,0,1,0,2.8815,4.572521739,3.908354167,3.046617021,6.698,3.8396875,39.93920833,48.90621739,49.8745625,73.78002128,48.537075,65.1839375,32.37916667,35.064,35.26758333,33.16778723,34.9323,32.22820833,309.92,316.72,309.34,313.74,310.06,308.7,0.7,0.65,0.691,0.732,0.727,0.693,0.188,0.182,0.181,0.188,0.188,0.188,0,0,0,1,1,0,4.638103884,6.272541166,0
9/2/2011,US-Kon,1,0,0,1,0,1,0,5.542170213,7.051146341,3.616204545,3.522225,3.61076087,2.8815,42.62380851,32.39490244,47.02197727,65.325025,69.35676087,39.93920833,33.01676596,35.91626829,32.50093182,30.252975,28.62213043,32.37916667,309.18,314.84,311.26,306.06,311.74,309.92,0.607,0.615,0.612,0.675,0.609,0.7,0.187,0.187,0.188,0.188,0.187,0.188,0,0,0,1,1,0,1.967276755,5.321352911,2.684110641
9/10/2011,US-Kon,1,0,0,1,0,1,0,2.550666667,2.497595238,2.5775,2.429341463,4.333878049,4.333878049,67.07153333,62.20111905,60.73032609,63.25760976,57.00192683,57.00192683,24.6814,20.01802381,18.24747826,18.058,20.91673171,20.91673171,302.4,305.94,306.56,304.42,303.86,303.86,0.571,0.557,0.6,0.575,0.64,0.64,0.184,0.185,0.188,0.187,0.186,0.186,0,0,0,1,1,0,3.680803732,3.091482876,42.63781738
9/11/2011,US-Kon,1,0,0,1,0,1,0,1.814148936,2.550666667,2.497595238,2.5775,2.429341463,4.333878049,68.05019149,67.07153333,62.20111905,60.73032609,63.25760976,57.00192683,24.36574468,24.6814,20.01802381,18.24747826,18.058,20.91673171,305.04,302.4,305.94,306.56,304.42,303.86,0.621,0.571,0.557,0.6,0.575,0.64,0.182,0.184,0.185,0.188,0.187,0.186,0,0,0,1,1,0,1.831351065,3.645899762,0
7/21/2010,DE-Seh,0,1,1,1,0,0,1,1.58982086,1.983045735,1.172471627,0.7512346,2.54103909,1.445247288,63.63125,50.35791667,52.59145833,60.49520833,60.07708333,53.916875,22.33583333,23.24125,21.15791667,17.69104167,21.83979167,26.10666667,305.74,307.44,307.38,300.26,305.08,308.88,0.415,0.403,0.446,0.234,0.432,0.497,0.219,0.219,0.218,0.216,0.207,0.189,0,0,0,1,1,1,1.336386735,2.984492403,1.826241851
7/30/2010,DE-Seh,0,1,1,1,0,0,1,1.209574098,1.58982086,1.983045735,1.172471627,0.7512346,2.54103909,74.00895833,63.63125,50.35791667,52.59145833,60.49520833,60.07708333,17.39354167,22.33583333,23.24125,21.15791667,17.69104167,21.83979167,300.52,305.74,307.44,307.38,300.26,305.08,0.365,0.415,0.403,0.446,0.234,0.432,0.22,0.219,0.219,0.218,0.216,0.207,0,0,0,1,1,1,2.497144868,2.441387951,1.712411523
10/9/2010,DE-Seh,1,0,1,0,0,0,1,2.260291867,2.643705465,0.776255056,1.994988496,2.709322913,1.290319808,79.10354167,79.561875,76.91479167,67.63708333,67.796875,72.593125,13.50541667,17.70895833,14.84085417,15.11041667,13.896,22.204375,291.6,293.76,296.82,278.56,293.52,302.66,0.535,0.615,0.551,0.495,0.513,0.468,0.146,0.143,0.163,0.163,0.199,0.193,0,0,0,1,1,1,1.601292086,2.120644453,0
10/10/2010,DE-Seh,1,0,1,0,0,0,1,1.867455442,2.260291867,2.643705465,0.776255056,1.994988496,2.709322913,69.17125,79.10354167,79.561875,76.91479167,67.63708333,67.796875,12.3840625,13.50541667,17.70895833,14.84085417,15.11041667,13.896,291.08,291.6,293.76,296.82,278.56,293.52,0.522,0.535,0.615,0.551,0.495,0.513,0.152,0.146,0.143,0.163,0.163,0.199,0,0,0,1,1,1,1.934324913,2.009486299,0.481508523
5/7/2005,US-SP2,0,1,0,1,0,1,1,1.1723,1.73575,1.481588235,3.217615385,3.217615385,2.572823529,37.6111,45.705,62.94235294,30.24923077,30.24923077,48.38882353,25.029,23.1475,22.89294118,16.95169231,16.95169231,25.03647059,301.22,303,297.9,293.86,293.86,300,0.749,0.779,0.958,0.74,0.74,0.759,0.12,0.126,0.127,0.111,0.111,0.111,0,0,1,0,0,1,11.02542083,7.396943665,0
5/23/2005,US-SP2,0,1,0,1,0,1,1,2.618947368,1.853666667,0.7835,0.658,1.59855,1.1723,55.34157895,65.83666667,52.71,69.285,49.0615,37.6111,28.39263158,26.31666667,25.505,23.71,25.752,25.029,305.96,301.68,303.04,303.3,305.28,301.22,0.725,0.781,0.768,0.753,0.703,0.749,0.115,0.115,0.113,0.113,0.113,0.12,0,0,1,0,0,1,8.164054396,8.600163341,6.36339283
1/18/2006,US-SP2,0,0,0,1,0,1,1,2.127571429,1.45,1.580894737,1.6092,2.506363636,2.11,52.50071429,44.85222222,53.43421053,56.738,53.08636364,64.45395238,11.69214286,17.74111111,5.388315789,22.751,30.34545455,30.34866667,286.4,292.5,284.22,295.3,300.02,304.52,0.762,0.777,0.662,0.633,0.787,0.835,0.124,0.122,0.122,0.119,0.109,0.093,0,0,1,0,0,1,3.288914458,4.348901031,0
2/24/2012,US-AR1,0,0,1,0,0,1,0,3.411152174,3.71275,4.144541667,3.904958333,1.857804348,2.940108696,51.09667391,45.12889583,50.39475,57.0234375,55.32654348,54.38971739,4.666456522,12.38483333,10.47502083,19.78502083,18.04576087,31.91982609,288.78,292.04,289.18,301.82,302.22,318.88,0.242,0.253,0.279,0.348,0.359,0.344,0.174,0.171,0.166,0.173,0.17,0.172,0,0,1,0,1,0,1.073792155,1.915784798,1.283011913
3/27/2012,US-AR1,0,0,1,1,0,1,0,5.483744681,4.413195652,2.984765957,1.970086957,8.468333333,5.712446809,75.66212766,83.1205,77.30446809,77.79019565,87.52310417,79.9343617,20.74340426,19.42334783,16.96546809,11.99608696,20.31172917,20.25089362,306.1,303.1,300.86,298.1,300.42,302.78,0.387,0.386,0.417,0.423,0.389,0.341,0.167,0.166,0.166,0.17,0.17,0.171,0,0,1,0,1,0,2.979626618,2.889602755,0.054312106
9/3/2012,US-AR1,1,0,0,1,0,1,0,2.904291667,2.588434783,1.192826087,1.542,2.058170213,2.58526087,44.14310417,46.74656522,54.7506087,55.75367391,74.06040426,60.13519565,32.41527083,30.46856522,28.42347826,26.27615217,23.42042553,21.64132609,320.1,313.6,317,313.18,305.16,307.08,0.419,0.396,0.383,0.372,0.094,0.378,0.169,0.168,0.168,0.168,0.178,0.182,0,0,1,0,1,0,1.353831799,2.842840118,2.341912508
8/12/2015,US-Twt,1,0,0,0,0,0,1,2.769317813,3.605929667,4.0859775,2.638813478,5.626454521,5.438223,60.62241667,60.88308333,61.75034783,59.16928261,65.2245625,66.88845833,20.13320833,20.13552083,20.57191304,21.70404348,19.27239583,19.76572917,301.14,304.18,301,306.84,299.76,301,0.694,0.709,0.75,0.786,0.741,0.744,0.196,0.193,0.193,0.194,0.195,0.194,0,0,1,0,1,1,6.835347031,6.09427664,8.228583336
8/20/2015,US-Twt,1,0,0,0,0,0,1,4.414378271,4.982054604,4.368871188,4.368871188,2.578993458,3.677734125,69.81670833,67.820375,63.73847917,63.73847917,64.05189583,64.57541667,18.27391667,18.787375,20.35608333,20.35608333,20.56866667,20.47789583,301.42,300.1,303.26,303.26,303.8,304.2,0.737,0.67,0.746,0.746,0.775,0.64,0.203,0.202,0.202,0.202,0.199,0.196,0,0,1,0,1,1,5.479134096,6.026379269,7.501606703
4/26/2014,US-Ced,0,1,0,0,1,0,0,2.52076087,3.209630435,4.065958333,1.946875,2.931456522,2.3016875,75.34217391,31.90369565,51.07541667,53.88814583,53.28130435,54.8160625,11.78586957,9.135869565,10.80416667,5.276041667,1.396304348,6.600625,292.64,289.22,290.68,288.42,279.32,285.38,0.497,0.637,0.299,0.615,0.624,0.622,0.126,0.129,0.129,0.106,0.111,0.112,0,0,1,1,0,0,2.75343213,2.816946557,3.884228468
10/18/2014,US-Ced,1,0,1,0,1,0,0,2.13475,1.69923913,2.597673913,2.137958333,1.985395833,2.52076087,70.10625,81.08806522,64.91891304,62.97166667,56.24729167,75.34217391,15.643125,15.5776087,25.27173913,21.475,18.09502083,11.78586957,293.88,291.74,303.68,294.28,299.12,292.64,0.732,0.698,0.773,0.811,0.748,0.497,0.111,0.111,0.113,0.114,0.109,0.126,0,0,1,1,0,0,2.035301393,3.552756792,2.951735258
11/4/2014,US-Ced,1,0,1,1,1,0,0,1.8223125,2.13475,1.69923913,2.597673913,2.137958333,1.985395833,43.63770833,70.10625,81.08806522,64.91891304,62.97166667,56.24729167,13.75104167,15.643125,15.5776087,25.27173913,21.475,18.09502083,289.38,293.88,291.74,303.68,294.28,299.12,0.65,0.732,0.698,0.773,0.811,0.748,0.116,0.111,0.111,0.113,0.114,0.109,0,0,1,1,0,0,1.895061122,3.758181757,0
5/22/2008,DK-Ris,0,1,0,1,0,0,1,1.351666667,2.013333333,0.908958333,1.085833333,1.95875,2.939166667,71.92020833,62.31208333,68.02083333,67.23104167,72.10645833,71.79208333,9.840395833,15.91839583,14.99760417,14.02452083,11.89064583,12.11239583,293.96,301.54,300.72,301.66,295.72,292.32,0.778,0.746,0.619,0.529,0.583,0.567,0.191,0.178,0.179,0.179,0.176,0.175,0,0,1,1,0,1,2.806143214,3.246405083,2.898472548
5/23/2008,DK-Ris,0,1,0,1,0,0,1,1.486666667,1.351666667,2.013333333,0.908958333,1.085833333,1.95875,69.74458333,71.92020833,62.31208333,68.02083333,67.23104167,72.10645833,11.327625,9.840395833,15.91839583,14.99760417,14.02452083,11.89064583,297.9,293.96,301.54,300.72,301.66,295.72,0.668,0.778,0.746,0.619,0.529,0.583,0.192,0.191,0.178,0.179,0.179,0.176,0,0,1,1,0,1,3.557805798,3.262693332,2.805195332
5/31/2008,DK-Ris,0,1,0,1,0,0,1,2.300833333,2.789166667,3.328125,3.820833333,1.3275,2.638125,70.82625,70.86479167,71.67625,66.37645833,75.67041667,59.593125,15.22,14.8325,12.67708333,11.91164583,10.54164583,11.279125,295.1,291.6,286.32,290.84,287.4,296.22,0.732,0.766,0.697,0.76,0.747,0.757,0.195,0.192,0.19,0.188,0.187,0.187,0,0,1,1,0,1,4.530451531,4.000572149,6.287763596
7/1/2015,FR-Gri,0,1,1,1,0,0,1,2.304791136,1.765810204,2.31383623,2.031224465,2.930613521,2.21453425,43.40729167,53.50635417,61.96083333,70.62458333,63.08614583,63.88291667,28.36197917,20.59395833,18.8228125,14.84489583,21.2484375,14.87635417,313.5,304.48,302.44,295.3,303.42,300.78,0.527,0.565,0.68,0.168,0.704,0.538,0.195,0.195,0.195,0.199,0.193,0.192,0,0,1,1,1,0,5.280913019,4.238133268,0
3/30/2018,DE-RuS,0,0,1,1,0,0,1,2.501234417,3.33983125,3.201744167,3.565990625,1.474786421,1.162177242,72.5605968,53.16415193,61.13566989,70.49029587,82.29124762,78.29364795,8.362234375,-0.562637276,-0.246480645,0.56002173,6.510540833,10.65638427,280.38,276.72,275.74,277.44,280.78,284.76,0.494,0.639,0.537,0.565,0.709,0.584,0.149,0.164,0.164,0.162,0.147,0.145,0,1,0,0,0,0,2.980444922,2.168135529,0.88712126
4/6/2018,DE-RuS,0,1,0,0,0,0,1,2.493253875,2.501234417,3.33983125,3.201744167,3.565990625,1.474786421,69.51692405,72.5605968,53.16415193,61.13566989,70.49029587,82.29124762,7.382752674,8.362234375,-0.562637276,-0.246480645,0.56002173,6.510540833,289,280.38,276.72,275.74,277.44,280.78,0.725,0.494,0.639,0.537,0.565,0.709,0.164,0.149,0.164,0.164,0.162,0.147,0,1,0,0,0,0,3.559653478,3.10142606,3.025732756
4/7/2018,DE-RuS,0,1,0,0,0,0,1,2.300339729,2.493253875,2.501234417,3.33983125,3.201744167,3.565990625,57.03487371,69.51692405,72.5605968,53.16415193,61.13566989,70.49029587,14.08159896,7.382752674,8.362234375,-0.562637276,-0.246480645,0.56002173,288.9,289,280.38,276.72,275.74,277.44,0.57,0.725,0.494,0.639,0.537,0.565,0.164,0.164,0.149,0.164,0.164,0.162,0,1,0,0,0,0,3.474724102,3.208070038,3.255389929
9/18/2017,US-A74,1,0,0,1,0,0,1,2.280413333,4.069909091,1.89805,2.025625,5.5016,5.5016,63.396,37.38181818,28.085,32.015,43.24,43.24,26.60866667,30.39954545,30.265,28.8975,27.69,27.69,300.78,309.5,302.78,308.28,303.04,303.04,0.656,0.659,0.627,0.622,0.551,0.551,0.186,0.184,0.183,0.184,0.156,0.156,0,1,0,0,0,1,9.77138787,5.799547884,4.164859772
3/23/2013,US-Tw2,0,0,1,1,0,0,1,3.803621622,4.523128205,2.957446809,2.957446809,4.239222222,2.144444444,31.01840541,62.48820513,55.80342553,55.80342553,59.36488889,46.29333333,13.28872973,12.00661538,13.85468085,13.85468085,15.47957778,22.49666667,294.26,295.58,299.62,299.62,299.46,295.94,0.48,0.591,0.514,0.514,0.533,0.394,0.159,0.164,0.138,0.138,0.138,0.138,0,1,0,1,1,1,3.324058933,2.480584444,3.092366815
4/8/2013,US-Tw2,0,1,0,0,0,0,1,7.937761905,5.445,3.231625,2.946913043,3.467904762,4.374138889,44.06,69.18566667,71.96377083,64.38,67.48528571,66.62027778,13.54621429,14.40720513,14.875625,16.5396087,16.6852381,16.11336111,290.82,294.08,295.02,299.14,292.14,298.48,0.665,0.407,0.573,0.489,0.432,0.454,0.154,0.154,0.155,0.155,0.154,0.154,0,1,0,1,1,1,5.640940095,3.427495863,5.112141609
4/9/2013,US-Tw2,0,1,0,0,0,0,1,7.348021739,7.937761905,5.445,3.231625,2.946913043,3.467904762,35.49891304,44.06,69.18566667,71.96377083,64.38,67.48528571,16.11673913,13.54621429,14.40720513,14.875625,16.5396087,16.6852381,295.22,290.82,294.08,295.02,299.14,292.14,0.594,0.665,0.407,0.573,0.489,0.432,0.158,0.154,0.154,0.155,0.155,0.154,0,1,0,1,1,1,4.888329492,3.247280981,7.467412472
4/16/2013,US-Tw2,0,1,0,0,0,0,1,6.93497561,6.608191489,6.84287234,6.84287234,3.986604651,5.507243902,35.87073171,62.10917021,53.39025532,53.39025532,54.55467442,54.66317073,13.08421951,11.35978723,14.14595745,14.14595745,17.19744186,16.82292683,294.58,299.44,301.02,301.02,305.38,298.42,0.468,0.594,0.564,0.564,0.448,0.634,0.162,0.161,0.161,0.161,0.16,0.158,0,1,0,1,1,1,4.626148691,2.911343581,4.838779449
8/21/2018,US-Bi2,0,1,1,1,0,0,1,3.773145167,3.773145167,1.67944859,1.995170205,2.810569311,3.449333314,76.56958333,76.56958333,48.47538462,58.62977273,68.616,63.44228571,16.11145833,16.11145833,23.88846154,21.68068182,18.81577778,19.832,300.5,300.5,306.62,302.36,301.8,301.88,0.776,0.776,0.826,0.805,0.831,0.807,0.194,0.194,0.195,0.195,0.195,0.194,0,1,1,0,0,0,2.994916207,4.901716575,4.14589119
8/28/2018,US-Bi2,0,1,1,1,0,0,1,3.216486729,2.475397396,2.704905556,1.786146275,2.409185604,3.597426553,72.42583333,72.698125,61.98388889,65.14025,72.10479167,68.79212766,16.91583333,16.95791667,18.86333333,19.24725,17.119375,17.4706383,300.56,295.76,301.26,298.88,298.6,299.02,0.784,0.766,0.808,0.698,0.758,0.749,0.19,0.19,0.19,0.19,0.19,0.191,0,1,1,0,0,0,3.042639369,5.168420591,4.184374809
9/6/2018,US-Bi2,1,0,0,0,0,0,1,2.212317692,2.212317692,1.888170222,2.896682917,3.216486729,2.475397396,66.31076923,66.31076923,64.3025,68.46708333,72.42583333,72.698125,18.8674359,18.8674359,18.84305556,17.71,16.91583333,16.95791667,303.5,303.5,300.12,299.56,300.56,295.76,0.667,0.667,0.758,0.798,0.784,0.766,0.189,0.189,0.188,0.189,0.19,0.19,0,1,1,0,0,0,4.05822585,4.381802311,5.752086163
9/13/2018,US-Bi2,1,0,0,0,0,0,1,1.794714359,2.91092178,2.212317692,2.212317692,1.888170222,2.896682917,56.73461538,40.52829268,66.31076923,66.31076923,64.3025,68.46708333,18.33435897,21.8002439,18.8674359,18.8674359,18.84305556,17.71,301.66,304.58,303.5,303.5,300.12,299.56,0.662,0.75,0.667,0.667,0.758,0.798,0.19,0.191,0.189,0.189,0.188,0.189,0,1,1,0,0,0,2.940997247,4.688462067,2.439720392
12/2/2018,US-Bi2,1,0,1,1,0,0,1,1.873067674,2.798082045,5.212585792,5.481812487,1.794714359,2.91092178,78.92023256,74.84,68.47208333,26.78487179,56.73461538,40.52829268,8.049162791,11.15227273,17.89104167,18.54307692,18.33435897,21.8002439,286.32,284.98,299.26,299.8,301.66,304.58,0.263,0.226,0.355,0.31,0.662,0.75,0.051,0.052,0.146,0.159,0.19,0.191,0,1,1,0,0,0,1.11357537,1.91818262,1.048386216