Error Metrics,NGBoost Validation Scores,NGBoost Validation Scores std, NGBoost Test Scores
mean target,3.366122263183274,3.366122263183274,3.366122263183274
F1,0.3605811365817112,0.44455781223907626,0.7764016755828392
F2,0.36705468626339016,0.4513755353634513,0.7303728021036155
F05,0.3605811365817112,0.44455781223907626,0.8286223397835063
Precision,0.3508367195081304,0.43484235555164164,0.8675219397609354
Recall,0.37166719311552787,0.45640102580663305,0.7026036250727198
R2,0.8325818188859045,0.2243333956155094,0.5731200629805744
Adjusted R2,0.5912308209246524,0.5475859290163323,0.19960011808857703
RMSE,0.3613300775028485,0.37537766611291595,1.415820318901865
MSE,0.2714678171245943,0.3564174071689632,2.0045471754153787
MAE,0.25783339166145397,0.2853936384122978,0.8911554185311602
MAPE,10.906316043849253,12.972916700197079,26.674230765963287
Accuracy,89.09368395615074,12.972916700197079,73.32576923403671
Pearson C.C.,0.920792932866577,0.12431378709680088,0.8019088541806988
Spearman C.C.,0.9138103794296665,0.14024647661752504,0.7642002802134501
Spatial Distance,0.079207067133423,0.12431378709680087,0.19809114581930132
NMI,0.9932265968947636,0.0038528371027520413,0.9915510431734126
AIC,-297.24814312524137,217.86740015691464,73.71432788326571
BIC,-297.24814312524137,217.86740015691464,73.71432788326571
Probabilistic RMSE,0.3613300775028485,0.37537766611291595,1.415820318901865
Probabilistic NLL,2.064386237502062,0.38662976113151865,1.9972793030005427
Data Size train,-,-,"(417, 49)"
Data Size test,-,-,"(106, 50)"
Training Time (seconds),-,-,4.7670981884002686
Testing Time (seconds),-,-,0.0365447998046875
