For param {'n_estimators': 35, 'random_state': 10, 'min_samples_split': 90, 'min_samples_leaf': 60, 'max_features': 0.5, 'max_depth': 4, 'learning_rate': 0.1, 'subsample': 0.6}
 *************************FOLDS Average***************************** 

Utility Based Metrics Across All
F1:  0.6882174464890589
F2:  0.6774034024618887
F05: 0.7009759347494963
precision:  0.7108176515887842
recall: 0.74095543150056

Regression Error Metrics Across All
R2: 0.5837268157116124
Adj-R2: 0.46285618070046686
RMSE: 1.4929398742678948
MSE: 2.2387769194960856
MAE: 1.0742974292386174
MAPE: 35.7525732895344
Accuracy: 64.24742671046559
AIC: 177.8820364846019
BIC: 177.8820364846019
NMI: 0.9985609474520416

Correlations Across All
Pearson: 0.7725932106864782
Spearman: 0.7453523055426459
Distance: 0.22740678931352182
************************REPETITIONS Average*******************************

Utility Based Metrics Across All
F1:  0.6882174464890589
F2:  0.6774034024618887
F05: 0.7009759347494963
precision:  0.7108176515887842
recall: 0.74095543150056

Regression Error Metrics Across All
R2: 0.5837268157116124
Adj-R2: 0.46285618070046686
RMSE: 1.4929398742678948
MSE: 2.2387769194960856
MAE: 1.0742974292386174
MAPE: 35.7525732895344
Accuracy: 64.24742671046559
AIC: 177.8820364846019
BIC: 177.8820364846019
NMI: 0.9985609474520416

Correlations Across All
Pearson: 0.7725932106864782
Spearman: 0.7453523055426459
Distance: 0.22740678931352182

Utility Based Metrics Across All Std
F1:  0.23299196875946845
F2:  0.2272936983081129
F05: 0.24235468215298778
precision:  0.2513737117925084
recall: 0.028414756071724334

Regression Error Metrics Across All Std
R2: 0.026646040283492975
Adj-R2: 0.03440454733380117
RMSE: 0.0995361809446616
MSE: 0.30109320357113056
MAE: 0.06040138606467053
MAPE: 2.5432976741517543
Accuracy: 2.5432976741517526
AIC: 29.317055266139278
BIC: 29.317055266139278
NMI: 0.0006952883132291784

Correlations Across All Std
Pearson: 0.021409438434152283
Spearman: 0.036229674335654174
Distance: 0.021409438434152186
