Error Metrics,Validation Scores standard deviation,Validation Scores,Testing Scores
mean target,3.8910018472706698,3.8910018472706698,3.8910018472706698
F1,0.23299196875946845,0.6882174464890589,0.7544581886835328
F2,0.2272936983081129,0.6774034024618887,0.7647943432332754
F05,0.24235468215298778,0.7009759347494963,0.7443976937580258
Precision,0.2513737117925084,0.7108176515887842,0.7378384436633569
Recall,0.028414756071724334,0.74095543150056,0.7718439036516741
R2,0.026646040283492975,0.5837268157116124,0.5839961994868027
Adjusted R2,0.03440454733380117,0.46285618070046686,0.5437637236151202
RMSE,0.0995361809446616,1.4929398742678948,1.474827397575965
MSE,0.30109320357113056,2.2387769194960856,2.1751158526406935
MAE,0.06040138606467053,1.0742974292386174,1.1075348583643192
MAPE,2.5432976741517543,35.7525732895344,36.226384301827046
Accuracy,2.5432976741517526,64.24742671046559,63.773615698172954
Pearson C.C.,0.021409438434152283,0.7725932106864782,0.7648781198667691
Spearman C.C.,0.036229674335654174,0.7453523055426459,0.7625648338656131
Spatial Distance,0.021409438434152186,0.22740678931352182,0.23512188013323077
NMI,0.0006952883132291784,0.9985609474520416,0.9920358292330137
AIC,29.317055266139278,177.8820364846019,441.3825355038804
BIC,29.317055266139278,177.8820364846019,441.3825355038804
Data Size train,-,-,2232.0
Data Size test,-,-,568.0
Training Time (seconds),-,-,0.23395705223083496
Testing Time (seconds),-,-,0.002513885498046875
