Error Metrics,Testing Scores
mean target,3.7308870439896147
F1,0.7357300148516035
F2,0.7014668343541748
F05,0.7735122574255461
Precision,0.8009326714987393
Recall,0.6803442685548289
R2,0.36119366889583926
Adjusted R2,0.3130374993202948
RMSE,1.4763109850280252
MSE,2.179494124514418
MAE,1.0818332112567317
MAPE,37.77182349018967
Accuracy,62.22817650981033
Pearson C.C.,0.6276000051386843
Spearman C.C.,0.6804746864452963
Spatial Distance,0.3723999948613156
NMI,0.9966434203248464
AIC,545.3649578282517
BIC,545.3649578282517
Data Size train,2746.0
Data Size test,700.0
Training Time (seconds),31.296759605407715
Testing Time (seconds),0.6213774681091309
