Total Number of rare cases: 28 out of 1954
Total Number of rare cases: 28 out of 1954
Percentage of Rare Cases: 1.43%

Total Number of rare cases: 28 out of 1954
Percentage of Rare Cases: 1.43%

Percentage of Rare Cases: 1.43%

number of rare in train: 22/1551
number of rare in train: 22/1551
==> 1.4184397163120568%%
==> 1.4184397163120568%%
number of rare in train: 22/1551
number of rare in test: 6/403
number of rare in test: 6/403
==> 1.4184397163120568%%
==> 1.488833746898263%%
number of rare in test: 6/403
==> 1.488833746898263%%
==> 1.488833746898263%%
