Error Metrics,Testing Scores
mean target,2.4700761449407413
F1,0.7253250029366857
F2,0.6945376853939778
F05,0.7589683909763306
Precision,0.7831865448893673
Recall,0.6754248560326814
R2,0.36802000287854597
Adjusted R2,0.30892263673550924
RMSE,1.1473279603542135
MSE,1.3163614486105597
MAE,0.8187458252548842
MAPE,35.65976013310115
Accuracy,64.34023986689886
Pearson C.C.,0.6079138148567051
Spearman C.C.,0.6085947644922612
Spatial Distance,0.3920861851432945
NMI,0.9980954762789329
AIC,157.77621355746322
BIC,157.77621355746322
Data Size train,2247.0
Data Size test,574.0
Training Time (seconds),29.6536648273468
Testing Time (seconds),0.610344648361206
