For param {'n_trees': 100, 'max_depth': 7, 'learning_rate': 0.1}
 *************************FOLDS Average***************************** 

Utility Based Metrics Across All
F1:  0.7159783629909326
F2:  0.7107159379085456
F05: 0.7224895474111342
precision:  0.7276225953161731
recall: 0.7078229278533696

Regression Error Metrics Across All
R2: 0.3654031973217126
Adj-R2: 0.32892587316698363
RMSE: 1.6675481239312007
MSE: 2.7936198352227377
MAE: 1.230724376197212
MAPE: 42.147535328017476
Accuracy: 57.852464671982524
AIC: 918.5664364505126
BIC: 918.5664364505126
NMI: 0.9909415930250469

Correlations Across All
Pearson: 0.6500306836496148
Spearman: 0.6430169530607424
Distance: 0.3499693163503852
************************REPETITIONS Average*******************************

Utility Based Metrics Across All
F1:  0.7159783629909326
F2:  0.7107159379085456
F05: 0.7224895474111342
precision:  0.7276225953161731
recall: 0.7078229278533696

Regression Error Metrics Across All
R2: 0.3654031973217126
Adj-R2: 0.32892587316698363
RMSE: 1.6675481239312007
MSE: 2.7936198352227377
MAE: 1.230724376197212
MAPE: 42.147535328017476
Accuracy: 57.852464671982524
AIC: 918.5664364505126
BIC: 918.5664364505126
NMI: 0.9909415930250469

Correlations Across All
Pearson: 0.6500306836496148
Spearman: 0.6430169530607424
Distance: 0.3499693163503852
For param {'n_trees': 100, 'max_depth': 6, 'learning_rate': 0.1}
 *************************FOLDS Average***************************** 

Utility Based Metrics Across All
F1:  0.7243986656400763
F2:  0.7118214721435531
F05: 0.7385406807641957
precision:  0.7489474071055209
recall: 0.7042167100433652

Regression Error Metrics Across All
R2: 0.37782184155165044
Adj-R2: 0.3420574736442016
RMSE: 1.6540814643930613
MSE: 2.7487050233538
MAE: 1.2240534402918393
MAPE: 42.21535174158289
Accuracy: 57.78464825841711
AIC: 904.0153761395802
BIC: 904.0153761395802
NMI: 0.9839823217877571

Correlations Across All
Pearson: 0.6550965114166105
Spearman: 0.6369303294356596
Distance: 0.34490348858338954
************************REPETITIONS Average*******************************

Utility Based Metrics Across All
F1:  0.7243986656400763
F2:  0.7118214721435531
F05: 0.7385406807641957
precision:  0.7489474071055209
recall: 0.7042167100433652

Regression Error Metrics Across All
R2: 0.37782184155165044
Adj-R2: 0.3420574736442016
RMSE: 1.6540814643930613
MSE: 2.7487050233538
MAE: 1.2240534402918393
MAPE: 42.21535174158289
Accuracy: 57.78464825841711
AIC: 904.0153761395802
BIC: 904.0153761395802
NMI: 0.9839823217877571

Correlations Across All
Pearson: 0.6550965114166105
Spearman: 0.6369303294356596
Distance: 0.34490348858338954
