For param {'n_trees': 100, 'max_depth': 7, 'learning_rate': 0.1}
 *************************FOLDS Average***************************** 

Utility Based Metrics Across All
F1:  0.46477651691613253
F2:  0.4423470441364238
F05: 0.48961116926766846
precision:  0.5076994125378963
recall: 0.5724398517420392

Regression Error Metrics Across All
R2: 0.484854853558944
Adj-R2: 0.4558872579629917
RMSE: 1.2883324733959214
MSE: 1.6724905788974485
MAE: 0.9729796828627345
MAPE: 33.50178853041354
Accuracy: 66.49821146958647
AIC: 459.66690180150374
BIC: 459.66690180150374
NMI: 0.9903165303931738

Correlations Across All
Pearson: 0.7134182684725473
Spearman: 0.7099736456121126
Distance: 0.2865817315274528
************************REPETITIONS Average*******************************

Utility Based Metrics Across All
F1:  0.46477651691613253
F2:  0.4423470441364238
F05: 0.48961116926766846
precision:  0.5076994125378963
recall: 0.5724398517420392

Regression Error Metrics Across All
R2: 0.484854853558944
Adj-R2: 0.4558872579629917
RMSE: 1.2883324733959214
MSE: 1.6724905788974485
MAE: 0.9729796828627345
MAPE: 33.50178853041354
Accuracy: 66.49821146958647
AIC: 459.66690180150374
BIC: 459.66690180150374
NMI: 0.9903165303931738

Correlations Across All
Pearson: 0.7134182684725473
Spearman: 0.7099736456121126
Distance: 0.2865817315274528
For param {'n_trees': 100, 'max_depth': 6, 'learning_rate': 0.1}
 *************************FOLDS Average***************************** 

Utility Based Metrics Across All
F1:  0.3172592927900606
F2:  0.30749258528269907
F05: 0.3277749689166582
precision:  0.33524450596847194
recall: 0.5722473680336598

Regression Error Metrics Across All
R2: 0.4989979356475077
Adj-R2: 0.4708258267603739
RMSE: 1.2713512022832718
MSE: 1.6259406647705936
MAE: 0.9571486823234057
MAPE: 33.34787088857096
Accuracy: 66.65212911142905
AIC: 436.8480040647698
BIC: 436.8480040647698
NMI: 0.9889444466450488

Correlations Across All
Pearson: 0.7193299489599403
Spearman: 0.7162470466086595
Distance: 0.2806700510400596
************************REPETITIONS Average*******************************

Utility Based Metrics Across All
F1:  0.3172592927900606
F2:  0.30749258528269907
F05: 0.3277749689166582
precision:  0.33524450596847194
recall: 0.5722473680336598

Regression Error Metrics Across All
R2: 0.4989979356475077
Adj-R2: 0.4708258267603739
RMSE: 1.2713512022832718
MSE: 1.6259406647705936
MAE: 0.9571486823234057
MAPE: 33.34787088857096
Accuracy: 66.65212911142905
AIC: 436.8480040647698
BIC: 436.8480040647698
NMI: 0.9889444466450488

Correlations Across All
Pearson: 0.7193299489599403
Spearman: 0.7162470466086595
Distance: 0.2806700510400596
