Error Metrics,Validation Scores,Testing Scores
mean target,3.6637357436311424,3.6637357436311424
F1,0.3172592927900606,0.7589901628173558
F2,0.30749258528269907,0.7419814217211521
F05,0.3277749689166582,0.7767969954317895
Precision,0.33524450596847194,0.7891397816670996
Recall,0.5722473680336598,0.7310595389069126
R2,0.4989979356475077,0.5282947631429651
Adjusted R2,0.4708258267603739,0.5075651159627008
RMSE,1.2713512022832718,1.2574919807238627
MSE,1.6259406647705936,1.5812860815848233
MAE,0.9571486823234057,0.9376602149953952
MAPE,33.34787088857096,33.07307567687197
Accuracy,66.65212911142905,66.92692432312802
Pearson C.C.,0.7193299489599403,0.7329313944624964
Spearman C.C.,0.7162470466086595,0.7544209066878319
Spatial Distance,0.2806700510400596,0.26706860553750333
NMI,0.9889444466450488,0.9947575133456629
AIC,436.8480040647698,533.847842745364
BIC,436.8480040647698,533.847842745364
Data Size train,-,4607.0
Data Size test,-,1165.0
Training Time (seconds),-,22.564358234405518
Testing Time (seconds),-,0.6813280582427979
