Error Metrics,Testing
Average,3.7471547625276496
Average Testing,3.573871584393934
R2,0.41
Adjusted R2,0.4
RMSE,1.46
MSE,2.13
MAE,1.07
MAPE,37.11
Accuracy,62.89
Pearson C.C.,0.6675629534949221
Spearman C.C.,0.72
Spatial Distance,0.3324370465050781
NMI,1.0
Data Size,10911
AIC,1
BIC,1
Relative Error,56.35
Uncertainty,None
