Error Metrics,Testing
Average,3.7471547625276496
Average Testing,3.573871584393934
R2,0.39
Adjusted R2,0.38
RMSE,1.49
MSE,2.21
MAE,1.1
MAPE,38.0
Accuracy,62.0
Pearson C.C.,0.6539865004253305
Spearman C.C.,0.7
Spatial Distance,0.34601349957466954
NMI,1.0
Data Size,10911
AIC,1
BIC,1
Relative Error,58.69
Uncertainty,None
