Error Metrics,Validation Scores,Testing Scores
mean target,0.6637404969898656,0.6637404969898656
F1,0.40515007771553985,0.5343486034339946
F2,0.41027669404031153,0.5244455447853009
F05,0.4019530321891388,0.5446328573123995
Precision,0.4008178069805498,0.5517118120198233
Recall,0.5023192413383214,0.5180449423646749
R2,-0.3412378608055687,0.0246687086754257
Adjusted R2,-2.9922523660308498,-0.8603541297487252
RMSE,0.7667851665227603,0.7283818690302547
MSE,0.5947204802241906,0.5305401471320071
MAE,0.5832904102346956,0.5443539480472386
MAPE,,
Accuracy,,
Pearson C.C.,0.03955675420132657,0.22860159392285173
Spearman C.C.,0.042895214352173805,0.1598821909679872
Spatial Distance,0.9604432457986734,0.7713984060771483
NMI,0.8798458750142452,0.8819025113341437
AIC,-40.56881642673373,-65.92140317153145
BIC,-40.56881642673373,-65.92140317153145
Data Size train,-,374.0
Data Size test,-,104.0
Training Time (seconds),-,10.33202338218689
Testing Time (seconds),-,0.5565700531005859
