
We dont have both We have only high rare
Total Number of rare cases: 735 out of 10911
Percentage of Rare Cases: 6.74%

number of rare in train: 587/8718
==> 6.733195687084194%%
number of rare in test: 148/2193
==> 6.74874601003192%%


The size of the original data is (8718, 38)
The size of the oversampled data is (8841, 38)

We dont have both We have only high rare
Total Number of rare cases: 740 out of 8841
Percentage of Rare Cases: 8.37%
