Error Metrics,Testing
Average,3.7471547625276496
Average Testing,3.573871584393934
R2,0.51
Adjusted R2,0.5
RMSE,1.32
MSE,1.75
MAE,0.97
MAPE,33.22
Accuracy,66.78
Pearson C.C.,0.7358453263428071
Spearman C.C.,0.76
Spatial Distance,0.26415467365719314
NMI,1.0
Data Size,10911
AIC,1
BIC,1
Relative Error,46.73
Uncertainty,None
