Error Metrics,Validation Scores,Testing Scores
mean target,4.190281449541959,4.190281449541959
F1,1.9999718137946085e-05,0.8088918955018687
F2,4.999718149892872e-05,0.7594856936305586
F05,1.2499955958587377e-05,0.8651733072945388
Precision,1e-05,0.9072569722359473
Recall,0.7113427504740566,0.7297700092503601
R2,0.442313154594628,0.4708806512930016
Adjusted R2,0.398826119636612,0.4389116647496688
RMSE,1.325627554564554,1.2745843523019729
MSE,1.7969650403184338,1.6245652711330396
MAE,1.0116702953279109,0.9403247199872282
MAPE,29.95490277682929,32.55530756371826
Accuracy,70.0450972231707,67.44469243628174
Pearson C.C.,0.6853387135064029,0.7064738135623836
Spearman C.C.,0.6973933806413375,0.7312580564532543
Spatial Distance,0.3146612864935972,0.2935261864376164
NMI,0.9910312870900146,0.996157571169282
AIC,367.44610206532536,417.7918591535943
BIC,367.44610206532536,417.7918591535943
Data Size train,-,3392.0
Data Size test,-,861.0
Training Time (seconds),-,19.137701749801636
Testing Time (seconds),-,0.655989408493042
