Error Metrics,Testing Avg,Testing Head 1,Testing Head 2,Testing Head 3,Testing Head 4,Testing Head 5
Average,3.7471547625276496,3.7471547625276496,3.7471547625276496,3.7471547625276496,3.7471547625276496,3.7471547625276496
Average Testing,3.573871584393934,3.573871584393934,3.573871584393934,3.573871584393934,3.573871584393934,3.573871584393934
R2,0.63,0.59,0.58,0.59,0.62,0.6
Adjusted R2,0.62,0.58,0.57,0.58,0.61,0.59
RMSE,1.15,1.21,1.23,1.21,1.17,1.2
MSE,1.33,1.47,1.52,1.47,1.38,1.43
MAE,0.82,0.87,0.88,0.86,0.86,0.86
MAPE,26.9,28.35,28.54,26.2,28.95,29.09
Accuracy,73.1,71.65,71.46,73.8,71.05,70.91
Pearson C.C.,0.7976499998459007,0.7752263781416904,0.7659448909359148,0.7852017324132252,0.7874563197587844,0.7783182046411978
Spearman C.C.,0.8,0.78,0.77,0.79,0.79,0.78
Spatial Distance,0.20235000015409943,0.22477362185830962,0.23405510906408533,0.2147982675867749,0.21254368024121573,0.22168179535880228
NMI,1.0,1.0,1.0,0.9999589127109856,1.0,1.0
Data Size,10911,10911,10911,10911,10911,10911
AIC,[625.6057  625.65765 625.3528  ... 625.1261  625.20276 625.41925],[842.3921  842.44403 842.13916 ... 841.9125  841.98914 842.2056 ],[923.83997 923.8919  923.58704 ... 923.36035 923.437   923.6535 ],[850.6207  850.67267 850.3678  ... 850.1411  850.2178  850.43427],[701.65625 701.7082  701.4033  ... 701.17664 701.2533  701.4698 ],[790.8112  790.86316 790.5583  ... 790.3316  790.40826 790.62476]
BIC,[627.16815 627.3678  626.19525 ... 625.3233  625.61816 626.4508 ],[843.9545  844.1542  842.9816  ... 842.1097  842.40454 843.2372 ],[925.4024  925.60205 924.4295  ... 923.55756 923.8524  924.68506],[852.18317 852.3828  851.21027 ... 850.3383  850.6332  851.4658 ],[703.2187  703.41833 702.2458  ... 701.37384 701.6687  702.50134],[792.37366 792.5733  791.40076 ... 790.5288  790.82367 791.6563 ]
Relative Error,38.56,43.04,44.5,44.97,38.35,40.47
Uncertainty,None,None,None,None,None,None
