Total Number of rare cases: 468 out of 4114
Percentage of Rare Cases: 11.38%

number of rare in train: 374/3289
==> 11.37123745819398%%
number of rare in test: 94/825
==> 11.393939393939394%%
Total Number of rare cases: 468 out of 4114
Percentage of Rare Cases: 11.38%

number of rare in train: 374/3289
==> 11.37123745819398%%
number of rare in test: 94/825
==> 11.393939393939394%%
The size of the original data is (3289, 47)
The size of the oversampled data is (3375, 47)
Total Number of rare cases: 517 out of 3375
Percentage of Rare Cases: 15.32%

The percentage of rare values in dataset after smogn are 15.318518518518518
