Total Number of rare cases: 468 out of 4114
Percentage of Rare Cases: 11.38%

number of rare in train: 374/3289
==> 11.37123745819398%%
number of rare in test: 94/825
==> 11.393939393939394%%
Total Number of rare cases: 468 out of 4114
Percentage of Rare Cases: 11.38%

number of rare in train: 374/3289
==> 11.37123745819398%%
number of rare in test: 94/825
==> 11.393939393939394%%
The size of the original data is (3289, 47)
The size of the oversampled data is (3375, 47)
Total Number of rare cases: 517 out of 3375
Percentage of Rare Cases: 15.32%

The percentage of rare values in dataset after smogn are 15.318518518518518
Total Number of rare cases: 117 out of 1471
Percentage of Rare Cases: 7.95%

number of rare in train: 93/1175
==> 7.914893617021276%%
number of rare in test: 24/296
==> 8.108108108108109%%
Total Number of rare cases: 117 out of 1471
Percentage of Rare Cases: 7.95%

number of rare in train: 93/1175
==> 7.914893617021276%%
number of rare in test: 24/296
==> 8.108108108108109%%
The size of the original data is (1175, 46)
The size of the oversampled data is (1196, 46)
Total Number of rare cases: 131 out of 1196
Percentage of Rare Cases: 10.95%

The percentage of rare values in dataset after smogn are 10.953177257525084
