Error Metrics,Validation Scores standard deviation,Validation Scores,Testing Scores
mean target,3.8792617744331452,3.8792617744331452,3.8792617744331452
F1,0.3350918862207715,0.5006169112548127,0.791649585779266
F2,0.3272497469514995,0.49124276499884223,0.7820790510260074
F05,0.3487527556762458,0.5137007957873229,0.8014572574275464
Precision,0.36134334342927243,0.524678203688471,0.808131836554324
Recall,0.22224245897229059,0.634056887711302,0.7758262240403918
R2,0.11710091332583819,0.4443468521230054,0.5899034669958443
Adjusted R2,0.13308404634245674,0.3685056146690423,0.5694612186568782
RMSE,0.3419546730202667,1.582407699734611,1.4610764534190512
MSE,1.1668913970808856,2.6209471265797806,2.1347444027355933
MAE,0.21126483994550127,1.1930445245842127,1.1071584521423912
MAPE,7.880279083676364,39.28124853057871,37.976537125858236
Accuracy,7.880279083676364,60.71875146942129,62.023462874141764
Pearson C.C.,0.08837841192229733,0.7019472364207043,0.7686010806865262
Spearman C.C.,0.08644302017454489,0.6937005971952603,0.7402646405846683
Spatial Distance,0.08837841192229727,0.29805276357929555,0.23139891931347356
NMI,0.0018715278445416911,0.9931616308004243,0.9925976726011262
AIC,169.47434335489984,357.37734713995883,783.3723702458517
BIC,169.47434335489984,357.37734713995883,783.3723702458517
Data Size train,-,-,4090.0
Data Size test,-,-,1033.0
Training Time (seconds),-,-,7.521164894104004
Testing Time (seconds),-,-,0.03227877616882324
