For param {'n_trees': 100, 'max_depth': 7, 'learning_rate': 0.1}
 *************************FOLDS Average***************************** 

Utility Based Metrics Across All
F1:  0.5735906204216628
F2:  0.5756621850086645
F05: 0.5761775531243422
precision:  0.5809356582273315
recall: 0.7038026254516607

Regression Error Metrics Across All
R2: 0.3084175475047866
Adj-R2: 0.2661224223108645
RMSE: 1.9024340939894984
MSE: 3.813530135625611
MAE: 1.4444875304236784
MAPE: 43.622221548390996

Correlations Across All
Pearson: 0.5959087470566757
Spearman: 0.571525776629396
Distance: 0.40409125294332426
************************REPETITIONS Average*******************************

Utility Based Metrics Across All
F1:  0.5735906204216628
F2:  0.5756621850086645
F05: 0.5761775531243422
precision:  0.5809356582273315
recall: 0.7038026254516607

Regression Error Metrics Across All
R2: 0.3084175475047866
Adj-R2: 0.2661224223108645
RMSE: 1.9024340939894984
MSE: 3.813530135625611
MAE: 1.4444875304236784
MAPE: 43.622221548390996

Correlations Across All
Pearson: 0.5959087470566757
Spearman: 0.571525776629396
Distance: 0.40409125294332426
For param {'n_trees': 100, 'max_depth': 6, 'learning_rate': 0.1}
 *************************FOLDS Average***************************** 

Utility Based Metrics Across All
F1:  0.5964145092454843
F2:  0.5843200587987532
F05: 0.6197196404817952
precision:  0.6455493396625835
recall: 0.702813146267715

Regression Error Metrics Across All
R2: 0.33447947083114127
Adj-R2: 0.2937782153282523
RMSE: 1.8677105749460208
MSE: 3.6997781552058386
MAE: 1.4201232491213083
MAPE: 42.932326922415086

Correlations Across All
Pearson: 0.612104204869147
Spearman: 0.5817340060707679
Distance: 0.38789579513085304
************************REPETITIONS Average*******************************

Utility Based Metrics Across All
F1:  0.5964145092454843
F2:  0.5843200587987532
F05: 0.6197196404817952
precision:  0.6455493396625835
recall: 0.702813146267715

Regression Error Metrics Across All
R2: 0.33447947083114127
Adj-R2: 0.2937782153282523
RMSE: 1.8677105749460208
MSE: 3.6997781552058386
MAE: 1.4201232491213083
MAPE: 42.932326922415086

Correlations Across All
Pearson: 0.612104204869147
Spearman: 0.5817340060707679
Distance: 0.38789579513085304
For param {'n_trees': 100, 'max_depth': 7, 'learning_rate': 0.1}
 *************************FOLDS Average***************************** 

Utility Based Metrics Across All
F1:  0.8385452638058908
F2:  0.8247037840209777
F05: 0.8535331810611787
precision:  0.8642381228962245
recall: 0.8160475684577891

Regression Error Metrics Across All
R2: 0.5802333003492205
Adj-R2: 0.5538241371261583
RMSE: 1.479480242121869
MSE: 2.2839369677746033
MAE: 1.1266361640155793
MAPE: 34.2875033072586

Correlations Across All
Pearson: 0.7859991031467187
Spearman: 0.7517049032928783
Distance: 0.21400089685328139
************************REPETITIONS Average*******************************

Utility Based Metrics Across All
F1:  0.8385452638058908
F2:  0.8247037840209777
F05: 0.8535331810611787
precision:  0.8642381228962245
recall: 0.8160475684577891

Regression Error Metrics Across All
R2: 0.5802333003492205
Adj-R2: 0.5538241371261583
RMSE: 1.479480242121869
MSE: 2.2839369677746033
MAE: 1.1266361640155793
MAPE: 34.2875033072586

Correlations Across All
Pearson: 0.7859991031467187
Spearman: 0.7517049032928783
Distance: 0.21400089685328139
For param {'n_trees': 100, 'max_depth': 6, 'learning_rate': 0.1}
 *************************FOLDS Average***************************** 

Utility Based Metrics Across All
F1:  0.8476791230739101
F2:  0.8297964590637749
F05: 0.8678042611068804
precision:  0.8827045644592687
recall: 0.8189301325508129

Regression Error Metrics Across All
R2: 0.5897777402212834
Adj-R2: 0.5639690550034171
RMSE: 1.4660108878991083
MSE: 2.2585709362903246
MAE: 1.1187734469200559
MAPE: 34.27372953826955

Correlations Across All
Pearson: 0.7881825311606848
Spearman: 0.7543724738533629
Distance: 0.21181746883931546
************************REPETITIONS Average*******************************

Utility Based Metrics Across All
F1:  0.8476791230739101
F2:  0.8297964590637749
F05: 0.8678042611068804
precision:  0.8827045644592687
recall: 0.8189301325508129

Regression Error Metrics Across All
R2: 0.5897777402212834
Adj-R2: 0.5639690550034171
RMSE: 1.4660108878991083
MSE: 2.2585709362903246
MAE: 1.1187734469200559
MAPE: 34.27372953826955

Correlations Across All
Pearson: 0.7881825311606848
Spearman: 0.7543724738533629
Distance: 0.21181746883931546
For param {'n_trees': 100, 'max_depth': 7, 'learning_rate': 0.1}
 *************************FOLDS Average***************************** 

Utility Based Metrics Across All
F1:  0.48180366578183886
F2:  0.4737033765146482
F05: 0.4913359169015969
precision:  0.4986174140873403
recall: 0.6824982065036347

Regression Error Metrics Across All
R2: 0.3577656504031891
Adj-R2: 0.3035228843899449
RMSE: 1.8246497138460724
MSE: 3.6012148113767575
MAE: 1.380086927183891
MAPE: 41.052596465556

Correlations Across All
Pearson: 0.6357673665185749
Spearman: 0.6165261056575163
Distance: 0.36423263348142504
************************REPETITIONS Average*******************************

Utility Based Metrics Across All
F1:  0.48180366578183886
F2:  0.4737033765146482
F05: 0.4913359169015969
precision:  0.4986174140873403
recall: 0.6824982065036347

Regression Error Metrics Across All
R2: 0.3577656504031891
Adj-R2: 0.3035228843899449
RMSE: 1.8246497138460724
MSE: 3.6012148113767575
MAE: 1.380086927183891
MAPE: 41.052596465556

Correlations Across All
Pearson: 0.6357673665185749
Spearman: 0.6165261056575163
Distance: 0.36423263348142504
For param {'n_trees': 100, 'max_depth': 6, 'learning_rate': 0.1}
 *************************FOLDS Average***************************** 

Utility Based Metrics Across All
F1:  0.5876174885345964
F2:  0.5746858339336516
F05: 0.6032059129240367
precision:  0.6153482566468754
recall: 0.6856798529909

Regression Error Metrics Across All
R2: 0.3585587628895987
Adj-R2: 0.30438298272824726
RMSE: 1.823321779601845
MSE: 3.578093032569947
MAE: 1.3825091919254606
MAPE: 41.263867914119075

Correlations Across All
Pearson: 0.6395986768215371
Spearman: 0.6320405320599172
Distance: 0.3604013231784629
************************REPETITIONS Average*******************************

Utility Based Metrics Across All
F1:  0.5876174885345964
F2:  0.5746858339336516
F05: 0.6032059129240367
precision:  0.6153482566468754
recall: 0.6856798529909

Regression Error Metrics Across All
R2: 0.3585587628895987
Adj-R2: 0.30438298272824726
RMSE: 1.823321779601845
MSE: 3.578093032569947
MAE: 1.3825091919254606
MAPE: 41.263867914119075

Correlations Across All
Pearson: 0.6395986768215371
Spearman: 0.6320405320599172
Distance: 0.3604013231784629
