
Total Number of rare cases: 820 out of 4026
Percentage of Rare Cases: 20.37%

number of rare in train: 655/3215
==> 20.37325038880249%%
number of rare in test: 165/811
==> 20.34525277435265%%

The size of the original data is (3215, 50)
The size of the oversampled data is (3341, 50)

We dont have both We have only high rare
Total Number of rare cases: 759 out of 3341
Percentage of Rare Cases: 22.72%
