For param {'n_trees': 100, 'max_depth': 7, 'learning_rate': 0.1}
 *************************FOLDS Average***************************** 

Utility Based Metrics Across All
F1:  0.45783249537195836
F2:  0.44885895672171844
F05: 0.46839972948914105
precision:  0.47652493722663375
recall: 0.5820214983496491

Regression Error Metrics Across All
R2: 0.5705382520899875
Adj-R2: 0.5317898237071292
RMSE: 1.3338721552696648
MSE: 1.8328889029369417
MAE: 0.9527349610414599
MAPE: 30.171824892329674
Accuracy: 69.82817510767032
AIC: 314.4024751815377
BIC: 314.4024751815377
NMI: 0.9961671259707512

Correlations Across All
Pearson: 0.7663993992491039
Spearman: 0.7903254149604402
Distance: 0.23360060075089625
************************REPETITIONS Average*******************************

Utility Based Metrics Across All
F1:  0.45783249537195836
F2:  0.44885895672171844
F05: 0.46839972948914105
precision:  0.47652493722663375
recall: 0.5820214983496491

Regression Error Metrics Across All
R2: 0.5705382520899875
Adj-R2: 0.5317898237071292
RMSE: 1.3338721552696648
MSE: 1.8328889029369417
MAE: 0.9527349610414599
MAPE: 30.171824892329674
Accuracy: 69.82817510767032
AIC: 314.4024751815377
BIC: 314.4024751815377
NMI: 0.9961671259707512

Correlations Across All
Pearson: 0.7663993992491039
Spearman: 0.7903254149604402
Distance: 0.23360060075089625
For param {'n_trees': 100, 'max_depth': 6, 'learning_rate': 0.1}
 *************************FOLDS Average***************************** 

Utility Based Metrics Across All
F1:  0.44864911695177606
F2:  0.4422278116144048
F05: 0.45637234067990884
precision:  0.4623745899276518
recall: 0.5778260965903999

Regression Error Metrics Across All
R2: 0.5844045288415982
Adj-R2: 0.5469071930979832
RMSE: 1.3061082083454303
MSE: 1.756225375970936
MAE: 0.9364135052095233
MAPE: 29.517017375901844
Accuracy: 70.48298262409814
AIC: 291.2751865772355
BIC: 291.2751865772355
NMI: 0.9931709549047631

Correlations Across All
Pearson: 0.7748678714342109
Spearman: 0.8002990459940577
Distance: 0.22513212856578937
************************REPETITIONS Average*******************************

Utility Based Metrics Across All
F1:  0.44864911695177606
F2:  0.4422278116144048
F05: 0.45637234067990884
precision:  0.4623745899276518
recall: 0.5778260965903999

Regression Error Metrics Across All
R2: 0.5844045288415982
Adj-R2: 0.5469071930979832
RMSE: 1.3061082083454303
MSE: 1.756225375970936
MAE: 0.9364135052095233
MAPE: 29.517017375901844
Accuracy: 70.48298262409814
AIC: 291.2751865772355
BIC: 291.2751865772355
NMI: 0.9931709549047631

Correlations Across All
Pearson: 0.7748678714342109
Spearman: 0.8002990459940577
Distance: 0.22513212856578937
