For param {'n_trees': 100, 'max_depth': 7, 'learning_rate': 0.1}
 *************************FOLDS Average***************************** 

Utility Based Metrics Across All
F1:  0.42267220386557314
F2:  0.39454539607117445
F05: 0.45538852807168634
precision:  0.48037419065693526
recall: 0.506036612901568

Regression Error Metrics Across All
R2: 0.34335077826159155
Adj-R2: -0.02956112544170213
RMSE: 1.2316977321742002
MSE: 1.5210425192511423
MAE: 0.9313863067151626
MAPE: 41.207272878449984
Accuracy: 58.792727121550016
AIC: 53.01347299080129
BIC: 53.01347299080129
NMI: 0.9993296089385476

Correlations Across All
Pearson: 0.6073771395130676
Spearman: 0.5242278710374175
Distance: 0.3926228604869324
************************REPETITIONS Average*******************************

Utility Based Metrics Across All
F1:  0.42267220386557314
F2:  0.39454539607117445
F05: 0.45538852807168634
precision:  0.48037419065693526
recall: 0.506036612901568

Regression Error Metrics Across All
R2: 0.34335077826159155
Adj-R2: -0.02956112544170213
RMSE: 1.2316977321742002
MSE: 1.5210425192511423
MAE: 0.9313863067151626
MAPE: 41.207272878449984
Accuracy: 58.792727121550016
AIC: 53.01347299080129
BIC: 53.01347299080129
NMI: 0.9993296089385476

Correlations Across All
Pearson: 0.6073771395130676
Spearman: 0.5242278710374175
Distance: 0.3926228604869324
For param {'n_trees': 100, 'max_depth': 6, 'learning_rate': 0.1}
 *************************FOLDS Average***************************** 

Utility Based Metrics Across All
F1:  0.41615764271235917
F2:  0.3917452527696141
F05: 0.44397558801520925
precision:  0.46479793365070554
recall: 0.5117199552405258

Regression Error Metrics Across All
R2: 0.35028119381566064
Adj-R2: -0.018694918338408594
RMSE: 1.2278912152444843
MSE: 1.508051376236746
MAE: 0.9253458731806121
MAPE: 41.293745701732504
Accuracy: 58.706254298267496
AIC: 52.52808736941556
BIC: 52.52808736941556
NMI: 0.9985711675089195

Correlations Across All
Pearson: 0.6179807918935103
Spearman: 0.5320957395504349
Distance: 0.3820192081064896
************************REPETITIONS Average*******************************

Utility Based Metrics Across All
F1:  0.41615764271235917
F2:  0.3917452527696141
F05: 0.44397558801520925
precision:  0.46479793365070554
recall: 0.5117199552405258

Regression Error Metrics Across All
R2: 0.35028119381566064
Adj-R2: -0.018694918338408594
RMSE: 1.2278912152444843
MSE: 1.508051376236746
MAE: 0.9253458731806121
MAPE: 41.293745701732504
Accuracy: 58.706254298267496
AIC: 52.52808736941556
BIC: 52.52808736941556
NMI: 0.9985711675089195

Correlations Across All
Pearson: 0.6179807918935103
Spearman: 0.5320957395504349
Distance: 0.3820192081064896
