Error Metrics,single_ensemble_test_0,single_ensemble_test_1,single_ensemble_test_2,single_ensemble_test_3,single_ensemble_test_4,ensemble_test
Training Time (seconds),14.50992465,17.43927646,18.69109607,18.47334266,6.133533001,75.24717284
Testing Time (seconds),0.098749161,0.099094391,0.096156597,0.093291998,0.092611551,0.479903698
F1,0.955139466,0.971350958,0.961993522,0.971000868,0.961223866,0.961662412
F2,0.961694443,0.977313416,0.966007147,0.972736089,0.962794269,0.967293081
F05,0.948673243,0.965460811,0.958013112,0.969271826,0.959658579,0.956096916
Precision,0.944410849,0.961573572,0.955377754,0.968122548,0.958617883,0.952422236
Recall,0.966114641,0.981329222,0.968701554,0.973896353,0.963844057,0.971083636
Average,4.498419624,4.498419624,4.498419624,4.498419624,4.498419624,4.498419624
Average Testing,4.380215547,4.380215547,4.380215547,4.380215547,4.380215547,4.380215547
R2,0.574840214,0.544539571,0.586918971,0.620055202,0.491481511,0.586633446
Adjusted R2,0.364648858,0.319368123,0.382699137,0.432217324,0.240079112,0.368071819
RMSE,1.006724338,1.041981008,0.992320818,0.951688298,1.10100135,0.99266371
MSE,1.013493892,1.085724421,0.984700606,0.905710617,1.212203974,0.985381241
MAE,0.754352826,0.753977228,0.730885646,0.710060167,0.816251964,0.728176815
MAPE,23.87516382,24.62965994,23.0908536,21.94705811,26.47619875,23.48698994
Accuracy,76.12483618,75.37034006,76.9091464,78.05294189,73.52380125,76.51301006
Pearson C.C.,0.760992491,0.766072904,0.768589687,0.79092267,0.70164996,0.770128263
Spearman C.C.,0.791034801,0.77493485,0.794830359,0.805972643,0.728784648,0.788700607
Spatial Distance,0.239007509,0.233927096,0.231410313,0.20907733,0.29835004,0.229871737
NMI,1,1,1,1,1,1
AIC,22659.8,22669.02,22655.93,22644.73,22683.79,22656.03
BIC,55489.42,55498.65,55485.56,55474.36,55513.41,55485.65
Data Size,669,669,669,669,669,669