,WS,WS-1,WS-2,WS-3,WS-4,WS-5,RH,RH-1,RH-2,RH-3,RH-4,RH-5,TA,TA-1,TA-2,TA-3,TA-4,TA-5,Eeflux_ET,Eeflux_LST,Eeflux_NDVI,Eeflux_Albedo,Site_1,Site_2,Site_3,Site_4,Site_5,Month_1,Month_2,Month_3,Month_4,Vegetation_1,Vegetation_2,Vegetation_3,Eeflux_LST-1,Eeflux_LST-2,Eeflux_LST-3,Eeflux_LST-4,Eeflux_LST-5,Eeflux_Albedo-1,Eeflux_Albedo-2,Eeflux_Albedo-3,Eeflux_Albedo-4,Eeflux_Albedo-5,Eeflux_NDVI-1,Eeflux_NDVI-2,Eeflux_NDVI-3,Eeflux_NDVI-4,Eeflux_NDVI-5,Eeflux_ET-1,Eeflux_ET-2,Eeflux_ET-3,Eeflux_ET-4,Eeflux_ET-5,LE_bowen_corr_mm
0,1.9649166669999998,1.512666667,2.284041667,3.844375,2.4192291669999997,1.8971875,80.71579167,68.38333333,58.77214583,68.278125,52.80664583,67.0015625,14.14864583,29.56,13.22075,13.834375,9.588229167,2.031791667,1.14479816,291.88,0.61,0.141,0,0,0,0,1,1,0,0,0,0,0,1,307.08,298.94,294.58,285.7,278.98,0.17,0.141,0.165,0.125,0.136,0.7440000000000001,0.5920000000000001,0.741,0.462,0.36700000000000005,5.057304382,0.3,2.2158653740000003,1.750502229,0.3,1.3017957820000001
1,1.188875,2.068571429,1.756,2.3312,2.583333333,1.962592593,59.99054167,74.3715,71.29666667,51.056000000000004,50.21481481,64.51485185,22.51952083,29.72857143,28.73,26.336,24.52592593,22.17407407,2.783199787,303.92,0.82,0.152,0,0,0,0,1,0,0,1,0,0,0,1,297.98,304.86,301.56,303.76,297.88,0.174,0.16899999999999998,0.161,0.17,0.163,0.785,0.78,0.737,0.755,0.6890000000000001,5.476016521,4.810279369,4.030873299,4.095631123,2.5033741000000003,5.862500511
2,1.817193548,1.576058824,2.47,1.3474375,4.36,1.746153846,51.32064516,76.98535294,60.12307692,60.38375,69.22645833,61.35384615,6.836774194,20.99294118,19.38461538,23.72875,13.03791667,22.56153846,3.0778241160000004,284.42,0.782,0.11800000000000001,0,0,0,1,0,1,0,0,1,0,1,0,295.62,293.9,298.78,288.5,302.86,0.11,0.13699999999999998,0.12300000000000001,0.157,0.152,0.765,0.688,0.804,0.669,0.728,0.3,0.3,3.909767628,0.3,3.971240044,3.270429997
3,2.3974,1.817193548,1.576058824,2.47,1.3474375,4.36,60.441,51.32064516,76.98535294,60.12307692,60.38375,69.22645833,20.188,6.836774194,20.99294118,19.38461538,23.72875,13.03791667,2.476480961,293.38,0.6679999999999999,0.11800000000000001,0,0,0,1,0,1,0,0,1,0,1,0,284.42,295.62,293.9,298.78,288.5,0.11800000000000001,0.11,0.13699999999999998,0.12300000000000001,0.157,0.782,0.765,0.688,0.804,0.669,3.0778241160000004,0.3,0.3,3.909767628,0.3,4.291525914
4,1.1723,2.3974,1.817193548,1.576058824,2.47,1.3474375,37.6111,60.441,51.32064516,76.98535294,60.12307692,60.38375,25.029,20.188,6.836774194,20.99294118,19.38461538,23.72875,0.3,301.22,0.7490000000000001,0.12,0,0,0,1,0,0,0,0,1,0,1,0,293.38,284.42,295.62,293.9,298.78,0.11800000000000001,0.11800000000000001,0.11,0.13699999999999998,0.12300000000000001,0.6679999999999999,0.782,0.765,0.688,0.804,2.476480961,3.0778241160000004,0.3,0.3,3.909767628,11.02542083
5,2.618947368,1.1723,2.3974,1.817193548,1.576058824,2.47,55.34157895,37.6111,60.441,51.32064516,76.98535294,60.12307692,28.39263158,25.029,20.188,6.836774194,20.99294118,19.38461538,6.36339283,305.96,0.725,0.115,0,0,0,1,0,0,0,0,1,0,1,0,301.22,293.38,284.42,295.62,293.9,0.12,0.11800000000000001,0.11800000000000001,0.11,0.13699999999999998,0.7490000000000001,0.6679999999999999,0.782,0.765,0.688,0.3,2.476480961,3.0778241160000004,0.3,0.3,8.164054396000001
6,2.127571429,2.7713333330000003,2.9885,0.895,1.241111111,2.51,52.50071429,29.732,59.34,40.68,39.75,67.976,11.69214286,13.914000000000001,9.85,19.04,22.38888889,15.716,0.3,286.4,0.762,0.124,0,0,0,1,0,1,1,0,0,0,1,0,289.18,286.96,295.74,300.6,295.02,0.14800000000000002,0.16,0.16399999999999998,0.152,0.149,0.35600000000000004,0.469,0.634,0.687,0.693,0.3,0.3,1.308443546,2.073215961,1.200462937,3.2889144580000003
7,7.149375,2.931428571,1.4553125,4.162173913,1.129166667,2.82125,50.40833333,49.26190476,65.565625,66.3173913,54.53333333,49.86666667,15.73333333,14.60952381,18.23125,9.139130435,17.61333333,29.8,0.3,298.02,0.267,0.174,0,0,0,1,1,1,0,1,1,0,1,1,295.5,292.64,284.2,288.9,316.62,0.15,0.12300000000000001,0.14400000000000002,0.12,0.19,0.434,0.7809999999999999,0.473,0.792,0.547,0.3,2.466374636,0.3,1.6009726519999998,3.312187195,1.31608126
8,5.5072916670000005,2.422413793,2.487,2.162454545,3.1259259260000003,7.149375,73.5875,49.5,35.40930769,53.02909091,55.8592963,50.40833333,21.54583333,19.96206897,24.95307692,15.86545455,22.51481481,15.73333333,0.3,302.42,0.64,0.18100000000000002,0,0,0,1,1,0,0,0,1,0,1,1,300.92,303.56,297.68,296.26,298.02,0.163,0.128,0.11800000000000001,0.15,0.174,0.7020000000000001,0.7,0.604,0.45799999999999996,0.267,0.3,6.545739651,4.651761532,4.276696205,0.3,4.75358067
9,3.191458333,1.538888889,2.2328333330000003,1.767826087,5.5072916670000005,2.422413793,62.10625,75.02962963,64.2925,47.94913043,73.5875,49.5,28.43125,28.14814815,30.45841667,28.43,21.54583333,19.96206897,4.579813957,311.8,0.667,0.182,0,0,0,1,1,0,0,1,0,0,1,1,301.48,307.06,304.22,302.42,300.92,0.192,0.11199999999999999,0.134,0.18100000000000002,0.163,0.7659999999999999,0.742,0.774,0.64,0.7020000000000001,0.3,5.091650486,0.3,0.3,0.3,6.575818392
10,1.7058333330000002,1.3508333330000002,1.608,3.191458333,1.538888889,2.2328333330000003,67.22291667,91.4125,71.52,62.10625,75.02962963,64.2925,18.4375,23.69166667,27.612,28.43125,28.14814815,30.45841667,2.492971659,303.98,0.69,0.184,0,0,0,1,1,0,0,1,1,0,1,1,302.8,303.2,311.8,301.48,307.06,0.159,0.159,0.182,0.192,0.11199999999999999,0.736,0.83,0.667,0.7659999999999999,0.742,2.6200923919999997,0.3,4.579813957,0.3,5.091650486,5.341447001000001
11,2.47,1.3474375,4.36,1.746153846,1.5219230769999998,1.7058333330000002,60.12307692,60.38375,69.22645833,61.35384615,65.35,67.22291667,19.38461538,23.72875,13.03791667,22.56153846,28.35,18.4375,0.3,293.9,0.688,0.13699999999999998,0,0,1,0,0,0,1,1,0,0,1,1,298.78,288.5,302.86,304.44,303.98,0.12300000000000001,0.157,0.152,0.166,0.184,0.804,0.669,0.728,0.7959999999999999,0.69,3.909767628,0.3,3.971240044,5.175475121,2.492971659,2.819152035
12,1.672307692,2.618947368,1.1723,2.3974,1.817193548,1.576058824,61.63076923,55.34157895,37.6111,60.441,51.32064516,76.98535294,26.40769231,28.39263158,25.029,20.188,6.836774194,20.99294118,0.3,304.44,0.111,0.17600000000000002,0,0,1,0,0,1,0,0,0,0,1,1,305.96,301.22,293.38,284.42,295.62,0.115,0.12,0.11800000000000001,0.11800000000000001,0.11,0.725,0.7490000000000001,0.6679999999999999,0.782,0.765,6.36339283,0.3,2.476480961,3.0778241160000004,0.3,5.8672329229999995
13,2.0140740740000003,1.672307692,2.618947368,1.1723,2.3974,1.817193548,67.05555556,61.63076923,55.34157895,37.6111,60.441,51.32064516,29.02596296,26.40769231,28.39263158,25.029,20.188,6.836774194,0.3,306.62,0.7070000000000001,0.14300000000000002,0,0,1,0,0,0,1,0,0,0,1,1,304.44,305.96,301.22,293.38,284.42,0.17600000000000002,0.115,0.12,0.11800000000000001,0.11800000000000001,0.111,0.725,0.7490000000000001,0.6679999999999999,0.782,0.3,6.36339283,0.3,2.476480961,3.0778241160000004,3.9726000760000004
14,1.69375,2.0140740740000003,1.672307692,2.618947368,1.1723,2.3974,75.65416667,67.05555556,61.63076923,55.34157895,37.6111,60.441,25.16666667,29.02596296,26.40769231,28.39263158,25.029,20.188,0.3,302.72,0.7559999999999999,0.15,0,0,1,0,0,0,1,0,1,0,1,1,306.62,304.44,305.96,301.22,293.38,0.14300000000000002,0.17600000000000002,0.115,0.12,0.11800000000000001,0.7070000000000001,0.111,0.725,0.7490000000000001,0.6679999999999999,0.3,0.3,6.36339283,0.3,2.476480961,3.378460872
15,2.51,1.69375,2.0140740740000003,1.672307692,2.618947368,1.1723,67.976,75.65416667,67.05555556,61.63076923,55.34157895,37.6111,15.716,25.16666667,29.02596296,26.40769231,28.39263158,25.029,1.200462937,295.02,0.693,0.149,0,0,1,0,0,0,1,0,1,0,1,1,302.72,306.62,304.44,305.96,301.22,0.15,0.14300000000000002,0.17600000000000002,0.115,0.12,0.7559999999999999,0.7070000000000001,0.111,0.725,0.7490000000000001,0.3,0.3,0.3,6.36339283,0.3,2.494799462
16,1.241111111,2.51,1.69375,2.0140740740000003,1.672307692,2.618947368,39.75,67.976,75.65416667,67.05555556,61.63076923,55.34157895,22.38888889,15.716,25.16666667,29.02596296,26.40769231,28.39263158,2.073215961,300.6,0.687,0.152,0,0,1,0,0,0,1,0,1,0,1,1,295.02,302.72,306.62,304.44,305.96,0.149,0.15,0.14300000000000002,0.17600000000000002,0.115,0.693,0.7559999999999999,0.7070000000000001,0.111,0.725,1.200462937,0.3,0.3,0.3,6.36339283,3.2835162039999997
17,0.895,1.241111111,2.51,1.69375,2.0140740740000003,1.672307692,40.68,39.75,67.976,75.65416667,67.05555556,61.63076923,19.04,22.38888889,15.716,25.16666667,29.02596296,26.40769231,1.308443546,295.74,0.634,0.16399999999999998,0,0,1,0,0,0,1,1,0,0,1,1,300.6,295.02,302.72,306.62,304.44,0.152,0.149,0.15,0.14300000000000002,0.17600000000000002,0.687,0.693,0.7559999999999999,0.7070000000000001,0.111,2.073215961,1.200462937,0.3,0.3,0.3,1.872472326
18,2.9885,0.895,1.241111111,2.51,1.69375,2.0140740740000003,59.34,40.68,39.75,67.976,75.65416667,67.05555556,9.85,19.04,22.38888889,15.716,25.16666667,29.02596296,0.3,286.96,0.469,0.16,0,0,1,0,0,1,1,0,0,0,1,1,295.74,300.6,295.02,302.72,306.62,0.16399999999999998,0.152,0.149,0.15,0.14300000000000002,0.634,0.687,0.693,0.7559999999999999,0.7070000000000001,1.308443546,2.073215961,1.200462937,0.3,0.3,1.351847578
19,2.467142857,2.0889583330000003,2.446136364,3.94125,2.127571429,2.7713333330000003,55.176238100000006,31.35254167,32.64009091,75.23875,52.50071429,29.732,4.242857143,16.3025,9.646954545,3.35175,11.69214286,13.914000000000001,0.3,282.5,0.46,0.135,0,0,1,0,0,1,0,1,0,0,1,1,288.46,284.9,284.94,286.4,289.18,0.153,0.152,0.151,0.124,0.14800000000000002,0.307,0.322,0.375,0.762,0.35600000000000004,1.020228028,0.3,0.406568795,0.3,0.3,2.227353367
20,3.057083333,4.02872,3.271875,5.472025,3.789375,2.925416667,54.74875,53.821000000000005,77.17291667,34.1775,49.16666667,60.64229167,18.711875,18.773,7.2670833329999995,30.6175,15.13416667,13.66604167,0.3,300.0,0.884,0.207,0,0,1,0,1,0,0,0,1,0,0,1,296.56,284.06,306.8,292.34,295.78,0.166,0.191,0.183,0.191,0.18899999999999997,0.614,0.7340000000000001,0.545,0.838,0.843,8.835337639,4.191156864,1.599461794,5.818086147000001,0.3,6.062439106
21,2.243958333,4.6384642860000005,3.119877778,3.057083333,4.02872,3.271875,67.705625,62.44785714,57.42555556,54.74875,53.821000000000005,77.17291667,19.98208333,30.4675,27.91,18.711875,18.773,7.2670833329999995,5.57045269,296.42,0.6970000000000001,0.155,0,0,1,0,1,0,0,1,0,0,0,1,308.0,302.6,300.0,296.56,284.06,0.19699999999999998,0.17300000000000001,0.207,0.166,0.191,0.38,0.433,0.884,0.614,0.7340000000000001,5.589346409,4.727902889,0.3,8.835337639,4.191156864,5.248066243999999
22,1.578125,1.4657793540000001,6.872647618999999,4.61216,6.04542,6.495125,61.08083333,65.91514294,59.76333333,39.428000000000004,40.5204,47.88958333,21.51625,21.32070729,31.3852381,28.94133333,35.7556,34.56291667,1.0794553759999999,301.8,0.34299999999999997,0.184,0,0,1,0,1,0,1,0,0,0,0,1,303.24,305.76,316.22,321.96,306.92,0.17600000000000002,0.171,0.177,0.196,0.187,0.48700000000000004,0.429,0.312,0.366,0.439,0.3,9.718521118,1.11167109,1.083740234,1.305764377,1.275053232
23,1.6022916669999998,1.578125,1.4657793540000001,6.872647618999999,4.61216,6.04542,59.08166667,61.08083333,65.91514294,59.76333333,39.428000000000004,40.5204,21.89020833,21.51625,21.32070729,31.3852381,28.94133333,35.7556,1.640466809,302.74,0.514,0.184,0,0,1,0,1,0,1,0,0,0,0,1,301.8,303.24,305.76,316.22,321.96,0.184,0.17600000000000002,0.171,0.177,0.196,0.34299999999999997,0.48700000000000004,0.429,0.312,0.366,1.0794553759999999,0.3,9.718521118,1.11167109,1.083740234,1.464343346
24,5.284166667,2.9304615380000003,5.37706875,1.8971458540000001,0.928869417,1.7718,60.710625,51.02076923,33.64,85.70632671,94.02919674,53.88,7.877083333,18.96492308,14.2394375,0.038167354,0.22679144399999998,-1.795,0.743035793,284.44,0.433,0.159,0,0,1,0,1,1,0,1,0,0,0,1,297.06,286.76,274.2,275.06,284.32,0.188,0.177,0.126,0.12,0.183,0.643,0.5720000000000001,0.516,0.71,0.628,0.3,0.3,0.3,0.305033863,0.532512247,6.251850071000001
25,1.8752083330000002,2.156075,8.6457,4.8988,3.010185714,4.07446,74.22,72.045,56.29,35.61,50.25428571,54.912,2.760416667,14.14,26.41,20.47,17.08571429,20.168,0.3,275.9,0.040999999999999995,0.18899999999999997,0,0,1,0,1,0,0,0,1,0,0,1,299.6,300.64,296.54,296.16,293.72,0.166,0.16699999999999998,0.183,0.177,0.168,0.787,0.514,0.522,0.7929999999999999,0.312,1.415090442,3.7882694010000004,0.894972801,2.01513052,0.3,1.258389049
26,2.762291667,1.8752083330000002,2.156075,8.6457,4.8988,3.010185714,59.65208333,74.22,72.045,56.29,35.61,50.25428571,6.775416667000001,2.760416667,14.14,26.41,20.47,17.08571429,1.218460798,281.16,0.304,0.19,0,0,1,0,1,0,0,0,1,0,0,1,275.9,299.6,300.64,296.54,296.16,0.18899999999999997,0.166,0.16699999999999998,0.183,0.177,0.040999999999999995,0.787,0.514,0.522,0.7929999999999999,0.3,1.415090442,3.7882694010000004,0.894972801,2.01513052,1.342467384
27,1.543125,2.866141667,1.94095,1.488340021,4.278129412,2.762291667,54.06083333,35.09166667,44.27,74.01757498,47.64529412,59.65208333,16.15854167,28.16333333,23.01,15.36528719,24.14352941,6.775416667000001,2.647957444,300.96,0.75,0.174,0,0,1,0,1,1,0,0,0,0,0,1,306.48,300.98,298.8,300.14,281.16,0.174,0.16699999999999998,0.18,0.16,0.19,0.5,0.632,0.634,0.73,0.304,3.6744961739999997,4.462000847,0.596097946,2.4131479259999997,1.218460798,2.127742243
28,2.73,1.543125,2.866141667,1.94095,1.488340021,4.278129412,62.031875,54.06083333,35.09166667,44.27,74.01757498,47.64529412,18.53208333,16.15854167,28.16333333,23.01,15.36528719,24.14352941,3.2063477039999997,297.06,0.667,0.174,0,0,1,0,1,1,0,0,0,0,0,1,300.96,306.48,300.98,298.8,300.14,0.174,0.174,0.16699999999999998,0.18,0.16,0.75,0.5,0.632,0.634,0.73,2.647957444,3.6744961739999997,4.462000847,0.596097946,2.4131479259999997,3.02019821
29,2.353958333,3.32305,2.73,1.543125,2.866141667,1.94095,70.7375,43.97642857,62.031875,54.06083333,35.09166667,44.27,15.73541667,30.62357143,18.53208333,16.15854167,28.16333333,23.01,1.3602610830000001,292.24,0.69,0.22699999999999998,0,0,1,0,1,0,0,1,0,0,0,1,308.36,297.06,300.96,306.48,300.98,0.179,0.174,0.174,0.174,0.16699999999999998,0.43200000000000005,0.667,0.75,0.5,0.632,8.636237621,3.2063477039999997,2.647957444,3.6744961739999997,4.462000847,3.2842293280000003
30,2.266458333,2.353958333,3.32305,2.73,1.543125,2.866141667,68.62604167,70.7375,43.97642857,62.031875,54.06083333,35.09166667,18.95979167,15.73541667,30.62357143,18.53208333,16.15854167,28.16333333,3.7193806169999997,298.76,0.588,0.171,0,0,1,0,1,0,0,1,1,0,0,1,292.24,308.36,297.06,300.96,306.48,0.22699999999999998,0.179,0.174,0.174,0.174,0.69,0.43200000000000005,0.667,0.75,0.5,1.3602610830000001,8.636237621,3.2063477039999997,2.647957444,3.6744961739999997,2.2132020619999997
31,4.626666667,2.2804133330000003,2.266458333,2.353958333,3.32305,2.73,62.48979167,63.396,68.62604167,70.7375,43.97642857,62.031875,13.53458333,26.60866667,18.95979167,15.73541667,30.62357143,18.53208333,1.176084161,292.6,0.518,0.151,0,0,1,0,1,0,1,0,0,0,0,1,300.78,298.76,292.24,308.36,297.06,0.18600000000000003,0.171,0.22699999999999998,0.179,0.174,0.6559999999999999,0.588,0.69,0.43200000000000005,0.667,4.164859772,3.7193806169999997,1.3602610830000001,8.636237621,3.2063477039999997,2.261614625
32,2.648958333,4.626666667,2.2804133330000003,2.266458333,2.353958333,3.32305,64.621875,62.48979167,63.396,68.62604167,70.7375,43.97642857,15.35375,13.53458333,26.60866667,18.95979167,15.73541667,30.62357143,1.99990201,292.78,0.7490000000000001,0.157,0,0,1,0,1,0,1,0,1,0,0,1,292.6,300.78,298.76,292.24,308.36,0.151,0.18600000000000003,0.171,0.22699999999999998,0.179,0.518,0.6559999999999999,0.588,0.69,0.43200000000000005,1.176084161,4.164859772,3.7193806169999997,1.3602610830000001,8.636237621,3.720660969
33,4.25375,2.501234417,1.8380791840000001,2.206239,0.8995266279999999,1.311433826,54.55145833,72.5605968,58.45947368,71.03355556,63.07418605,73.22586957,11.97104167,8.362234375,18.03157895,6.7249777779999995,11.20748837,12.40482609,2.8622043130000003,288.7,0.299,0.142,0,0,1,0,1,0,1,1,1,0,0,1,280.38,298.82,290.12,294.16,287.12,0.149,0.11800000000000001,0.10400000000000001,0.076,0.046,0.494,0.39,0.349,0.34,0.215,0.88712126,1.7351119519999998,0.9213785529999999,2.6971101760000002,1.438070655,3.42968857
34,2.920833333,4.333523769,5.965555571,4.34851817,4.585773119,1.8943642859999998,67.63083333,47.23641026,50.87228571,60.11042553,62.61595238,50.47314286,17.12041667,20.56076923,20.39171429,14.69212766,13.16047619,17.28105714,2.426237822,300.92,0.44,0.183,0,0,1,0,1,1,0,0,0,0,0,1,310.34,307.9,303.96,297.14,301.92,0.121,0.14300000000000002,0.141,0.128,0.128,0.29600000000000004,0.282,0.32299999999999995,0.402,0.524,0.3,3.267516375,0.3,4.482334614,2.211139679,2.044303122
35,2.142083333,4.6776685780000005,5.183065167,2.79177213,2.920833333,4.333523769,57.52520833,65.27511111,61.68541667,60.04826087,67.63083333,47.23641026,19.956875,19.50888889,19.404375,17.65695652,17.12041667,20.56076923,0.3,301.06,0.701,0.171,0,0,1,0,1,1,0,0,0,0,0,1,313.08,315.42,304.26,300.92,310.34,0.133,0.122,0.12300000000000001,0.183,0.121,0.461,0.31,0.46299999999999997,0.44,0.29600000000000004,0.3,1.03443265,3.4133243560000004,2.426237822,0.3,4.060438054
36,1.351666667,2.076183429,3.7423654789999996,3.463381333,2.142083333,4.6776685780000005,68.974375,46.928000000000004,69.66395833,68.62375,57.52520833,65.27511111,17.50020833,25.331999999999997,17.348125,18.83125,19.956875,19.50888889,4.106770753999999,300.84,0.68,0.168,0,0,1,0,1,0,0,1,0,0,0,1,308.8,307.08,303.06,301.06,313.08,0.166,0.14300000000000002,0.141,0.171,0.133,0.752,0.56,0.675,0.701,0.461,0.3,2.655340195,3.591257215,0.3,0.3,3.791835165
37,1.452291667,2.9742377839999996,1.351666667,2.076183429,3.7423654789999996,3.463381333,64.065,55.46648649,68.974375,46.928000000000004,69.66395833,68.62375,19.61083333,24.29216216,17.50020833,25.331999999999997,17.348125,18.83125,4.8183803560000005,302.94,0.655,0.193,0,0,1,0,1,0,0,1,0,0,0,1,307.42,300.84,308.8,307.08,303.06,0.18600000000000003,0.168,0.166,0.14300000000000002,0.141,0.775,0.68,0.752,0.56,0.675,0.3,4.106770753999999,0.3,2.655340195,3.591257215,3.34674357
38,1.4304166669999998,2.9847314999999996,1.452291667,2.9742377839999996,1.351666667,2.076183429,42.39604167,55.62645833,64.065,55.46648649,68.974375,46.928000000000004,26.47041667,21.93791667,19.61083333,24.29216216,17.50020833,25.331999999999997,0.3,311.92,0.748,0.187,0,0,1,0,1,0,0,1,0,0,0,1,305.62,302.94,307.42,300.84,308.8,0.193,0.193,0.18600000000000003,0.168,0.166,0.8170000000000001,0.655,0.775,0.68,0.752,5.47671175,4.8183803560000005,0.3,4.106770753999999,0.3,5.187148693999999
39,1.4829166669999998,1.4304166669999998,2.9847314999999996,1.452291667,2.9742377839999996,1.351666667,51.47479167,42.39604167,55.62645833,64.065,55.46648649,68.974375,25.65145833,26.47041667,21.93791667,19.61083333,24.29216216,17.50020833,4.784526348,307.92,0.5820000000000001,0.188,0,0,1,0,1,0,0,1,1,0,0,1,311.92,305.62,302.94,307.42,300.84,0.187,0.193,0.193,0.18600000000000003,0.168,0.748,0.8170000000000001,0.655,0.775,0.68,0.3,5.47671175,4.8183803560000005,0.3,4.106770753999999,4.377967114
40,1.75125,1.4829166669999998,1.4304166669999998,2.9847314999999996,1.452291667,2.9742377839999996,47.64458333,51.47479167,42.39604167,55.62645833,64.065,55.46648649,24.38208333,25.65145833,26.47041667,21.93791667,19.61083333,24.29216216,3.779826403,309.04,0.59,0.188,0,0,1,0,1,0,0,1,1,0,0,1,307.92,311.92,305.62,302.94,307.42,0.188,0.187,0.193,0.193,0.18600000000000003,0.5820000000000001,0.748,0.8170000000000001,0.655,0.775,4.784526348,0.3,5.47671175,4.8183803560000005,0.3,4.1573182289999995
41,1.254583333,1.75125,1.4829166669999998,1.4304166669999998,2.9847314999999996,1.452291667,53.70958333,47.64458333,51.47479167,42.39604167,55.62645833,64.065,19.753125,24.38208333,25.65145833,26.47041667,21.93791667,19.61083333,2.976030588,307.64,0.6890000000000001,0.188,0,0,1,0,1,0,0,1,1,0,0,1,309.04,307.92,311.92,305.62,302.94,0.188,0.188,0.187,0.193,0.193,0.59,0.5820000000000001,0.748,0.8170000000000001,0.655,3.779826403,4.784526348,0.3,5.47671175,4.8183803560000005,3.073630502
42,2.7615,2.2244827590000003,2.3465517240000002,2.406923077,4.941851852,2.483125,29.0,22.50793103,58.72206897,62.67807692,73.33081481,79.60666667,23.10933333,24.66206897,15.14310345,11.73830769,7.12662963,6.158291667,0.3,308.3,0.48700000000000004,0.152,0,0,1,1,0,0,0,0,1,1,0,0,312.88,301.22,302.48,288.36,285.78,0.147,0.15,0.15,0.146,0.152,0.34299999999999997,0.447,0.32,0.413,0.39,0.3,0.3,0.821206152,2.004034996,1.039481878,4.262713025
43,2.3765,2.7615,2.2244827590000003,2.3465517240000002,2.406923077,4.941851852,28.91266667,29.0,22.50793103,58.72206897,62.67807692,73.33081481,21.34866667,23.10933333,24.66206897,15.14310345,11.73830769,7.12662963,0.3,313.32,0.348,0.152,0,0,1,1,0,0,0,0,1,1,0,0,308.3,312.88,301.22,302.48,288.36,0.152,0.147,0.15,0.15,0.146,0.48700000000000004,0.34299999999999997,0.447,0.32,0.413,0.3,0.3,0.3,0.821206152,2.004034996,3.755100878
44,1.8880000000000001,2.3765,2.7615,2.2244827590000003,2.3465517240000002,2.406923077,34.451,28.91266667,29.0,22.50793103,58.72206897,62.67807692,14.720999999999998,21.34866667,23.10933333,24.66206897,15.14310345,11.73830769,0.3,299.82,0.47700000000000004,0.154,0,0,1,1,0,0,0,0,1,1,0,0,313.32,308.3,312.88,301.22,302.48,0.152,0.152,0.147,0.15,0.15,0.348,0.48700000000000004,0.34299999999999997,0.447,0.32,0.3,0.3,0.3,0.3,0.821206152,3.4005251989999996
45,2.452833333,2.298125,1.8880000000000001,2.3765,2.7615,2.2244827590000003,14.07166667,79.9925,34.451,28.91266667,29.0,22.50793103,29.64673333,11.67872917,14.720999999999998,21.34866667,23.10933333,24.66206897,2.0676119330000002,312.04,0.465,0.152,0,0,1,1,0,1,0,0,0,1,0,0,289.84,299.82,313.32,308.3,312.88,0.196,0.154,0.152,0.152,0.147,0.6890000000000001,0.47700000000000004,0.348,0.48700000000000004,0.34299999999999997,3.4989149569999998,0.3,0.3,0.3,0.3,4.178390779
46,1.351666667,4.706547619,8.2641875,3.869869565,3.005486486,3.857416667,71.92020833,48.2242381,51.92572917,41.72634783,62.23340541,54.84433333,9.840395832999999,19.89890476,17.65070833,15.95047826,23.4102973,28.54083333,2.898472548,293.96,0.778,0.191,0,0,1,1,1,0,0,0,1,0,0,1,300.82,302.42,304.58,301.06,296.6,0.161,0.153,0.147,0.114,0.113,0.638,0.36,0.436,0.727,0.851,2.307102203,0.3,0.3,0.3,8.032111168,2.8061432139999996
47,1.486666667,1.351666667,4.706547619,8.2641875,3.869869565,3.005486486,69.74458333,71.92020833,48.2242381,51.92572917,41.72634783,62.23340541,11.327625,9.840395832999999,19.89890476,17.65070833,15.95047826,23.4102973,2.805195332,297.9,0.6679999999999999,0.192,0,0,1,1,1,0,0,0,1,0,0,1,293.96,300.82,302.42,304.58,301.06,0.191,0.161,0.153,0.147,0.114,0.778,0.638,0.36,0.436,0.727,2.898472548,2.307102203,0.3,0.3,0.3,3.557805798
48,2.300833333,2.982295625,1.486666667,1.351666667,4.706547619,8.2641875,70.82625,63.40493054,69.74458333,71.92020833,48.2242381,51.92572917,15.22,13.897666699999998,11.327625,9.840395832999999,19.89890476,17.65070833,6.2877635960000005,295.1,0.732,0.195,0,0,1,1,1,0,0,0,1,0,0,1,301.2,297.9,293.96,300.82,302.42,0.16399999999999998,0.192,0.191,0.161,0.153,0.409,0.6679999999999999,0.778,0.638,0.36,0.3,2.805195332,2.898472548,2.307102203,0.3,4.530451531000001
49,1.3712894740000001,6.099763157999999,4.798854167,4.291044444,2.450045455,2.0150416669999998,56.32647368,76.49310526,42.98416667,75.94946667,75.07440909,70.2641875,22.455,29.33465789,28.1785625,29.82306667,29.72686364,25.88427083,3.633714437,304.28,0.5660000000000001,0.177,0,1,0,0,0,0,1,0,0,0,1,1,302.96,312.36,304.64,308.94,303.42,0.184,0.18600000000000003,0.185,0.183,0.187,0.695,0.507,0.727,0.68,0.672,3.174283743,2.6983335019999997,0.3,5.108096123,0.3,2.8659089669999998
50,1.8755862069999998,2.256043542,1.770355625,1.3712894740000001,6.099763157999999,4.798854167,67.98051724,59.16484567,72.29922758,56.32647368,76.49310526,42.98416667,21.05903448,15.81798608,13.95930554,22.455,29.33465789,28.1785625,0.3,298.54,0.627,0.18100000000000002,0,1,0,0,0,0,1,0,0,0,1,1,296.16,294.84,304.28,302.96,312.36,0.17600000000000002,0.17600000000000002,0.177,0.184,0.18600000000000003,0.589,0.22,0.5660000000000001,0.695,0.507,0.3,0.8444659109999999,3.633714437,3.174283743,2.6983335019999997,3.9466591589999998
51,1.352210526,1.8755862069999998,2.256043542,1.770355625,1.3712894740000001,6.099763157999999,57.38589474,67.98051724,59.16484567,72.29922758,56.32647368,76.49310526,19.49731579,21.05903448,15.81798608,13.95930554,22.455,29.33465789,2.830246687,299.14,0.539,0.183,0,1,0,0,0,0,1,0,1,0,1,1,298.54,296.16,294.84,304.28,302.96,0.18100000000000002,0.17600000000000002,0.17600000000000002,0.177,0.184,0.627,0.589,0.22,0.5660000000000001,0.695,0.3,0.3,0.8444659109999999,3.633714437,3.174283743,2.006005122
52,3.3324,1.352210526,1.8755862069999998,2.256043542,1.770355625,1.3712894740000001,68.60488000000001,57.38589474,67.98051724,59.16484567,72.29922758,56.32647368,14.896479999999999,19.49731579,21.05903448,15.81798608,13.95930554,22.455,0.3,295.22,0.517,0.183,0,1,0,0,0,0,1,0,1,0,1,1,299.14,298.54,296.16,294.84,304.28,0.183,0.18100000000000002,0.17600000000000002,0.17600000000000002,0.177,0.539,0.627,0.589,0.22,0.5660000000000001,2.830246687,0.3,0.3,0.8444659109999999,3.633714437,2.302052364
53,11.53046154,4.089375,1.539166667,2.9641666669999998,3.160208333,2.441666667,72.5544359,51.780625,50.17958333,48.81166667,52.74729167,49.12583333,27.60905128,15.90645833,10.25854167,13.36395833,8.011458333,9.072291667,0.3,303.84,0.6890000000000001,0.16699999999999998,0,1,0,0,0,0,0,0,1,0,1,1,296.92,295.66,296.96,289.06,291.08,0.196,0.201,0.182,0.17800000000000002,0.155,0.877,0.8290000000000001,0.726,0.76,0.35600000000000004,5.264586926000001,0.750538588,4.668118,4.481790066,0.3,1.630794274
54,6.406045455,11.53046154,4.089375,1.539166667,2.9641666669999998,3.160208333,60.02263636,72.5544359,51.780625,50.17958333,48.81166667,52.74729167,30.17088636,27.60905128,15.90645833,10.25854167,13.36395833,8.011458333,7.037987232000001,309.06,0.759,0.182,0,1,0,0,0,1,0,0,0,0,1,1,303.84,296.92,295.66,296.96,289.06,0.16699999999999998,0.196,0.201,0.182,0.17800000000000002,0.6890000000000001,0.877,0.8290000000000001,0.726,0.76,0.3,5.264586926000001,0.750538588,4.668118,4.481790066,5.198583181
55,7.839461537999999,6.406045455,11.53046154,4.089375,1.539166667,2.9641666669999998,67.52115385,60.02263636,72.5544359,51.780625,50.17958333,48.81166667,29.94779487,30.17088636,27.60905128,15.90645833,10.25854167,13.36395833,0.3,304.02,0.8059999999999999,0.182,0,1,0,0,0,1,0,0,0,0,1,1,309.06,303.84,296.92,295.66,296.96,0.182,0.16699999999999998,0.196,0.201,0.182,0.759,0.6890000000000001,0.877,0.8290000000000001,0.726,7.037987232000001,0.3,5.264586926000001,0.750538588,4.668118,3.827331628
56,4.340909091,1.8464583330000002,7.839461537999999,6.406045455,11.53046154,4.089375,75.62921212,67.22458333,67.52115385,60.02263636,72.5544359,51.780625,21.80954545,15.043125,29.94779487,30.17088636,27.60905128,15.90645833,9.56253624,301.86,0.804,0.192,0,1,0,0,0,1,0,0,0,0,1,1,293.58,304.02,309.06,303.84,296.92,0.179,0.182,0.182,0.16699999999999998,0.196,0.5920000000000001,0.8059999999999999,0.759,0.6890000000000001,0.877,0.3,0.3,7.037987232000001,0.3,5.264586926000001,2.031114517
57,5.830311111,4.340909091,1.8464583330000002,7.839461537999999,6.406045455,11.53046154,56.81684444,75.62921212,67.22458333,67.52115385,60.02263636,72.5544359,32.78308889,21.80954545,15.043125,29.94779487,30.17088636,27.60905128,0.3,313.94,0.7040000000000001,0.191,0,1,0,0,0,0,0,1,0,0,1,1,301.86,293.58,304.02,309.06,303.84,0.192,0.179,0.182,0.182,0.16699999999999998,0.804,0.5920000000000001,0.8059999999999999,0.759,0.6890000000000001,9.56253624,0.3,0.3,7.037987232000001,0.3,5.712045302999999
58,2.8358181819999997,5.830311111,4.340909091,1.8464583330000002,7.839461537999999,6.406045455,71.84466667,56.81684444,75.62921212,67.22458333,67.52115385,60.02263636,29.15084848,32.78308889,21.80954545,15.043125,29.94779487,30.17088636,6.079884052000001,306.66,0.7490000000000001,0.19699999999999998,0,1,0,0,0,0,0,1,0,0,1,1,313.94,301.86,293.58,304.02,309.06,0.191,0.192,0.179,0.182,0.182,0.7040000000000001,0.804,0.5920000000000001,0.8059999999999999,0.759,0.3,9.56253624,0.3,0.3,7.037987232000001,7.931033442
59,4.991604167,2.8358181819999997,5.830311111,4.340909091,1.8464583330000002,7.839461537999999,80.45952083,71.84466667,56.81684444,75.62921212,67.22458333,67.52115385,29.95772917,29.15084848,32.78308889,21.80954545,15.043125,29.94779487,0.3,302.76,0.7909999999999999,0.198,0,1,0,0,0,0,0,1,0,0,1,1,306.66,313.94,301.86,293.58,304.02,0.19699999999999998,0.191,0.192,0.179,0.182,0.7490000000000001,0.7040000000000001,0.804,0.5920000000000001,0.8059999999999999,6.079884052000001,0.3,9.56253624,0.3,0.3,5.08392324
60,4.2598936169999995,5.713447457999999,4.991604167,2.8358181819999997,5.830311111,4.340909091,63.03621277,78.25345833,80.45952083,71.84466667,56.81684444,75.62921212,33.95429787,17.491125,29.95772917,29.15084848,32.78308889,21.80954545,0.3,313.18,0.718,0.196,0,1,0,0,0,0,0,1,0,0,1,1,298.32,302.76,306.66,313.94,301.86,0.19,0.198,0.19699999999999998,0.191,0.192,0.684,0.7909999999999999,0.7490000000000001,0.7040000000000001,0.804,6.361943245,0.3,6.079884052000001,0.3,9.56253624,4.657915432
61,2.513581395,5.484906354,4.2598936169999995,5.713447457999999,4.991604167,2.8358181819999997,71.62783721,71.86116667,63.03621277,78.25345833,80.45952083,71.84466667,30.11169767,18.5894375,33.95429787,17.491125,29.95772917,29.15084848,0.3,303.56,0.753,0.18899999999999997,0,1,0,0,0,0,0,1,0,0,1,1,304.94,313.18,298.32,302.76,306.66,0.19,0.196,0.19,0.198,0.19699999999999998,0.64,0.718,0.684,0.7909999999999999,0.7490000000000001,8.136094092999999,0.3,6.361943245,0.3,6.079884052000001,5.42283362
62,3.9083541669999997,2.513581395,5.484906354,4.2598936169999995,5.713447457999999,4.991604167,49.8745625,71.62783721,71.86116667,63.03621277,78.25345833,80.45952083,35.26758333,30.11169767,18.5894375,33.95429787,17.491125,29.95772917,6.0373206139999995,309.34,0.691,0.18100000000000002,0,1,0,0,0,0,0,1,1,0,1,1,303.56,304.94,313.18,298.32,302.76,0.18899999999999997,0.19,0.196,0.19,0.198,0.753,0.64,0.718,0.684,0.7909999999999999,0.3,8.136094092999999,0.3,6.361943245,0.3,4.33780745
63,4.572521739,5.1799522289999995,3.9083541669999997,2.513581395,5.484906354,4.2598936169999995,48.90621739,70.73275,49.8745625,71.62783721,71.86116667,63.03621277,35.064,18.57914583,35.26758333,30.11169767,18.5894375,33.95429787,0.3,316.72,0.65,0.182,0,1,0,0,0,0,0,1,1,0,1,1,301.54,309.34,303.56,304.94,313.18,0.191,0.18100000000000002,0.18899999999999997,0.19,0.196,0.585,0.691,0.753,0.64,0.718,7.792403936,6.0373206139999995,0.3,8.136094092999999,0.3,3.977195407
64,2.8815,4.572521739,5.1799522289999995,3.9083541669999997,2.513581395,5.484906354,39.93920833,48.90621739,70.73275,49.8745625,71.62783721,71.86116667,32.37916667,35.064,18.57914583,35.26758333,30.11169767,18.5894375,0.3,309.92,0.7,0.188,0,1,0,0,0,0,0,1,1,0,1,1,316.72,301.54,309.34,303.56,304.94,0.182,0.191,0.18100000000000002,0.18899999999999997,0.19,0.65,0.585,0.691,0.753,0.64,0.3,7.792403936,6.0373206139999995,0.3,8.136094092999999,4.6381038839999995
65,5.5421702129999995,2.8815,4.572521739,5.1799522289999995,3.9083541669999997,2.513581395,42.62380851,39.93920833,48.90621739,70.73275,49.8745625,71.62783721,33.01676596,32.37916667,35.064,18.57914583,35.26758333,30.11169767,2.6841106409999997,309.18,0.607,0.187,0,1,0,0,0,0,1,0,0,0,1,1,309.92,316.72,301.54,309.34,303.56,0.188,0.182,0.191,0.18100000000000002,0.18899999999999997,0.7,0.65,0.585,0.691,0.753,0.3,0.3,7.792403936,6.0373206139999995,0.3,1.967276755
66,2.5506666669999998,5.5421702129999995,2.8815,4.572521739,5.1799522289999995,3.9083541669999997,67.07153333,42.62380851,39.93920833,48.90621739,70.73275,49.8745625,24.6814,33.01676596,32.37916667,35.064,18.57914583,35.26758333,15.0,302.4,0.5710000000000001,0.184,0,1,0,0,0,0,1,0,0,0,1,1,309.18,309.92,316.72,301.54,309.34,0.187,0.188,0.182,0.191,0.18100000000000002,0.607,0.7,0.65,0.585,0.691,2.6841106409999997,0.3,0.3,7.792403936,6.0373206139999995,3.6808037319999998
67,1.814148936,2.5506666669999998,5.5421702129999995,2.8815,4.572521739,5.1799522289999995,68.05019149,67.07153333,42.62380851,39.93920833,48.90621739,70.73275,24.36574468,24.6814,33.01676596,32.37916667,35.064,18.57914583,0.3,305.04,0.621,0.182,0,1,0,0,0,0,1,0,0,0,1,1,302.4,309.18,309.92,316.72,301.54,0.184,0.187,0.188,0.182,0.191,0.5710000000000001,0.607,0.7,0.65,0.585,15.0,2.6841106409999997,0.3,0.3,7.792403936,1.831351065
68,3.857416667,2.670208333,1.688333333,2.9159393939999996,1.0660416670000001,2.910208333,54.84433333,73.31,77.995,84.34669697,81.96291667,79.17395833,28.54083333,5.344458333,4.338104167,24.10290909,-0.908645833,0.36927083299999997,8.032111168,296.6,0.851,0.113,0,1,0,0,1,0,1,1,1,1,0,1,289.32,290.96,296.74,280.92,279.32,0.161,0.16,0.111,0.139,0.153,0.34600000000000003,0.635,0.8290000000000001,0.385,0.424,0.3,2.084807396,5.794416428,0.3,1.483781815,10.62643997
69,3.005486486,3.857416667,2.670208333,1.688333333,2.9159393939999996,1.0660416670000001,62.23340541,54.84433333,73.31,77.995,84.34669697,81.96291667,23.4102973,28.54083333,5.344458333,4.338104167,24.10290909,-0.908645833,0.3,301.06,0.727,0.114,0,1,0,0,1,0,0,0,1,1,0,1,296.6,289.32,290.96,296.74,280.92,0.113,0.161,0.16,0.111,0.139,0.851,0.34600000000000003,0.635,0.8290000000000001,0.385,8.032111168,0.3,2.084807396,5.794416428,0.3,6.821244475
70,8.572458333,5.6353953489999995,2.510209302,4.66755,4.636368421,6.294906977,49.59520833,55.47337209,72.61823256,51.740425,63.85839474,47.58,27.874375,27.06695349,23.1407907,21.1481,24.21615789,19.97562791,0.3,310.12,0.155,0.183,0,1,0,1,0,1,0,0,0,0,1,1,308.14,308.22,306.94,299.8,301.86,0.17600000000000002,0.16699999999999998,0.15,0.15,0.213,0.779,0.7190000000000001,0.39799999999999996,0.564,0.266,0.3,0.3,0.3,2.288043499,0.3,1.1998816079999999
71,5.483744681,3.9310302630000002,3.4111521739999997,3.983960534,2.147152291,2.200662985,75.66212766,43.71520833,51.09667391,58.794375,77.81333333,81.605625,20.74340426,16.475,4.666456522,9.147083333,12.91895833,13.56479167,0.3,306.1,0.387,0.16699999999999998,0,1,0,1,1,1,0,1,1,0,1,1,297.86,288.78,289.3,291.0,292.36,0.19699999999999998,0.174,0.177,0.157,0.15,0.6809999999999999,0.242,0.488,0.708,0.6579999999999999,3.9945673939999997,1.283011913,0.3,0.3,2.291644812,2.979626618
72,2.904291667,2.0348666669999997,2.144286471,1.075416667,1.389363636,2.163541667,44.14310417,58.48333333,60.55645833,60.48145833,54.13477273,66.10541667,32.41527083,20.73622222,26.33375,14.5925,23.75318182,14.14875,2.341912508,320.1,0.419,0.16899999999999998,0,1,0,1,1,0,1,0,0,0,1,1,302.42,320.04,299.76,305.82,294.64,0.19899999999999998,0.213,0.179,0.191,0.182,0.7120000000000001,0.304,0.872,0.7190000000000001,0.89,0.3,0.5687252279999999,2.721968889,7.03924942,1.260068536,1.3538317990000002
73,2.260291867,4.208544583,3.3324,1.352210526,1.8755862069999998,2.256043542,79.10354167,85.39543121,68.60488000000001,57.38589474,67.98051724,59.16484567,13.50541667,11.21951381,14.896479999999999,19.49731579,21.05903448,15.81798608,0.3,291.6,0.535,0.146,0,1,1,0,0,0,1,0,1,0,0,1,290.8,295.22,299.14,298.54,296.16,0.165,0.183,0.183,0.18100000000000002,0.17600000000000002,0.245,0.517,0.539,0.627,0.589,0.3,0.3,2.830246687,0.3,0.3,1.601292086
74,1.8674554419999998,2.260291867,4.208544583,3.3324,1.352210526,1.8755862069999998,69.17125,79.10354167,85.39543121,68.60488000000001,57.38589474,67.98051724,12.3840625,13.50541667,11.21951381,14.896479999999999,19.49731579,21.05903448,0.48150852299999997,291.08,0.522,0.152,0,1,1,0,0,0,1,0,1,0,0,1,291.6,290.8,295.22,299.14,298.54,0.146,0.165,0.183,0.183,0.18100000000000002,0.535,0.245,0.517,0.539,0.627,0.3,0.3,0.3,2.830246687,0.3,1.9343249130000002
75,2.13475,3.249166667,5.17625,2.325416667,1.3879166669999998,4.625465553,70.10625,88.935,70.88166667,92.43104167,74.32416667,72.64506383,15.643125,11.98395833,16.68416667,16.39395833,19.135,18.05402128,2.9517352580000003,293.88,0.732,0.111,0,1,1,0,1,0,1,0,1,1,0,0,282.9,291.42,295.56,287.26,298.38,0.151,0.161,0.129,0.22399999999999998,0.198,0.335,0.619,0.42,0.184,0.662,2.8401508339999997,0.3,1.686466575,1.451250076,6.349031925,2.035301393
76,1.8223125,2.502916667,3.271875,1.712291667,2.13475,3.249166667,43.63770833,70.90875,86.55041667,94.80104167,70.10625,88.935,13.75104167,12.49395833,6.203333333,7.036875,15.643125,11.98395833,0.3,289.38,0.65,0.11599999999999999,0,1,1,0,1,0,1,1,0,1,0,0,283.14,278.32,286.26,293.88,282.9,0.175,0.165,0.168,0.111,0.151,0.635,0.775,0.768,0.732,0.335,3.7234704489999997,0.3,0.3,2.9517352580000003,2.8401508339999997,1.895061122
77,4.407735191,2.304791136,5.79285,2.21453425,2.271666667,4.472934128,64.90280851,43.40729167,49.90375,63.88291667,52.94020833,65.78974468,19.11653191,28.36197917,31.80125,14.87635417,18.80354167,17.11823404,7.661966324,300.04,0.731,0.172,0,1,1,1,0,0,0,1,0,0,0,1,313.5,310.28,300.78,302.58,306.18,0.195,0.21,0.192,0.16899999999999998,0.14800000000000002,0.527,0.536,0.5379999999999999,0.8490000000000001,0.618,0.3,3.3952946660000003,0.7872847909999999,5.969644547000001,3.241706848,6.788318117
78,2.7693178130000002,1.4875,5.200785,4.407735191,2.304791136,5.79285,60.62241667,67.6875,47.4135,64.90280851,43.40729167,49.90375,20.13320833,12.250625,34.0565,19.11653191,28.36197917,31.80125,8.228583336,301.14,0.6940000000000001,0.196,0,1,1,1,0,0,0,1,1,0,0,1,290.24,298.8,300.04,313.5,310.28,0.18600000000000003,0.184,0.172,0.195,0.21,0.606,0.727,0.731,0.527,0.536,2.8179247380000003,8.727685452000001,7.661966324,0.3,3.3952946660000003,6.835347031
79,4.414378271,2.7693178130000002,1.4875,5.200785,4.407735191,2.304791136,69.81670833,60.62241667,67.6875,47.4135,64.90280851,43.40729167,18.27391667,20.13320833,12.250625,34.0565,19.11653191,28.36197917,7.501606702999999,301.42,0.737,0.203,0,1,1,1,0,0,0,1,1,0,0,1,301.14,290.24,298.8,300.04,313.5,0.196,0.18600000000000003,0.184,0.172,0.195,0.6940000000000001,0.606,0.727,0.731,0.527,8.228583336,2.8179247380000003,8.727685452000001,7.661966324,0.3,5.479134096
80,3.940714835,2.167820513,1.99836189,5.137191489,2.760839165,7.698212766,41.2925,45.83153846,57.49354167,53.70276596,56.94,47.55555319,25.160625,24.65846154,25.996875,16.20044681,24.73770833,18.55744681,0.3,317.48,0.39799999999999996,0.20800000000000002,0,1,1,1,1,0,0,1,0,0,0,1,311.84,318.16,302.08,317.58,311.02,0.152,0.20199999999999999,0.132,0.191,0.133,0.534,0.32,0.413,0.426,0.34600000000000003,3.0573840139999997,0.3,1.4581503869999999,0.3,1.973774254,1.860322495
81,2.66572429,1.722083333,5.256416667,2.5419347830000003,1.244375,3.940714835,41.1625,62.44458333,67.0610625,62.62830435,64.82458333,41.2925,28.034375,14.746875,17.62041667,27.54632609,14.35104167,25.160625,0.6506967539999999,321.04,0.392,0.212,0,1,1,1,1,0,0,1,1,0,0,1,290.36,298.94,305.96,291.6,317.48,0.182,0.172,0.105,0.195,0.20800000000000002,0.706,0.696,0.8079999999999999,0.784,0.39799999999999996,1.6451857090000002,5.262246132,9.705223083,1.733057499,0.3,1.980723848
82,2.144286471,1.075416667,1.389363636,2.163541667,2.66572429,1.722083333,60.55645833,60.48145833,54.13477273,66.10541667,41.1625,62.44458333,26.33375,14.5925,23.75318182,14.14875,28.034375,14.746875,0.5687252279999999,320.04,0.304,0.213,0,1,1,1,1,0,0,1,1,0,0,1,299.76,305.82,294.64,321.04,290.36,0.179,0.191,0.182,0.212,0.182,0.872,0.7190000000000001,0.89,0.392,0.706,2.721968889,7.03924942,1.260068536,0.6506967539999999,1.6451857090000002,1.7980287130000001
83,7.937761905,3.803621622,3.334782609,1.734846154,1.266583333,4.4566666669999995,44.06,31.01840541,66.36052174,55.95692308,49.62,63.40854167,13.54621429,13.28872973,12.42417391,10.80876923,10.67158333,11.986875,5.112141609,290.82,0.665,0.154,1,0,0,0,0,0,1,1,1,0,0,1,294.26,288.16,284.92,281.82,283.04,0.159,0.115,0.10400000000000001,0.10400000000000001,0.168,0.48,0.377,0.312,0.295,0.281,3.092366815,1.8565292359999999,2.355916262,0.3,6.414458752000001,5.640940095
84,7.348021739,7.937761905,3.803621622,3.334782609,1.734846154,1.266583333,35.49891304,44.06,31.01840541,66.36052174,55.95692308,49.62,16.11673913,13.54621429,13.28872973,12.42417391,10.80876923,10.67158333,7.467412472,295.22,0.594,0.158,1,0,0,0,0,0,1,1,1,0,0,1,290.82,294.26,288.16,284.92,281.82,0.154,0.159,0.115,0.10400000000000001,0.10400000000000001,0.665,0.48,0.377,0.312,0.295,5.112141609,3.092366815,1.8565292359999999,2.355916262,0.3,4.8883294919999996
85,6.93497561,7.348021739,7.937761905,3.803621622,3.334782609,1.734846154,35.87073171,35.49891304,44.06,31.01840541,66.36052174,55.95692308,13.08421951,16.11673913,13.54621429,13.28872973,12.42417391,10.80876923,4.838779449,294.58,0.46799999999999997,0.162,1,0,0,0,0,0,1,1,1,0,0,1,295.22,290.82,294.26,288.16,284.92,0.158,0.154,0.159,0.115,0.10400000000000001,0.594,0.665,0.48,0.377,0.312,7.467412472,5.112141609,3.092366815,1.8565292359999999,2.355916262,4.626148691
86,2.21453425,2.271666667,4.472934128,2.0525,5.385222787000001,1.756666667,63.88291667,52.94020833,65.78974468,62.94895833,63.05659574,71.05625,14.87635417,18.80354167,17.11823404,11.54291667,16.19131915,11.43625,0.7872847909999999,300.78,0.5379999999999999,0.192,1,0,0,0,1,1,0,0,0,0,0,1,302.58,306.18,289.7,300.68,292.8,0.16899999999999998,0.14800000000000002,0.188,0.16899999999999998,0.172,0.8490000000000001,0.618,0.684,0.679,0.639,5.969644547000001,3.241706848,1.064328194,4.085826397,1.8214200740000002,1.107340779
87,2.304791136,5.79285,2.21453425,2.271666667,4.472934128,2.0525,43.40729167,49.90375,63.88291667,52.94020833,65.78974468,62.94895833,28.36197917,31.80125,14.87635417,18.80354167,17.11823404,11.54291667,0.3,313.5,0.527,0.195,1,0,0,0,1,0,0,1,0,0,0,1,310.28,300.78,302.58,306.18,289.7,0.21,0.192,0.16899999999999998,0.14800000000000002,0.188,0.536,0.5379999999999999,0.8490000000000001,0.618,0.684,3.3952946660000003,0.7872847909999999,5.969644547000001,3.241706848,1.064328194,5.280913019
88,3.010185714,4.07446,3.86375,5.63817,3.849415385,5.284166667,50.25428571,54.912,36.12818182,42.418,24.67153846,60.710625,17.08571429,20.168,19.44772727,7.6285,13.55115385,7.877083333,2.01513052,296.16,0.7929999999999999,0.177,1,0,0,1,0,0,1,1,1,0,1,1,293.72,298.04,287.78,290.78,284.44,0.168,0.198,0.19699999999999998,0.187,0.159,0.312,0.59,0.7559999999999999,0.575,0.433,0.3,1.474037051,6.678493023,0.3,0.743035793,3.49610519
89,2.156075,8.6457,4.8988,3.010185714,4.07446,3.86375,72.045,56.29,35.61,50.25428571,54.912,36.12818182,14.14,26.41,20.47,17.08571429,20.168,19.44772727,1.415090442,299.6,0.787,0.166,1,0,0,1,0,0,0,0,1,0,1,1,300.64,296.54,296.16,293.72,298.04,0.16699999999999998,0.183,0.177,0.168,0.198,0.514,0.522,0.7929999999999999,0.312,0.59,3.7882694010000004,0.894972801,2.01513052,0.3,1.474037051,3.6732468369999998
90,4.278129412,2.762291667,1.8752083330000002,2.156075,8.6457,4.8988,47.64529412,59.65208333,74.22,72.045,56.29,35.61,24.14352941,6.775416667000001,2.760416667,14.14,26.41,20.47,2.4131479259999997,300.14,0.73,0.16,1,0,0,1,0,0,0,0,1,0,1,1,281.16,275.9,299.6,300.64,296.54,0.19,0.18899999999999997,0.166,0.16699999999999998,0.183,0.304,0.040999999999999995,0.787,0.514,0.522,1.218460798,0.3,1.415090442,3.7882694010000004,0.894972801,9.582663712999999
91,1.94095,1.488340021,4.278129412,2.762291667,1.8752083330000002,2.156075,44.27,74.01757498,47.64529412,59.65208333,74.22,72.045,23.01,15.36528719,24.14352941,6.775416667000001,2.760416667,14.14,4.462000847,300.98,0.632,0.16699999999999998,1,0,0,1,0,0,0,0,1,0,1,1,298.8,300.14,281.16,275.9,299.6,0.18,0.16,0.19,0.18899999999999997,0.166,0.634,0.73,0.304,0.040999999999999995,0.787,0.596097946,2.4131479259999997,1.218460798,0.3,1.415090442,7.135255216
92,2.866141667,1.94095,1.488340021,4.278129412,2.762291667,1.8752083330000002,35.09166667,44.27,74.01757498,47.64529412,59.65208333,74.22,28.16333333,23.01,15.36528719,24.14352941,6.775416667000001,2.760416667,3.6744961739999997,306.48,0.5,0.174,1,0,0,1,0,0,0,0,1,0,1,1,300.98,298.8,300.14,281.16,275.9,0.16699999999999998,0.18,0.16,0.19,0.18899999999999997,0.632,0.634,0.73,0.304,0.040999999999999995,4.462000847,0.596097946,2.4131479259999997,1.218460798,0.3,7.650849738
93,3.32305,2.73,1.543125,2.866141667,1.94095,1.488340021,43.97642857,62.031875,54.06083333,35.09166667,44.27,74.01757498,30.62357143,18.53208333,16.15854167,28.16333333,23.01,15.36528719,8.636237621,308.36,0.43200000000000005,0.179,1,0,0,1,0,1,0,0,0,0,1,1,297.06,300.96,306.48,300.98,298.8,0.174,0.174,0.174,0.16699999999999998,0.18,0.667,0.75,0.5,0.632,0.634,3.2063477039999997,2.647957444,3.6744961739999997,4.462000847,0.596097946,8.177079127999999
94,4.8988,3.010185714,4.07446,3.86375,5.63817,3.849415385,35.61,50.25428571,54.912,36.12818182,42.418,24.67153846,20.47,17.08571429,20.168,19.44772727,7.6285,13.55115385,0.894972801,296.54,0.522,0.183,1,0,0,1,1,0,1,1,1,0,0,1,296.16,293.72,298.04,287.78,290.78,0.177,0.168,0.198,0.19699999999999998,0.187,0.7929999999999999,0.312,0.59,0.7559999999999999,0.575,2.01513052,0.3,1.474037051,6.678493023,0.3,4.837765949
95,8.6457,4.8988,3.010185714,4.07446,3.86375,5.63817,56.29,35.61,50.25428571,54.912,36.12818182,42.418,26.41,20.47,17.08571429,20.168,19.44772727,7.6285,3.7882694010000004,300.64,0.514,0.16699999999999998,1,0,0,1,1,0,1,1,1,0,0,1,296.54,296.16,293.72,298.04,287.78,0.183,0.177,0.168,0.198,0.19699999999999998,0.522,0.7929999999999999,0.312,0.59,0.7559999999999999,0.894972801,2.01513052,0.3,1.474037051,6.678493023,8.620296835
96,2.2804133330000003,2.266458333,2.353958333,3.32305,2.73,1.543125,63.396,68.62604167,70.7375,43.97642857,62.031875,54.06083333,26.60866667,18.95979167,15.73541667,30.62357143,18.53208333,16.15854167,4.164859772,300.78,0.6559999999999999,0.18600000000000003,1,0,0,1,1,0,1,0,0,0,0,1,298.76,292.24,308.36,297.06,300.96,0.171,0.22699999999999998,0.179,0.174,0.174,0.588,0.69,0.43200000000000005,0.667,0.75,3.7193806169999997,1.3602610830000001,8.636237621,3.2063477039999997,2.647957444,9.77138787
97,2.493253875,4.25375,2.501234417,1.8380791840000001,2.206239,0.8995266279999999,69.51692405,54.55145833,72.5605968,58.45947368,71.03355556,63.07418605,7.382752674,11.97104167,8.362234375,18.03157895,6.7249777779999995,11.20748837,3.025732756,289.0,0.725,0.16399999999999998,1,0,1,0,0,0,1,1,1,0,0,1,288.7,280.38,298.82,290.12,294.16,0.142,0.149,0.11800000000000001,0.10400000000000001,0.076,0.299,0.494,0.39,0.349,0.34,2.8622043130000003,0.88712126,1.7351119519999998,0.9213785529999999,2.6971101760000002,3.559653478
98,2.300339729,2.493253875,4.25375,2.501234417,1.8380791840000001,2.206239,57.03487371,69.51692405,54.55145833,72.5605968,58.45947368,71.03355556,14.08159896,7.382752674,11.97104167,8.362234375,18.03157895,6.7249777779999995,3.2553899289999997,288.9,0.57,0.16399999999999998,1,0,1,0,0,0,1,1,1,0,0,1,289.0,288.7,280.38,298.82,290.12,0.16399999999999998,0.142,0.149,0.11800000000000001,0.10400000000000001,0.725,0.299,0.494,0.39,0.349,3.025732756,2.8622043130000003,0.88712126,1.7351119519999998,0.9213785529999999,3.4747241019999997
99,3.773145167,1.254583333,1.75125,1.4829166669999998,1.4304166669999998,2.9847314999999996,76.56958333,53.70958333,47.64458333,51.47479167,42.39604167,55.62645833,16.11145833,19.753125,24.38208333,25.65145833,26.47041667,21.93791667,4.14589119,300.5,0.7759999999999999,0.19399999999999998,1,0,1,0,1,0,0,1,1,0,0,1,307.64,309.04,307.92,311.92,305.62,0.188,0.188,0.188,0.187,0.193,0.6890000000000001,0.59,0.5820000000000001,0.748,0.8170000000000001,2.976030588,3.779826403,4.784526348,0.3,5.47671175,2.9949162069999997
100,3.2164867289999997,3.773145167,1.254583333,1.75125,1.4829166669999998,1.4304166669999998,72.42583333,76.56958333,53.70958333,47.64458333,51.47479167,42.39604167,16.91583333,16.11145833,19.753125,24.38208333,25.65145833,26.47041667,4.1843748089999995,300.56,0.784,0.19,1,0,1,0,1,0,0,1,1,0,0,1,300.5,307.64,309.04,307.92,311.92,0.19399999999999998,0.188,0.188,0.188,0.187,0.7759999999999999,0.6890000000000001,0.59,0.5820000000000001,0.748,4.14589119,2.976030588,3.779826403,4.784526348,0.3,3.0426393689999998
101,2.212317692,3.2164867289999997,3.773145167,1.254583333,1.75125,1.4829166669999998,66.31076923,72.42583333,76.56958333,53.70958333,47.64458333,51.47479167,18.8674359,16.91583333,16.11145833,19.753125,24.38208333,25.65145833,5.7520861629999995,303.5,0.667,0.18899999999999997,1,0,1,0,1,0,1,0,0,0,0,1,300.56,300.5,307.64,309.04,307.92,0.19,0.19399999999999998,0.188,0.188,0.188,0.784,0.7759999999999999,0.6890000000000001,0.59,0.5820000000000001,4.1843748089999995,4.14589119,2.976030588,3.779826403,4.784526348,4.05822585
102,1.794714359,2.212317692,3.2164867289999997,3.773145167,1.254583333,1.75125,56.73461538,66.31076923,72.42583333,76.56958333,53.70958333,47.64458333,18.33435897,18.8674359,16.91583333,16.11145833,19.753125,24.38208333,2.439720392,301.66,0.662,0.19,1,0,1,0,1,0,1,0,0,0,0,1,303.5,300.56,300.5,307.64,309.04,0.18899999999999997,0.19,0.19399999999999998,0.188,0.188,0.667,0.784,0.7759999999999999,0.6890000000000001,0.59,5.7520861629999995,4.1843748089999995,4.14589119,2.976030588,3.779826403,2.940997247
103,1.873067674,1.794714359,2.212317692,3.2164867289999997,3.773145167,1.254583333,78.92023256,56.73461538,66.31076923,72.42583333,76.56958333,53.70958333,8.049162791,18.33435897,18.8674359,16.91583333,16.11145833,19.753125,1.048386216,286.32,0.263,0.051,1,0,1,0,1,1,0,0,1,0,0,1,301.66,303.5,300.56,300.5,307.64,0.19,0.18899999999999997,0.19,0.19399999999999998,0.188,0.662,0.667,0.784,0.7759999999999999,0.6890000000000001,2.439720392,5.7520861629999995,4.1843748089999995,4.14589119,2.976030588,1.11357537
