Error Metrics,Validation Scores,Testing Scores
mean target,3.831490205506257,3.831490205506257
F1,0.44570929089096706,0.800536027420102
F2,0.45789504125770675,0.764465257281028
F05,0.434327850646958,0.8401793135004512
Precision,0.42714013036681936,0.8688639454422717
Recall,0.706938646853463,0.7421712867648076
R2,0.2756058609037909,0.547765983866831
Adjusted R2,0.2056244138877429,0.5141400858538943
RMSE,1.8003363758334683,1.4587814782500361
MSE,3.273453431604202,2.1280434012853604
MAE,1.3107142835836538,1.075238070153599
MAPE,44.16076651790652,39.5146354356269
Accuracy,55.83923348209348,60.4853645643731
Pearson C.C.,0.6282918925894986,0.7461140196560737
Spearman C.C.,0.6335678817106409,0.7591422182948221
Spatial Distance,0.3717081074105013,0.2538859803439264
NMI,0.9923343334995364,0.9930243704134283
AIC,649.5763757210965,535.438903328107
BIC,649.5763757210965,535.438903328107
Data Size train,-,2786.0
Data Size test,-,709.0
Training Time (seconds),-,17.49915623664856
Testing Time (seconds),-,0.6724770069122314
