For param {'n_trees': 100, 'max_depth': 7, 'learning_rate': 0.1}
 *************************FOLDS Average***************************** 

Utility Based Metrics Across All
F1:  0.4618452857265707
F2:  0.45284362162739555
F05: 0.47215913923027114
precision:  0.4799095967726533
recall: 0.5880893937991829

Regression Error Metrics Across All
R2: 0.5728571369018999
Adj-R2: 0.5334828932105983
RMSE: 1.3317300637008587
MSE: 1.828891712336143
MAE: 0.954070392726727
MAPE: 30.033466145181524
Accuracy: 69.96653385481848
AIC: 312.07007535168725
BIC: 312.07007535168725
NMI: 0.995005114549411

Correlations Across All
Pearson: 0.7665902213296689
Spearman: 0.7889059601644822
Distance: 0.23340977867033094
************************REPETITIONS Average*******************************

Utility Based Metrics Across All
F1:  0.4618452857265707
F2:  0.45284362162739555
F05: 0.47215913923027114
precision:  0.4799095967726533
recall: 0.5880893937991829

Regression Error Metrics Across All
R2: 0.5728571369018999
Adj-R2: 0.5334828932105983
RMSE: 1.3317300637008587
MSE: 1.828891712336143
MAE: 0.954070392726727
MAPE: 30.033466145181524
Accuracy: 69.96653385481848
AIC: 312.07007535168725
BIC: 312.07007535168725
NMI: 0.995005114549411

Correlations Across All
Pearson: 0.7665902213296689
Spearman: 0.7889059601644822
Distance: 0.23340977867033094
For param {'n_trees': 100, 'max_depth': 6, 'learning_rate': 0.1}
 *************************FOLDS Average***************************** 

Utility Based Metrics Across All
F1:  0.46900192663991574
F2:  0.45344846791619214
F05: 0.4870365451529989
precision:  0.500683325156487
recall: 0.5886500750188192

Regression Error Metrics Across All
R2: 0.5786115576541956
Adj-R2: 0.5397672668217717
RMSE: 1.323054374344914
MSE: 1.8092247958869692
MAE: 0.9492068877477873
MAPE: 30.116136754158322
Accuracy: 69.88386324584168
AIC: 303.2112065773012
BIC: 303.2112065773012
NMI: 0.9928625435879489

Correlations Across All
Pearson: 0.7713457861383963
Spearman: 0.7960209400683436
Distance: 0.22865421386160395
************************REPETITIONS Average*******************************

Utility Based Metrics Across All
F1:  0.46900192663991574
F2:  0.45344846791619214
F05: 0.4870365451529989
precision:  0.500683325156487
recall: 0.5886500750188192

Regression Error Metrics Across All
R2: 0.5786115576541956
Adj-R2: 0.5397672668217717
RMSE: 1.323054374344914
MSE: 1.8092247958869692
MAE: 0.9492068877477873
MAPE: 30.116136754158322
Accuracy: 69.88386324584168
AIC: 303.2112065773012
BIC: 303.2112065773012
NMI: 0.9928625435879489

Correlations Across All
Pearson: 0.7713457861383963
Spearman: 0.7960209400683436
Distance: 0.22865421386160395
