Total Number of rare cases: 513 out of 5123
Percentage of Rare Cases: 10.01%

number of rare in train: 410/4090
==> 10.024449877750612%%
number of rare in test: 103/1033
==> 9.970958373668925%%
Total Number of rare cases: 513 out of 5123
Percentage of Rare Cases: 10.01%

number of rare in train: 410/4090
==> 10.024449877750612%%
number of rare in test: 103/1033
==> 9.970958373668925%%
Total Number of rare cases: 513 out of 5123
Percentage of Rare Cases: 10.01%

number of rare in train: 410/4090
==> 10.024449877750612%%
number of rare in test: 103/1033
==> 9.970958373668925%%
Total Number of rare cases: 513 out of 5123
Percentage of Rare Cases: 10.01%

number of rare in train: 410/4090
==> 10.024449877750612%%
number of rare in test: 103/1033
==> 9.970958373668925%%
Total Number of rare cases: 513 out of 5123
Percentage of Rare Cases: 10.01%

number of rare in train: 410/4090
==> 10.024449877750612%%
number of rare in test: 103/1033
==> 9.970958373668925%%
Total Number of rare cases: 513 out of 5123
Percentage of Rare Cases: 10.01%

number of rare in train: 410/4090
==> 10.024449877750612%%
number of rare in test: 103/1033
==> 9.970958373668925%%
Total Number of rare cases: 513 out of 5123
Percentage of Rare Cases: 10.01%

number of rare in train: 410/4090
==> 10.024449877750612%%
number of rare in test: 103/1033
==> 9.970958373668925%%
Total Number of rare cases: 513 out of 5123
Percentage of Rare Cases: 10.01%

number of rare in train: 410/4090
==> 10.024449877750612%%
number of rare in test: 103/1033
==> 9.970958373668925%%
Total Number of rare cases: 513 out of 5123
Percentage of Rare Cases: 10.01%

number of rare in train: 410/4090
==> 10.024449877750612%%
number of rare in test: 103/1033
==> 9.970958373668925%%
Total Number of rare cases: 513 out of 5123
Percentage of Rare Cases: 10.01%

number of rare in train: 410/4090
==> 10.024449877750612%%
number of rare in test: 103/1033
==> 9.970958373668925%%
Total Number of rare cases: 513 out of 5123
Percentage of Rare Cases: 10.01%

number of rare in train: 410/4090
==> 10.024449877750612%%
number of rare in test: 103/1033
==> 9.970958373668925%%
