For param {'max_depth': 5, 'min_child_weight': 1, 'gamma': 0.3, 'colsample_bytree': 0.4, 'objective': 'reg:squarederror'}
 *************************FOLDS Average***************************** 

Utility Based Metrics Across All
F1:  0.596117528038418
F2:  0.5839043928888599
F05: 0.6101054191868602
precision:  0.6205111602646123
recall: 0.6453360673997912

Regression Error Metrics Across All
R2: 0.43740357254150464
Adj-R2: 0.3606146451168074
RMSE: 1.5896944491330078
MSE: 2.6486376679883574
MAE: 1.1960820174472637
MAPE: 39.2577843632069
Accuracy: 60.742215636793105
AIC: 360.1439367053586
BIC: 360.1439367053586
NMI: 0.9931616308004243

Correlations Across All
Pearson: 0.6923041395562064
Spearman: 0.6798168055333426
Distance: 0.30769586044379355
************************REPETITIONS Average*******************************

Utility Based Metrics Across All
F1:  0.596117528038418
F2:  0.5839043928888599
F05: 0.6101054191868602
precision:  0.6205111602646123
recall: 0.6453360673997912

Regression Error Metrics Across All
R2: 0.43740357254150464
Adj-R2: 0.3606146451168074
RMSE: 1.5896944491330078
MSE: 2.6486376679883574
MAE: 1.1960820174472637
MAPE: 39.2577843632069
Accuracy: 60.742215636793105
AIC: 360.1439367053586
BIC: 360.1439367053586
NMI: 0.9931616308004243

Correlations Across All
Pearson: 0.6923041395562064
Spearman: 0.6798168055333426
Distance: 0.30769586044379355

Utility Based Metrics Across All
F1:  0.3058177133554352
F2:  0.2994758731978337
F05: 0.3145801604906249
precision:  0.32184588742554754
recall: 0.22623959429155252

Regression Error Metrics Across All
R2: 0.1258810904189711
Adj-R2: 0.14306263200819
RMSE: 0.34858173558587485
MSE: 1.1719304082890474
MAE: 0.21429547976141505
MAPE: 8.249620081108398
Accuracy: 8.249620081108398
AIC: 175.09379139650355
BIC: 175.09379139650355
NMI: 0.0018715278445416911

Correlations Across All
Pearson: 0.08672217284713042
Spearman: 0.09410570556481726
Distance: 0.0867221728471304
