For param {'n_trees': 100, 'max_depth': 7, 'learning_rate': 0.1}
 *************************FOLDS Average***************************** 

Utility Based Metrics Across All
F1:  0.4825369584863887
F2:  0.45762594382639915
F05: 0.5119567251251588
precision:  0.5347965372360257
recall: 0.5738371400815998

Regression Error Metrics Across All
R2: 0.3792728923821301
Adj-R2: 0.3018794362160343
RMSE: 1.486986407057108
MSE: 2.313601966452347
MAE: 1.141165240612692
MAPE: 39.94629051569129
Accuracy: 60.053709484308705
AIC: 330.3598393039312
BIC: 330.3598393039312
NMI: 0.9921169714240191

Correlations Across All
Pearson: 0.6391263311309089
Spearman: 0.6340897237034885
Distance: 0.36087366886909106
************************REPETITIONS Average*******************************

Utility Based Metrics Across All
F1:  0.4825369584863887
F2:  0.45762594382639915
F05: 0.5119567251251588
precision:  0.5347965372360257
recall: 0.5738371400815998

Regression Error Metrics Across All
R2: 0.3792728923821301
Adj-R2: 0.3018794362160343
RMSE: 1.486986407057108
MSE: 2.313601966452347
MAE: 1.141165240612692
MAPE: 39.94629051569129
Accuracy: 60.053709484308705
AIC: 330.3598393039312
BIC: 330.3598393039312
NMI: 0.9921169714240191

Correlations Across All
Pearson: 0.6391263311309089
Spearman: 0.6340897237034885
Distance: 0.36087366886909106
For param {'n_trees': 100, 'max_depth': 6, 'learning_rate': 0.1}
 *************************FOLDS Average***************************** 

Utility Based Metrics Across All
F1:  0.6432460196309858
F2:  0.5943561694961268
F05: 0.7034523513083055
precision:  0.7520875901010344
recall: 0.5665183020348865

Regression Error Metrics Across All
R2: 0.4038062676843134
Adj-R2: 0.3294716801945713
RMSE: 1.4497445919806948
MSE: 2.1970414259889255
MAE: 1.1142183157784364
MAPE: 38.77368238997393
Accuracy: 61.22631761002607
AIC: 309.15842270993846
BIC: 309.15842270993846
NMI: 0.9842798783112411

Correlations Across All
Pearson: 0.6518305638068946
Spearman: 0.6455445732764356
Distance: 0.3481694361931053
************************REPETITIONS Average*******************************

Utility Based Metrics Across All
F1:  0.6432460196309858
F2:  0.5943561694961268
F05: 0.7034523513083055
precision:  0.7520875901010344
recall: 0.5665183020348865

Regression Error Metrics Across All
R2: 0.4038062676843134
Adj-R2: 0.3294716801945713
RMSE: 1.4497445919806948
MSE: 2.1970414259889255
MAE: 1.1142183157784364
MAPE: 38.77368238997393
Accuracy: 61.22631761002607
AIC: 309.15842270993846
BIC: 309.15842270993846
NMI: 0.9842798783112411

Correlations Across All
Pearson: 0.6518305638068946
Spearman: 0.6455445732764356
Distance: 0.3481694361931053
