Error Metrics,Testing Scores
mean target,3.714587493414523
F1,1.999972347293897e-05
F2,4.999723484408575e-05
F05,1.249995679219866e-05
Precision,1e-05
Recall,0.7232465205501053
R2,0.5490548235156091
Adjusted R2,0.5271121088703905
RMSE,1.2269933721786663
MSE,1.5055127353703754
MAE,0.9029444127010576
MAPE,32.956352817059745
Accuracy,67.04364718294025
Pearson C.C.,0.7513583685834193
Spearman C.C.,0.7710615752152312
Spatial Distance,0.2486416314165807
NMI,0.9938935561221764
AIC,432.45413923722964
BIC,432.45413923722964
Data Size train,4187.0
Data Size test,1057.0
Training Time (seconds),35.11847805976868
Testing Time (seconds),0.6713697910308838
