Error Metrics,Testing
Average,3.7471547625276496
Average Testing,3.573871584393934
R2,0.52
Adjusted R2,0.51
RMSE,1.31
MSE,1.72
MAE,0.95
MAPE,31.46
Accuracy,68.54
Pearson C.C.,0.7376795122290529
Spearman C.C.,0.77
Spatial Distance,0.2623204877709471
NMI,1.0
Data Size,10911
AIC,1
BIC,1
Relative Error,47.04
Uncertainty,None
