For param {'n_trees': 100, 'max_depth': 7, 'learning_rate': 0.1}
 *************************FOLDS Average***************************** 

Utility Based Metrics Across All
F1:  0.4650012331058922
F2:  0.46718063471686033
F05: 0.46373132344022433
precision:  0.4633748883399552
recall: 0.7364306604866659

Regression Error Metrics Across All
R2: 0.36037468489892477
Adj-R2: 0.18443704921021736
RMSE: 1.4684700460773876
MSE: 2.2123433599629783
MAE: 1.1291296792222156
MAPE: 42.37954665128381

Correlations Across All
Pearson: 0.6539931593516007
Spearman: 0.6484808846234497
Distance: 0.3460068406483993
************************REPETITIONS Average*******************************

Utility Based Metrics Across All
F1:  0.4650012331058922
F2:  0.46718063471686033
F05: 0.46373132344022433
precision:  0.4633748883399552
recall: 0.7364306604866659

Regression Error Metrics Across All
R2: 0.36037468489892477
Adj-R2: 0.18443704921021736
RMSE: 1.4684700460773876
MSE: 2.2123433599629783
MAE: 1.1291296792222156
MAPE: 42.37954665128381

Correlations Across All
Pearson: 0.6539931593516007
Spearman: 0.6484808846234497
Distance: 0.3460068406483993
For param {'n_trees': 100, 'max_depth': 6, 'learning_rate': 0.1}
 *************************FOLDS Average***************************** 

Utility Based Metrics Across All
F1:  0.4569724401869248
F2:  0.45716513903919126
F05: 0.45831940792435066
precision:  0.46010329770052494
recall: 0.7317334204079246

Regression Error Metrics Across All
R2: 0.4061418723639689
Adj-R2: 0.24279465458445385
RMSE: 1.4174501611537285
MSE: 2.0663546589314734
MAE: 1.0855013737600145
MAPE: 40.53964553140821

Correlations Across All
Pearson: 0.6786269274875633
Spearman: 0.6698891804338596
Distance: 0.3213730725124367
************************REPETITIONS Average*******************************

Utility Based Metrics Across All
F1:  0.4569724401869248
F2:  0.45716513903919126
F05: 0.45831940792435066
precision:  0.46010329770052494
recall: 0.7317334204079246

Regression Error Metrics Across All
R2: 0.4061418723639689
Adj-R2: 0.24279465458445385
RMSE: 1.4174501611537285
MSE: 2.0663546589314734
MAE: 1.0855013737600145
MAPE: 40.53964553140821

Correlations Across All
Pearson: 0.6786269274875633
Spearman: 0.6698891804338596
Distance: 0.3213730725124367
