Total Number of rare cases: 117 out of 1471
Percentage of Rare Cases: 7.95%

number of rare in train: 93/1175
==> 7.914893617021276%%
number of rare in test: 24/296
==> 8.108108108108109%%
Total Number of rare cases: 117 out of 1471
Percentage of Rare Cases: 7.95%

number of rare in train: 93/1175
==> 7.914893617021276%%
number of rare in test: 24/296
==> 8.108108108108109%%
The size of the original data is (1175, 46)
The size of the oversampled data is (1196, 46)
Total Number of rare cases: 131 out of 1196
Percentage of Rare Cases: 10.95%

The percentage of rare values in dataset after smogn are 10.953177257525084
